Time,Behaviors,Start
0.00,,
0.20,,
0.40,,
0.60,,
0.80,,
1.00,,
1.20,,
1.40,,
1.60,,
1.80,,
2.00,,
2.20,,
2.40,,
2.60,,
2.80,,
3.00,,
3.20,,
3.40,,
3.60,,
3.80,,
4.00,,
4.20,,
4.40,,
4.60,,
4.80,Rearing,Juvenile in
5.00,Rearing,
5.20,Rearing,
5.40,Rearing,
5.60,Rearing,
5.80,Rearing,
6.00,Rearing,
6.20,Rearing,
6.40,Rearing,
6.60,Other (W),
6.80,Other (W),
7.00,Other (W),
7.20,Other (W),
7.40,Other (W),
7.60,Other (W),
7.80,Other (W),
8.00,Other (W),
8.20,Face sniff (D),
8.40,Face sniff (D),
8.60,Face sniff (D),
8.80,Face sniff (D),
9.00,Face sniff (D),
9.20,Face sniff (D),
9.40,Face sniff (D),
9.60,Face sniff (D),
9.80,Face sniff (D),
10.00,Face sniff (D),
10.20,Body sniff (S),
10.40,Body sniff (S),
10.60,Body sniff (S),
10.80,AG sniff (A),
11.00,AG sniff (A),
11.20,Follow (Q),
11.40,Follow (Q),
11.60,Follow (Q),
11.80,Follow (Q),
12.00,Follow (Q),
12.20,Follow (Q),
12.40,Follow (Q),
12.60,AG sniff (A),
12.80,AG sniff (A),
13.00,AG sniff (A),
13.20,AG sniff (A),
13.40,AG sniff (A),
13.60,AG sniff (A),
13.80,AG sniff (A),
14.00,AG sniff (A),
14.20,Follow (Q),
14.40,Follow (Q),
14.60,Follow (Q),
14.80,Body sniff (S),
15.00,Body sniff (S),
15.20,Body sniff (S),
15.40,Body sniff (S),
15.60,Body sniff (S),
15.80,Body sniff (S),
16.00,Body sniff (S),
16.20,Body sniff (S),
16.40,Body sniff (S),
16.60,Body sniff (S),
16.80,Body sniff (S),
17.00,Body sniff (S),
17.20,AG sniff (A),
17.40,AG sniff (A),
17.60,AG sniff (A),
17.80,AG sniff (A),
18.00,AG sniff (A),
18.20,AG sniff (A),
18.40,AG sniff (A),
18.60,Body sniff (S),
18.80,Body sniff (S),
19.00,Body sniff (S),
19.20,Body sniff (S),
19.40,Body sniff (S),
19.60,Body sniff (S),
19.80,Body sniff (S),
20.00,Face sniff (D),
20.20,Face sniff (D),
20.40,Face sniff (D),
20.60,Face sniff (D),
20.80,Face sniff (D),
21.00,Face sniff (D),
21.20,Face sniff (D),
21.40,Face sniff (D),
21.60,Face sniff (D),
21.80,Body sniff (S),
22.00,Body sniff (S),
22.20,AG sniff (A),
22.40,AG sniff (A),
22.60,AG sniff (A),
22.80,Body sniff (S),
23.00,Body sniff (S),
23.20,Body sniff (S),
23.40,Body sniff (S),
23.60,Body sniff (S),
23.80,Body sniff (S),
24.00,Body sniff (S),
24.20,Body sniff (S),
24.40,Body sniff (S),
24.60,Body sniff (S),
24.80,Body sniff (S),
25.00,Body sniff (S),
25.20,Body sniff (S),
25.40,Body sniff (S),
25.60,Body sniff (S),
25.80,Body sniff (S),
26.00,Body sniff (S),
26.20,Body sniff (S),
26.40,Body sniff (S),
26.60,Body sniff (S),
26.80,Body sniff (S),
27.00,Body sniff (S),
27.20,Body sniff (S),
27.40,Body sniff (S),
27.60,Body sniff (S),
27.80,Body sniff (S),
28.00,Body sniff (S),
28.20,Body sniff (S),
28.40,Body sniff (S),
28.60,Body sniff (S),
28.80,Body sniff (S),
29.00,Body sniff (S),
29.20,Thrust (Y),
29.40,Thrust (Y),
29.60,Thrust (Y),
29.80,Thrust (Y),
30.00,Thrust (Y),
30.20,Thrust (Y),
30.40,Thrust (Y),
30.60,Thrust (Y),
30.80,Thrust (Y),
31.00,Thrust (Y),
31.20,Thrust (Y),
31.40,Thrust (Y),
31.60,Thrust (Y),
31.80,Thrust (Y),
32.00,Thrust (Y),
32.20,Thrust (Y),
32.40,Thrust (Y),
32.60,Thrust (Y),
32.80,Thrust (Y),
33.00,Thrust (Y),
33.20,Thrust (Y),
33.40,Thrust (Y),
33.60,Thrust (Y),
33.80,Thrust (Y),
34.00,Thrust (Y),
34.20,Body sniff (S),
34.40,Body sniff (S),
34.60,Body sniff (S),
34.80,Body sniff (S),
35.00,Body sniff (S),
35.20,Body sniff (S),
35.40,Body sniff (S),
35.60,Body sniff (S),
35.80,Body sniff (S),
36.00,Body sniff (S),
36.20,Body sniff (S),
36.40,Thrust (Y),
36.60,Thrust (Y),
36.80,Thrust (Y),
37.00,Thrust (Y),
37.20,Thrust (Y),
37.40,Thrust (Y),
37.60,Thrust (Y),
37.80,Thrust (Y),
38.00,Thrust (Y),
38.20,Thrust (Y),
38.40,Thrust (Y),
38.60,Thrust (Y),
38.80,Walk away,
39.00,Walk away,
39.20,Walk away,
39.40,Walk away,
39.60,Walk away,
39.80,Walk away,
40.00,Walk away,
40.20,Walk away,
40.40,Walk away,
40.60,Walk away,
40.80,Walk away,
41.00,Walk away,
41.20,Tail rattle,
41.40,Tail rattle,
41.60,Tail rattle,
41.80,Other (W),
42.00,Other (W),
42.20,Other (W),
42.40,Other (W),
42.60,Other (W),
42.80,Other (W),
43.00,Other (W),
43.20,Other (W),
43.40,Other (W),
43.60,Other (W),
43.80,Other (W),
44.00,Other (W),
44.20,Other (W),
44.40,Other (W),
44.60,Other (W),
44.80,Other (W),
45.00,Other (W),
45.20,Other (W),
45.40,Attack,
45.60,Attack,
45.80,Attack,
46.00,Attack,
46.20,Attack,
46.40,Attack,
46.60,Attack,
46.80,Attack,
47.00,Attack,
47.20,Attack,
47.40,Attack,
47.60,Attack,
47.80,Attack,
48.00,Attack,
48.20,Attack,
48.40,Other (W),
48.60,Other (W),
48.80,Other (W),
49.00,Other (W),
49.20,Other (W),
49.40,Other (W),
49.60,Other (W),
49.80,Other (W),
50.00,Other (W),
50.20,Body sniff (S),
50.40,Body sniff (S),
50.60,Body sniff (S),
50.80,Body sniff (S),
51.00,AG sniff (A),
51.20,AG sniff (A),
51.40,Body sniff (S),
51.60,Body sniff (S),
51.80,Body sniff (S),
52.00,Thrust (Y),
52.20,Thrust (Y),
52.40,Body sniff (S),
52.60,Body sniff (S),
52.80,Walk away,
53.00,Walk away,
53.20,Walk away,
53.40,Walk away,
53.60,Other (W),
53.80,Other (W),
54.00,Other (W),
54.20,Other (W),
54.40,Other (W),
54.60,Other (W),
54.80,Other (W),
55.00,Other (W),
55.20,Other (W),
55.40,Other (W),
55.60,Other (W),
55.80,Other (W),
56.00,Other (W),
56.20,Tail rattle,
56.40,Tail rattle,
56.60,Tail rattle,
56.80,Tail rattle,
57.00,Other (W),
57.20,Other (W),
57.40,Other (W),
57.60,Other (W),
57.80,Other (W),
58.00,Other (W),
58.20,Other (W),
58.40,Other (W),
58.60,Other (W),
58.80,Other (W),
59.00,Other (W),
59.20,Other (W),
59.40,Other (W),
59.60,Other (W),
59.80,Other (W),
60.00,Other (W),
60.20,Other (W),
60.40,Other (W),
60.60,Other (W),
60.80,Other (W),
61.00,Other (W),
61.20,Other (W),
61.40,Other (W),
61.60,Other (W),
61.80,Other (W),
62.00,Other (W),
62.20,Other (W),
62.40,Other (W),
62.60,Other (W),
62.80,Other (W),
63.00,Other (W),
63.20,Other (W),
63.40,Other (W),
63.60,Other (W),
63.80,Other (W),
64.00,Other (W),
64.20,Other (W),
64.40,Other (W),
64.60,Other (W),
64.80,Other (W),
65.00,Other (W),
65.20,Other (W),
65.40,Other (W),
65.60,Other (W),
65.80,Other (W),
66.00,Other (W),
66.20,Attack,
66.40,Attack,
66.60,Attack,
66.80,Attack,
67.00,Attack,
67.20,Attack,
67.40,Attack,
67.60,Attack,
67.80,Attack,
68.00,Attack,
68.20,Attack,
68.40,Attack,
68.60,Attack,
68.80,Attack,
69.00,Attack,
69.20,Attack,
69.40,Attack,
69.60,Attack,
69.80,Tail rattle,
70.00,Tail rattle,
70.20,Tail rattle,
70.40,Tail rattle,
70.60,Tail rattle,
70.80,Tail rattle,
71.00,Attack,
71.20,Attack,
71.40,Attack,
71.60,Attack,
71.80,Attack,
72.00,Attack,
72.20,Attack,
72.40,Attack,
72.60,Attack,
72.80,Attack,
73.00,Attack,
73.20,Attack,
73.40,Attack,
73.60,Attack,
73.80,Other (W),
74.00,Other (W),
74.20,Attack,
74.40,Attack,
74.60,Attack,
74.80,Attack,
75.00,Attack,
75.20,Attack,
75.40,Attack,
75.60,Attack,
75.80,Attack,
76.00,Attack,
76.20,Attack,
76.40,Attack,
76.60,Attack,
76.80,Attack,
77.00,Attack,
77.20,Attack,
77.40,Walk away,
77.60,Walk away,
77.80,Walk away,
78.00,Walk away,
78.20,Tail rattle,
78.40,Tail rattle,
78.60,Tail rattle,
78.80,Tail rattle,
79.00,Tail rattle,
79.20,Tail rattle,
79.40,Tail rattle,
79.60,Tail rattle,
79.80,Tail rattle,
80.00,Tail rattle,
80.20,Tail rattle,
80.40,Tail rattle,
80.60,Other (W),
80.80,Other (W),
81.00,Other (W),
81.20,Other (W),
81.40,Other (W),
81.60,Other (W),
81.80,Other (W),
82.00,Other (W),
82.20,Other (W),
82.40,Other (W),
82.60,Tail rattle,
82.80,Tail rattle,
83.00,Tail rattle,
83.20,Tail rattle,
83.40,Tail rattle,
83.60,Tail rattle,
83.80,Other (W),
84.00,Other (W),
84.20,Other (W),
84.40,Other (W),
84.60,Other (W),
84.80,Other (W),
85.00,Other (W),
85.20,Other (W),
85.40,Other (W),
85.60,Other (W),
85.80,Other (W),
86.00,Other (W),
86.20,Other (W),
86.40,Other (W),
86.60,Other (W),
86.80,Other (W),
87.00,Other (W),
87.20,Tail rattle,
87.40,Tail rattle,
87.60,Tail rattle,
87.80,Tail rattle,
88.00,Other (W),
88.20,Other (W),
88.40,Other (W),
88.60,Other (W),
88.80,Other (W),
89.00,Other (W),
89.20,Other (W),
89.40,Other (W),
89.60,Other (W),
89.80,Other (W),
90.00,Other (W),
90.20,Other (W),
90.40,Other (W),
90.60,Other (W),
90.80,Other (W),
91.00,Other (W),
91.20,Other (W),
91.40,Other (W),
91.60,Other (W),
91.80,Other (W),
92.00,Other (W),
92.20,Other (W),
92.40,Tail rattle,
92.60,Tail rattle,
92.80,Tail rattle,
93.00,Tail rattle,
93.20,Attack,
93.40,Attack,
93.60,Attack,
93.80,Attack,
94.00,Tail rattle,
94.20,Tail rattle,
94.40,Tail rattle,
94.60,Tail rattle,
94.80,Attack,
95.00,Attack,
95.20,Attack,
95.40,Attack,
95.60,Attack,
95.80,Attack,
96.00,Attack,
96.20,Attack,
96.40,Other (W),
96.60,Other (W),
96.80,Other (W),
97.00,Other (W),
97.20,Other (W),
97.40,Other (W),
97.60,Other (W),
97.80,Other (W),
98.00,Other (W),
98.20,Other (W),
98.40,Other (W),
98.60,Body sniff (S),
98.80,Body sniff (S),
99.00,Thrust (Y),
99.20,Thrust (Y),
99.40,Attack,
99.60,Attack,
99.80,Attack,
100.00,Attack,
100.20,Attack,
100.40,Attack,
100.60,Attack,
100.80,Attack,
101.00,Attack,
101.20,Walk away,
101.40,Walk away,
101.60,Walk away,
101.80,Walk away,
102.00,Walk away,
102.20,Walk away,
102.40,Walk away,
102.60,Walk away,
102.80,Tail rattle,
103.00,Tail rattle,
103.20,Tail rattle,
103.40,Tail rattle,
103.60,Other (W),
103.80,Other (W),
104.00,Other (W),
104.20,Other (W),
104.40,Other (W),
104.60,Other (W),
104.80,Other (W),
105.00,Other (W),
105.20,Other (W),
105.40,Other (W),
105.60,Other (W),
105.80,Other (W),
106.00,Other (W),
106.20,Other (W),
106.40,Other (W),
106.60,Other (W),
106.80,Other (W),
107.00,Other (W),
107.20,Other (W),
107.40,Other (W),
107.60,Other (W),
107.80,Other (W),
108.00,Other (W),
108.20,Other (W),
108.40,Other (W),
108.60,Other (W),
108.80,Other (W),
109.00,Other (W),
109.20,Other (W),
109.40,Other (W),
109.60,Other (W),
109.80,Other (W),
110.00,Other (W),
110.20,Other (W),
110.40,Other (W),
110.60,Other (W),
110.80,Other (W),
111.00,Other (W),
111.20,Other (W),
111.40,Other (W),
111.60,Other (W),
111.80,Other (W),
112.00,Other (W),
112.20,Other (W),
112.40,Other (W),
112.60,Other (W),
112.80,Other (W),
113.00,Other (W),
113.20,Other (W),
113.40,Other (W),
113.60,Other (W),
113.80,Other (W),
114.00,Other (W),
114.20,Other (W),
114.40,Other (W),
114.60,Other (W),
114.80,Other (W),
115.00,Other (W),
115.20,Other (W),
115.40,Other (W),
115.60,Other (W),
115.80,Other (W),
116.00,Other (W),
116.20,Other (W),
116.40,Other (W),
116.60,Other (W),
116.80,Other (W),
117.00,Other (W),
117.20,Other (W),
117.40,Other (W),
117.60,Other (W),
117.80,Other (W),
118.00,Other (W),
118.20,Other (W),
118.40,Other (W),
118.60,Other (W),
118.80,Other (W),
119.00,Other (W),
119.20,Other (W),
119.40,Other (W),
119.60,Other (W),
119.80,Other (W),
120.00,Face sniff (D),
120.20,Face sniff (D),
120.40,Face sniff (D),
120.60,Face sniff (D),
120.80,Attack,
121.00,Attack,
121.20,Attack,
121.40,Attack,
121.60,Attack,
121.80,Attack,
122.00,Attack,
122.20,Attack,
122.40,Attack,
122.60,Attack,
122.80,Attack,
123.00,Attack,
123.20,Attack,
123.40,Attack,
123.60,Attack,
123.80,Attack,
124.00,Attack,
124.20,Attack,
124.40,Attack,
124.60,Other (W),
124.80,Other (W),
125.00,Other (W),
125.20,Other (W),
125.40,Other (W),
125.60,Other (W),
125.80,Walk away,
126.00,Walk away,
126.20,Walk away,
126.40,Walk away,
126.60,Walk away,
126.80,Walk away,
127.00,Walk away,
127.20,Walk away,
127.40,Tail rattle,
127.60,Tail rattle,
127.80,Tail rattle,
128.00,Tail rattle,
128.20,Other (W),
128.40,Other (W),
128.60,Other (W),
128.80,Other (W),
129.00,Other (W),
129.20,Other (W),
129.40,Other (W),
129.60,Other (W),
129.80,Other (W),
130.00,Other (W),
130.20,Other (W),
130.40,Other (W),
130.60,Other (W),
130.80,Other (W),
131.00,Other (W),
131.20,Other (W),
131.40,Other (W),
131.60,Other (W),
131.80,Other (W),
132.00,Other (W),
132.20,Other (W),
132.40,Other (W),
132.60,Other (W),
132.80,Other (W),
133.00,Other (W),
133.20,Other (W),
133.40,Other (W),
133.60,Other (W),
133.80,Other (W),
134.00,Other (W),
134.20,Other (W),
134.40,Other (W),
134.60,Other (W),
134.80,Other (W),
135.00,Other (W),
135.20,Other (W),
135.40,Other (W),
135.60,Other (W),
135.80,Other (W),
136.00,Other (W),
136.20,Other (W),
136.40,Other (W),
136.60,Other (W),
136.80,Other (W),
137.00,Other (W),
137.20,Other (W),
137.40,Other (W),
137.60,Other (W),
137.80,Other (W),
138.00,Other (W),
138.20,Other (W),
138.40,Other (W),
138.60,Other (W),
138.80,Other (W),
139.00,Other (W),
139.20,Other (W),
139.40,Other (W),
139.60,Other (W),
139.80,Other (W),
140.00,Other (W),
140.20,Other (W),
140.40,Other (W),
140.60,Other (W),
140.80,Other (W),
141.00,Other (W),
141.20,Other (W),
141.40,Other (W),
141.60,Other (W),
141.80,Other (W),
142.00,Other (W),
142.20,Other (W),
142.40,Other (W),
142.60,Other (W),
142.80,Other (W),
143.00,Other (W),
143.20,Other (W),
143.40,Other (W),
143.60,Other (W),
143.80,Other (W),
144.00,Other (W),
144.20,Other (W),
144.40,Other (W),
144.60,Other (W),
144.80,Other (W),
145.00,Other (W),
145.20,Other (W),
145.40,Other (W),
145.60,Other (W),
145.80,Other (W),
146.00,Other (W),
146.20,Other (W),
146.40,Other (W),
146.60,Other (W),
146.80,Other (W),
147.00,Other (W),
147.20,Other (W),
147.40,Other (W),
147.60,Other (W),
147.80,Other (W),
148.00,Other (W),
148.20,Other (W),
148.40,Other (W),
148.60,Other (W),
148.80,Other (W),
149.00,Other (W),
149.20,Other (W),
149.40,Other (W),
149.60,Other (W),
149.80,Other (W),
150.00,Other (W),
150.20,Other (W),
150.40,Other (W),
150.60,Other (W),
150.80,Other (W),
151.00,Other (W),
151.20,Other (W),
151.40,Other (W),
151.60,Other (W),
151.80,Other (W),
152.00,Other (W),
152.20,Other (W),
152.40,Other (W),
152.60,Other (W),
152.80,Other (W),
153.00,Other (W),
153.20,Other (W),
153.40,Other (W),
153.60,Other (W),
153.80,Other (W),
154.00,Other (W),
154.20,Other (W),
154.40,Other (W),
154.60,Other (W),
154.80,Other (W),
155.00,Other (W),
155.20,Other (W),
155.40,Other (W),
155.60,Other (W),
155.80,Other (W),
156.00,Other (W),
156.20,Other (W),
156.40,Other (W),
156.60,Other (W),
156.80,Other (W),
157.00,Other (W),
157.20,Other (W),
157.40,Other (W),
157.60,Other (W),
157.80,Other (W),
158.00,Other (W),
158.20,Other (W),
158.40,Other (W),
158.60,Other (W),
158.80,Other (W),
159.00,Other (W),
159.20,Other (W),
159.40,Other (W),
159.60,Other (W),
159.80,Other (W),
160.00,Other (W),
160.20,Rearing,
160.40,Rearing,
160.60,Rearing,
160.80,Rearing,
161.00,Rearing,
161.20,Rearing,
161.40,Rearing,
161.60,Rearing,
161.80,Rearing,
162.00,Rearing,
162.20,Rearing,
162.40,Other (W),
162.60,Other (W),
162.80,Other (W),
163.00,Other (W),
163.20,Other (W),
163.40,Other (W),
163.60,Other (W),
163.80,Other (W),
164.00,Other (W),
164.20,Other (W),
164.40,Other (W),
164.60,Other (W),
164.80,Other (W),
165.00,Other (W),
165.20,Face sniff (D),
165.40,Face sniff (D),
165.60,Face sniff (D),
165.80,Body sniff (S),
166.00,Body sniff (S),
166.20,Body sniff (S),
166.40,Body sniff (S),
166.60,Walk away,
166.80,Walk away,
167.00,Walk away,
167.20,Other (W),
167.40,Other (W),
167.60,Other (W),
167.80,Other (W),
168.00,Other (W),
168.20,Other (W),
168.40,Other (W),
168.60,Other (W),
168.80,Other (W),
169.00,Other (W),
169.20,Other (W),
169.40,Other (W),
169.60,Other (W),
169.80,Other (W),
170.00,Other (W),
170.20,Other (W),
170.40,Other (W),
170.60,Other (W),
170.80,Other (W),
171.00,Other (W),
171.20,Other (W),
171.40,Other (W),
171.60,Other (W),
171.80,Other (W),
172.00,Other (W),
172.20,Other (W),
172.40,Other (W),
172.60,Other (W),
172.80,Other (W),
173.00,Other (W),
173.20,Other (W),
173.40,Other (W),
173.60,Other (W),
173.80,Other (W),
174.00,Other (W),
174.20,Other (W),
174.40,Other (W),
174.60,Other (W),
174.80,Other (W),
175.00,Other (W),
175.20,Other (W),
175.40,Other (W),
175.60,Other (W),
175.80,Other (W),
176.00,Other (W),
176.20,Other (W),
176.40,Other (W),
176.60,Other (W),
176.80,Other (W),
177.00,Other (W),
177.20,Other (W),
177.40,Other (W),
177.60,Other (W),
177.80,Other (W),
178.00,Other (W),
178.20,Other (W),
178.40,Other (W),
178.60,Other (W),
178.80,Other (W),
179.00,Other (W),
179.20,Other (W),
179.40,Other (W),
179.60,Other (W),
179.80,Other (W),
180.00,Other (W),
180.20,Other (W),
180.40,Other (W),
180.60,Other (W),
180.80,Other (W),
181.00,Other (W),
181.20,Other (W),
181.40,Other (W),
181.60,Other (W),
181.80,Face sniff (D),
182.00,Face sniff (D),
182.20,Attack,
182.40,Attack,
182.60,Attack,
182.80,Attack,
183.00,Attack,
183.20,Attack,
183.40,Attack,
183.60,Attack,
183.80,Attack,
184.00,Attack,
184.20,Attack,
184.40,Attack,
184.60,Attack,
184.80,Attack,
185.00,Chase,
185.20,Chase,
185.40,Chase,
185.60,Walk away,
185.80,Walk away,
186.00,Walk away,
186.20,Walk away,
186.40,Walk away,
186.60,Walk away,
186.80,Tail rattle,
187.00,Tail rattle,
187.20,Tail rattle,
187.40,Tail rattle,
187.60,Tail rattle,
187.80,Other (W),
188.00,Other (W),
188.20,Other (W),
188.40,Other (W),
188.60,Other (W),
188.80,Other (W),
189.00,Other (W),
189.20,Other (W),
189.40,Other (W),
189.60,Other (W),
189.80,Other (W),
190.00,Other (W),
190.20,Other (W),
190.40,Other (W),
190.60,Other (W),
190.80,Other (W),
191.00,Other (W),
191.20,Other (W),
191.40,Other (W),
191.60,Other (W),
191.80,Other (W),
192.00,Other (W),
192.20,Other (W),
192.40,Other (W),
192.60,Other (W),
192.80,Other (W),
193.00,Other (W),
193.20,Other (W),
193.40,Other (W),
193.60,Other (W),
193.80,Other (W),
194.00,Other (W),
194.20,Rearing,
194.40,Rearing,
194.60,Rearing,
194.80,Other (W),
195.00,Other (W),
195.20,Other (W),
195.40,Other (W),
195.60,Other (W),
195.80,Other (W),
196.00,Other (W),
196.20,Other (W),
196.40,Attack,
196.60,Attack,
196.80,Attack,
197.00,Attack,
197.20,Attack,
197.40,Attack,
197.60,Attack,
197.80,Attack,
198.00,Attack,
198.20,Attack,
198.40,Attack,
198.60,Attack,
198.80,Attack,
199.00,Attack,
199.20,Attack,
199.40,Attack,
199.60,Attack,
199.80,Attack,
200.00,Attack,
200.20,Attack,
200.40,Attack,
200.60,Attack,
200.80,Attack,
201.00,Attack,
201.20,Attack,
201.40,Attack,
201.60,Attack,
201.80,Attack,
202.00,Attack,
202.20,Attack,
202.40,Attack,
202.60,Attack,
202.80,Walk away,
203.00,Walk away,
203.20,Tail rattle,
203.40,Tail rattle,
203.60,Tail rattle,
203.80,Tail rattle,
204.00,Attack,
204.20,Attack,
204.40,Attack,
204.60,Attack,
204.80,Attack,
205.00,Attack,
205.20,Attack,
205.40,Attack,
205.60,Attack,
205.80,Other (W),
206.00,Other (W),
206.20,Attack,
206.40,Attack,
206.60,Attack,
206.80,Attack,
207.00,Attack,
207.20,Attack,
207.40,Attack,
207.60,Attack,
207.80,Attack,
208.00,Attack,
208.20,Attack,
208.40,Attack,
208.60,Attack,
208.80,Attack,
209.00,Attack,
209.20,Attack,
209.40,Attack,
209.60,Attack,
209.80,Attack,
210.00,Attack,
210.20,Attack,
210.40,Attack,
210.60,Attack,
210.80,Walk away,
211.00,Walk away,
211.20,Walk away,
211.40,Walk away,
211.60,Tail rattle,
211.80,Tail rattle,
212.00,Tail rattle,
212.20,Tail rattle,
212.40,Tail rattle,
212.60,Tail rattle,
212.80,Tail rattle,
213.00,Tail rattle,
213.20,Tail rattle,
213.40,Tail rattle,
213.60,Tail rattle,
213.80,Tail rattle,
214.00,Other (W),
214.20,Other (W),
214.40,Other (W),
214.60,Other (W),
214.80,Other (W),
215.00,Other (W),
215.20,Other (W),
215.40,Other (W),
215.60,Other (W),
215.80,Other (W),
216.00,Tail rattle,
216.20,Tail rattle,
216.40,Tail rattle,
216.60,Tail rattle,
216.80,Tail rattle,
217.00,Other (W),
217.20,Other (W),
217.40,Other (W),
217.60,Other (W),
217.80,Other (W),
218.00,Other (W),
218.20,Other (W),
218.40,Other (W),
218.60,Other (W),
218.80,Other (W),
219.00,Other (W),
219.20,Other (W),
219.40,Other (W),
219.60,Other (W),
219.80,Attack,
220.00,Attack,
220.20,Attack,
220.40,Attack,
220.60,Attack,
220.80,Attack,
221.00,Attack,
221.20,Attack,
221.40,Attack,
221.60,Chase,
221.80,Chase,
222.00,Attack,
222.20,Attack,
222.40,Attack,
222.60,Attack,
222.80,Attack,
223.00,Attack,
223.20,Attack,
223.40,Attack,
223.60,Attack,
223.80,Attack,
224.00,Attack,
224.20,Attack,
224.40,Attack,
224.60,Other (W),
224.80,Other (W),
225.00,Other (W),
225.20,Other (W),
225.40,Other (W),
225.60,Other (W),
225.80,Other (W),
226.00,Other (W),
226.20,Tail rattle,
226.40,Tail rattle,
226.60,Tail rattle,
226.80,Tail rattle,
227.00,Tail rattle,
227.20,Other (W),
227.40,Other (W),
227.60,Other (W),
227.80,Other (W),
228.00,Other (W),
228.20,Other (W),
228.40,Other (W),
228.60,Other (W),
228.80,Other (W),
229.00,Other (W),
229.20,Other (W),
229.40,Attack,
229.60,Attack,
229.80,Attack,
230.00,Attack,
230.20,Attack,
230.40,Attack,
230.60,Attack,
230.80,Attack,
231.00,Attack,
231.20,Attack,
231.40,Attack,
231.60,Attack,
231.80,Attack,
232.00,Attack,
232.20,Attack,
232.40,Attack,
232.60,Attack,
232.80,Attack,
233.00,Attack,
233.20,Attack,
233.40,Attack,
233.60,Walk away,
233.80,Tail rattle,
234.00,Tail rattle,
234.20,Tail rattle,
234.40,Tail rattle,
234.60,Tail rattle,
234.80,Tail rattle,
235.00,Other (W),
235.20,Other (W),
235.40,Tail rattle,
235.60,Tail rattle,
235.80,Tail rattle,
236.00,Tail rattle,
236.20,Tail rattle,
236.40,Other (W),
236.60,Other (W),
236.80,Other (W),
237.00,Other (W),
237.20,Other (W),
237.40,Other (W),
237.60,Other (W),
237.80,Other (W),
238.00,Other (W),
238.20,Other (W),
238.40,Other (W),
238.60,Other (W),
238.80,Other (W),
239.00,Other (W),
239.20,Other (W),
239.40,Other (W),
239.60,Other (W),
239.80,Other (W),
240.00,Tail rattle,
240.20,Tail rattle,
240.40,Tail rattle,
240.60,Tail rattle,
240.80,Other (W),
241.00,Other (W),
241.20,Other (W),
241.40,Other (W),
241.60,Other (W),
241.80,Other (W),
242.00,Other (W),
242.20,Other (W),
242.40,Other (W),
242.60,Other (W),
242.80,Other (W),
243.00,Other (W),
243.20,Other (W),
243.40,Other (W),
243.60,Other (W),
243.80,Other (W),
244.00,Other (W),
244.20,Other (W),
244.40,Rearing,
244.60,Rearing,
244.80,Rearing,
245.00,Rearing,
245.20,Rearing,
245.40,Rearing,
245.60,Rearing,
245.80,Rearing,
246.00,Rearing,
246.20,Rearing,
246.40,Other (W),
246.60,Other (W),
246.80,Other (W),
247.00,Other (W),
247.20,Other (W),
247.40,Other (W),
247.60,Other (W),
247.80,Other (W),
248.00,Other (W),
248.20,Other (W),
248.40,Other (W),
248.60,Face sniff (D),
248.80,Face sniff (D),
249.00,Face sniff (D),
249.20,Upright posture (U),
249.40,Upright posture (U),
249.60,Upright posture (U),
249.80,Upright posture (U),
250.00,Upright posture (U),
250.20,Upright posture (U),
250.40,Upright posture (U),
250.60,Upright posture (U),
250.80,Upright posture (U),
251.00,Upright posture (U),
251.20,Upright posture (U),
251.40,Upright posture (U),
251.60,Upright posture (U),
251.80,Upright posture (U),
252.00,Upright posture (U),
252.20,Upright posture (U),
252.40,Upright posture (U),
252.60,Upright posture (U),
252.80,Upright posture (U),
253.00,Upright posture (U),
253.20,Upright posture (U),
253.40,Upright posture (U),
253.60,Upright posture (U),
253.80,Upright posture (U),
254.00,Upright posture (U),
254.20,Upright posture (U),
254.40,Upright posture (U),
254.60,Upright posture (U),
254.80,Upright posture (U),
255.00,Upright posture (U),
255.20,Upright posture (U),
255.40,Upright posture (U),
255.60,Other (W),
255.80,Other (W),
256.00,Other (W),
256.20,Other (W),
256.40,Other (W),
256.60,Other (W),
256.80,Other (W),
257.00,Other (W),
257.20,Other (W),
257.40,Other (W),
257.60,Other (W),
257.80,Other (W),
258.00,Other (W),
258.20,Other (W),
258.40,Other (W),
258.60,Other (W),
258.80,Other (W),
259.00,Other (W),
259.20,Other (W),
259.40,Other (W),
259.60,Other (W),
259.80,Other (W),
260.00,Other (W),
260.20,Other (W),
260.40,Other (W),
260.60,Other (W),
260.80,Other (W),
261.00,Other (W),
261.20,Other (W),
261.40,Rearing,
261.60,Rearing,
261.80,Rearing,
262.00,Rearing,
262.20,Rearing,
262.40,Rearing,
262.60,Rearing,
262.80,Rearing,
263.00,Rearing,
263.20,Rearing,
263.40,Rearing,
263.60,Rearing,
263.80,Rearing,
264.00,Rearing,
264.20,Rearing,
264.40,Other (W),
264.60,Other (W),
264.80,Other (W),
265.00,Other (W),
265.20,Other (W),
265.40,Other (W),
265.60,Other (W),
265.80,Other (W),
266.00,Other (W),
266.20,Other (W),
266.40,Other (W),
266.60,Other (W),
266.80,Other (W),
267.00,Other (W),
267.20,Other (W),
267.40,Other (W),
267.60,Other (W),
267.80,Other (W),
268.00,Other (W),
268.20,Other (W),
268.40,Other (W),
268.60,Other (W),
268.80,Rearing,
269.00,Rearing,
269.20,Rearing,
269.40,Rearing,
269.60,Rearing,
269.80,Rearing,
270.00,Rearing,
270.20,Rearing,
270.40,Rearing,
270.60,Rearing,
270.80,Rearing,
271.00,Rearing,
271.20,Rearing,
271.40,Other (W),
271.60,Other (W),
271.80,Other (W),
272.00,Other (W),
272.20,Other (W),
272.40,Other (W),
272.60,Other (W),
272.80,Other (W),
273.00,Other (W),
273.20,Other (W),
273.40,Other (W),
273.60,Other (W),
273.80,Other (W),
274.00,Other (W),
274.20,Other (W),
274.40,Other (W),
274.60,Other (W),
274.80,Other (W),
275.00,Other (W),
275.20,Other (W),
275.40,Other (W),
275.60,Other (W),
275.80,Other (W),
276.00,Other (W),
276.20,Other (W),
276.40,Other (W),
276.60,Other (W),
276.80,Attack,
277.00,Attack,
277.20,Upright posture (U),
277.40,Upright posture (U),
277.60,Upright posture (U),
277.80,Upright posture (U),
278.00,Upright posture (U),
278.20,Upright posture (U),
278.40,Upright posture (U),
278.60,Upright posture (U),
278.80,Upright posture (U),
279.00,Upright posture (U),
279.20,Upright posture (U),
279.40,Upright posture (U),
279.60,Upright posture (U),
279.80,Upright posture (U),
280.00,Upright posture (U),
280.20,Upright posture (U),
280.40,Upright posture (U),
280.60,Upright posture (U),
280.80,Upright posture (U),
281.00,Upright posture (U),
281.20,Rearing,
281.40,Rearing,
281.60,Rearing,
281.80,Rearing,
282.00,Rearing,
282.20,Rearing,
282.40,Rearing,
282.60,Upright posture (U),
282.80,Upright posture (U),
283.00,Upright posture (U),
283.20,Upright posture (U),
283.40,Other (W),
283.60,Other (W),
283.80,Other (W),
284.00,Other (W),
284.20,Other (W),
284.40,Other (W),
284.60,Other (W),
284.80,Other (W),
285.00,Other (W),
285.20,Other (W),
285.40,Other (W),
285.60,Other (W),
285.80,Other (W),
286.00,Other (W),
286.20,Other (W),
286.40,Other (W),
286.60,Other (W),
286.80,Other (W),
287.00,Other (W),
287.20,Other (W),
287.40,Other (W),
287.60,Other (W),
287.80,Other (W),
288.00,Other (W),
288.20,Other (W),
288.40,Other (W),
288.60,Other (W),
288.80,Other (W),
289.00,Other (W),
289.20,Other (W),
289.40,Other (W),
289.60,Other (W),
289.80,Other (W),
290.00,Other (W),
290.20,Other (W),
290.40,Other (W),
290.60,Other (W),
290.80,Other (W),
291.00,Other (W),
291.20,Other (W),
291.40,Other (W),
291.60,Attack,
291.80,Attack,
292.00,Attack,
292.20,Attack,
292.40,Attack,
292.60,Attack,
292.80,Attack,
293.00,Other (W),
293.20,Other (W),
293.40,Other (W),
293.60,Attack,
293.80,Attack,
294.00,Attack,
294.20,Attack,
294.40,Attack,
294.60,Chase,
294.80,Attack,
295.00,Attack,
295.20,Attack,
295.40,Attack,
295.60,Attack,
295.80,Attack,
296.00,Attack,
296.20,Attack,
296.40,Attack,
296.60,Attack,
296.80,Attack,
297.00,Attack,
297.20,Attack,
297.40,Attack,
297.60,Attack,
297.80,Attack,
298.00,Attack,
298.20,Attack,
298.40,Attack,
298.60,Attack,
298.80,Attack,
299.00,Attack,
299.20,Attack,
299.40,Attack,
299.60,Attack,
299.80,Attack,
300.00,Attack,
300.20,Attack,
300.40,Attack,
300.60,Attack,
300.80,Attack,
301.00,Attack,
301.20,Attack,
301.40,Attack,
301.60,Attack,
301.80,Attack,
302.00,Attack,
302.20,Attack,
302.40,Attack,
302.60,Attack,
302.80,Attack,
303.00,Walk away,
303.20,Walk away,
303.40,Walk away,
303.60,Walk away,
303.80,Walk away,
304.00,Walk away,
304.20,Walk away,
304.40,Walk away,
304.60,Tail rattle,
304.80,Tail rattle,
305.00,Tail rattle,
305.20,Tail rattle,
305.40,Tail rattle,
305.60,Other (W),
305.80,Other (W),
306.00,Other (W),
306.20,Other (W),
306.40,Other (W),
306.60,Other (W),
306.80,Other (W),
307.00,Attack,
307.20,Attack,
307.40,Attack,
307.60,Attack,
307.80,Attack,
308.00,Attack,
308.20,Attack,
308.40,Attack,
308.60,Attack,
308.80,Attack,
309.00,Attack,
309.20,Attack,
309.40,Chase,
309.60,Chase,
309.80,Chase,
310.00,Attack,
310.20,Attack,
310.40,Attack,
310.60,Attack,
310.80,Attack,
311.00,Attack,
311.20,Attack,
311.40,Attack,
311.60,Attack,
311.80,Attack,
312.00,Attack,
312.20,Chase,
312.40,Chase,
312.60,Attack,
312.80,Attack,
313.00,Attack,
313.20,Attack,
313.40,Attack,
313.60,Attack,
313.80,Attack,
314.00,Attack,
314.20,Attack,
314.40,Attack,
314.60,Attack,
314.80,Upright posture (U),
315.00,Upright posture (U),
315.20,Upright posture (U),
315.40,Upright posture (U),
315.60,Upright posture (U),
315.80,Upright posture (U),
316.00,Upright posture (U),
316.20,Upright posture (U),
316.40,Walk away,
316.60,Walk away,
316.80,Walk away,
317.00,Walk away,
317.20,Walk away,
317.40,Tail rattle,
317.60,Tail rattle,
317.80,Tail rattle,
318.00,Tail rattle,
318.20,Tail rattle,
318.40,Other (W),
318.60,Other (W),
318.80,Other (W),
319.00,Other (W),
319.20,Other (W),
319.40,Other (W),
319.60,Other (W),
319.80,Other (W),
320.00,Other (W),
320.20,Other (W),
320.40,Other (W),
320.60,Other (W),
320.80,Other (W),
321.00,Attack,
321.20,Attack,
321.40,Attack,
321.60,Attack,
321.80,Other (W),
322.00,Attack,
322.20,Attack,
322.40,Attack,
322.60,Attack,
322.80,Attack,
323.00,Attack,
323.20,Upright posture (U),
323.40,Upright posture (U),
323.60,Upright posture (U),
323.80,Upright posture (U),
324.00,Upright posture (U),
324.20,Upright posture (U),
324.40,Attack,
324.60,Attack,
324.80,Attack,
325.00,Attack,
325.20,Attack,
325.40,Attack,
325.60,Attack,
325.80,Attack,
326.00,Attack,
326.20,Attack,
326.40,Upright posture (U),
326.60,Upright posture (U),
326.80,Upright posture (U),
327.00,Upright posture (U),
327.20,Attack,
327.40,Attack,
327.60,Attack,
327.80,Attack,
328.00,Attack,
328.20,Attack,
328.40,Attack,
328.60,Attack,
328.80,Attack,
329.00,Attack,
329.20,Attack,
329.40,Attack,
329.60,Chase,
329.80,Chase,
330.00,Chase,
330.20,Chase,
330.40,Chase,
330.60,Attack,
330.80,Attack,
331.00,Attack,
331.20,Attack,
331.40,Attack,
331.60,Attack,
331.80,Attack,
332.00,Attack,
332.20,Attack,
332.40,Attack,
332.60,Attack,
332.80,Attack,
333.00,Attack,
333.20,Attack,
333.40,Attack,
333.60,Attack,
333.80,Attack,
334.00,Attack,
334.20,Attack,
334.40,Walk away,
334.60,Walk away,
334.80,Walk away,
335.00,Other (W),
335.20,Other (W),
335.40,Other (W),
335.60,Other (W),
335.80,Other (W),
336.00,Other (W),
336.20,Other (W),
336.40,Other (W),
336.60,Attack,
336.80,Attack,
337.00,Attack,
337.20,Attack,
337.40,Attack,
337.60,Attack,
337.80,Attack,
338.00,Attack,
338.20,Attack,
338.40,Other (W),
338.60,Other (W),
338.80,Other (W),
339.00,Other (W),
339.20,Other (W),
339.40,Other (W),
339.60,Walk away,
339.80,Walk away,
340.00,Walk away,
340.20,Walk away,
340.40,Walk away,
340.60,Walk away,
340.80,Other (W),
341.00,Other (W),
341.20,Other (W),
341.40,Other (W),
341.60,Other (W),
341.80,Other (W),
342.00,Other (W),
342.20,Other (W),
342.40,Other (W),
342.60,Other (W),
342.80,Other (W),
343.00,Other (W),
343.20,Other (W),
343.40,Other (W),
343.60,Upright posture (U),
343.80,Upright posture (U),
344.00,Upright posture (U),
344.20,Upright posture (U),
344.40,Other (W),
344.60,Walk away,
344.80,Walk away,
345.00,Walk away,
345.20,Walk away,
345.40,Walk away,
345.60,Walk away,
345.80,Walk away,
346.00,Walk away,
346.20,Walk away,
346.40,Walk away,
346.60,Other (W),
346.80,Other (W),
347.00,Other (W),
347.20,Other (W),
347.40,Other (W),
347.60,Other (W),
347.80,Other (W),
348.00,Other (W),
348.20,Other (W),
348.40,Other (W),
348.60,Other (W),
348.80,Other (W),
349.00,Other (W),
349.20,Other (W),
349.40,Avoid,
349.60,Avoid,
349.80,Avoid,
350.00,Avoid,
350.20,Avoid,
350.40,Avoid,
350.60,Avoid,
350.80,Avoid,
351.00,Other (W),
351.20,Other (W),
351.40,Other (W),
351.60,Other (W),
351.80,Other (W),
352.00,Other (W),
352.20,Other (W),
352.40,Other (W),
352.60,Other (W),
352.80,Other (W),
353.00,Other (W),
353.20,Other (W),
353.40,Other (W),
353.60,Other (W),
353.80,Other (W),
354.00,Other (W),
354.20,Other (W),
354.40,Other (W),
354.60,Other (W),
354.80,Other (W),
355.00,Other (W),
355.20,Other (W),
355.40,Other (W),
355.60,Other (W),
355.80,Other (W),
356.00,Other (W),
356.20,Other (W),
356.40,Other (W),
356.60,Other (W),
356.80,Other (W),
357.00,Other (W),
357.20,Other (W),
357.40,Other (W),
357.60,Other (W),
357.80,Other (W),
358.00,Other (W),
358.20,Other (W),
358.40,Other (W),
358.60,Other (W),
358.80,Other (W),
359.00,Other (W),
359.20,Other (W),
359.40,Other (W),
359.60,Other (W),
359.80,Other (W),
360.00,Other (W),
360.20,Other (W),
360.40,Rearing,
360.60,Rearing,
360.80,Rearing,
361.00,Rearing,
361.20,Rearing,
361.40,Rearing,
361.60,Rearing,
361.80,Rearing,
362.00,Other (W),
362.20,Other (W),
362.40,Other (W),
362.60,Other (W),
362.80,Other (W),
363.00,Other (W),
363.20,Other (W),
363.40,Other (W),
363.60,Other (W),
363.80,Other (W),
364.00,Other (W),
364.20,Other (W),
364.40,Other (W),
364.60,Other (W),
364.80,Rearing,
365.00,Rearing,
365.20,Rearing,
365.40,Rearing,
365.60,Rearing,
365.80,Rearing,
366.00,Rearing,
366.20,Rearing,
366.40,Rearing,
366.60,Rearing,
366.80,Rearing,
367.00,Other (W),
367.20,Other (W),
367.40,Other (W),
367.60,Other (W),
367.80,Other (W),
368.00,Other (W),
368.20,Rearing,
368.40,Rearing,
368.60,Rearing,
368.80,Rearing,
369.00,Rearing,
369.20,Rearing,
369.40,Rearing,
369.60,Rearing,
369.80,Rearing,
370.00,Other (W),
370.20,Other (W),
370.40,Other (W),
370.60,Other (W),
370.80,Other (W),
371.00,Other (W),
371.20,Other (W),
371.40,Other (W),
371.60,Other (W),
371.80,Other (W),
372.00,Other (W),
372.20,Other (W),
372.40,Other (W),
372.60,Other (W),
372.80,Other (W),
373.00,Other (W),
373.20,Other (W),
373.40,Other (W),
373.60,Other (W),
373.80,Other (W),
374.00,Other (W),
374.20,Other (W),
374.40,Other (W),
374.60,Other (W),
374.80,Other (W),
375.00,Rearing,
375.20,Rearing,
375.40,Rearing,
375.60,Other (W),
375.80,Other (W),
376.00,Other (W),
376.20,Other (W),
376.40,Other (W),
376.60,Other (W),
376.80,Other (W),
377.00,Other (W),
377.20,Other (W),
377.40,Other (W),
377.60,Other (W),
377.80,Other (W),
378.00,Other (W),
378.20,Other (W),
378.40,Other (W),
378.60,Other (W),
378.80,Other (W),
379.00,Other (W),
379.20,Other (W),
379.40,Other (W),
379.60,Other (W),
379.80,Other (W),
380.00,Other (W),
380.20,Other (W),
380.40,Other (W),
380.60,Other (W),
380.80,Other (W),
381.00,Other (W),
381.20,Other (W),
381.40,Other (W),
381.60,Other (W),
381.80,Face sniff (D),
382.00,Face sniff (D),
382.20,Face sniff (D),
382.40,Walk away,
382.60,Walk away,
382.80,Walk away,
383.00,Walk away,
383.20,Walk away,
383.40,Walk away,
383.60,Other (W),
383.80,Other (W),
384.00,Other (W),
384.20,Other (W),
384.40,Other (W),
384.60,Other (W),
384.80,Other (W),
385.00,Other (W),
385.20,Other (W),
385.40,Other (W),
385.60,Other (W),
385.80,Other (W),
386.00,Other (W),
386.20,Other (W),
386.40,Other (W),
386.60,Other (W),
386.80,Other (W),
387.00,Other (W),
387.20,Other (W),
387.40,Other (W),
387.60,Other (W),
387.80,Other (W),
388.00,Other (W),
388.20,Other (W),
388.40,Other (W),
388.60,Other (W),
388.80,Other (W),
389.00,Face sniff (D),
389.20,Face sniff (D),
389.40,Face sniff (D),
389.60,Attack,
389.80,Attack,
390.00,Upright posture (U),
390.20,Upright posture (U),
390.40,Attack,
390.60,Attack,
390.80,Attack,
391.00,Attack,
391.20,Attack,
391.40,Attack,
391.60,Attack,
391.80,Attack,
392.00,Attack,
392.20,Attack,
392.40,Attack,
392.60,Attack,
392.80,Attack,
393.00,Attack,
393.20,Attack,
393.40,Attack,
393.60,Attack,
393.80,Attack,
394.00,Attack,
394.20,Attack,
394.40,Attack,
394.60,Upright posture (U),
394.80,Upright posture (U),
395.00,Upright posture (U),
395.20,Upright posture (U),
395.40,Upright posture (U),
395.60,Attack,
395.80,Attack,
396.00,Follow (Q),
396.20,Follow (Q),
396.40,Follow (Q),
396.60,Follow (Q),
396.80,Follow (Q),
397.00,Attack,
397.20,Attack,
397.40,Attack,
397.60,Attack,
397.80,Upright posture (U),
398.00,Upright posture (U),
398.20,Upright posture (U),
398.40,Upright posture (U),
398.60,Attack,
398.80,Attack,
399.00,Attack,
399.20,Attack,
399.40,Attack,
399.60,Attack,
399.80,Attack,
400.00,Attack,
400.20,Attack,
400.40,Attack,
400.60,Attack,
400.80,Attack,
401.00,Attack,
401.20,Attack,
401.40,Follow (Q),
401.60,Follow (Q),
401.80,Follow (Q),
402.00,Attack,
402.20,Attack,
402.40,Attack,
402.60,Attack,
402.80,Attack,
403.00,Attack,
403.20,Attack,
403.40,Attack,
403.60,Attack,
403.80,Attack,
404.00,Attack,
404.20,Other (W),
404.40,Other (W),
404.60,Other (W),
404.80,Other (W),
405.00,Other (W),
405.20,Other (W),
405.40,Other (W),
405.60,Other (W),
405.80,Other (W),
406.00,Other (W),
406.20,Other (W),
406.40,Other (W),
406.60,Other (W),
406.80,Other (W),
407.00,Other (W),
407.20,Other (W),
407.40,Other (W),
407.60,Other (W),
407.80,Other (W),
408.00,Other (W),
408.20,Other (W),
408.40,Other (W),
408.60,Other (W),
408.80,Other (W),
409.00,Other (W),
409.20,Other (W),
409.40,Other (W),
409.60,Other (W),
409.80,Other (W),
410.00,Other (W),
410.20,Other (W),
410.40,Other (W),
410.60,Other (W),
410.80,Other (W),
411.00,Other (W),
411.20,Other (W),
411.40,Avoid,
411.60,Avoid,
411.80,Avoid,
412.00,Avoid,
412.20,Avoid,
412.40,Avoid,
412.60,Other (W),
412.80,Other (W),
413.00,Other (W),
413.20,Other (W),
413.40,Other (W),
413.60,Other (W),
413.80,Other (W),
414.00,Other (W),
414.20,Other (W),
414.40,Other (W),
414.60,Other (W),
414.80,Other (W),
415.00,Other (W),
415.20,Other (W),
415.40,Other (W),
415.60,Other (W),
415.80,Other (W),
416.00,Other (W),
416.20,Other (W),
416.40,Other (W),
416.60,Other (W),
416.80,Other (W),
417.00,Other (W),
417.20,Other (W),
417.40,Other (W),
417.60,Other (W),
417.80,Other (W),
418.00,Other (W),
418.20,Other (W),
418.40,Other (W),
418.60,Other (W),
418.80,Other (W),
419.00,Other (W),
419.20,Other (W),
419.40,Other (W),
419.60,Other (W),
419.80,Other (W),
420.00,Other (W),
420.20,Rearing,
420.40,Rearing,
420.60,Rearing,
420.80,Rearing,
421.00,Rearing,
421.20,Rearing,
421.40,Rearing,
421.60,Rearing,
421.80,Rearing,
422.00,Other (W),
422.20,Other (W),
422.40,Other (W),
422.60,Other (W),
422.80,Other (W),
423.00,Other (W),
423.20,Other (W),
423.40,Other (W),
423.60,Other (W),
423.80,Other (W),
424.00,Other (W),
424.20,Rearing,
424.40,Rearing,
424.60,Rearing,
424.80,Rearing,
425.00,Rearing,
425.20,Rearing,
425.40,Rearing,
425.60,Rearing,
425.80,Rearing,
426.00,Rearing,
426.20,Rearing,
426.40,Rearing,
426.60,Rearing,
426.80,Other (W),
427.00,Other (W),
427.20,Other (W),
427.40,Other (W),
427.60,Other (W),
427.80,Other (W),
428.00,Other (W),
428.20,Face sniff (D),
428.40,Face sniff (D),
428.60,Walk away,
428.80,Walk away,
429.00,Walk away,
429.20,Walk away,
429.40,Walk away,
429.60,Walk away,
429.80,Other (W),
430.00,Other (W),
430.20,Other (W),
430.40,Other (W),
430.60,Rearing,
430.80,Rearing,
431.00,Rearing,
431.20,Rearing,
431.40,Rearing,
431.60,Rearing,
431.80,Rearing,
432.00,Rearing,
432.20,Rearing,
432.40,Rearing,
432.60,Rearing,
432.80,Rearing,
433.00,Rearing,
433.20,Rearing,
433.40,Rearing,
433.60,Rearing,
433.80,Other (W),
434.00,Other (W),
434.20,Other (W),
434.40,Other (W),
434.60,Other (W),
434.80,Other (W),
435.00,Other (W),
435.20,Other (W),
435.40,Other (W),
435.60,Other (W),
435.80,Other (W),
436.00,Other (W),
436.20,Other (W),
436.40,Other (W),
436.60,Other (W),
436.80,Other (W),
437.00,Rearing,
437.20,Rearing,
437.40,Rearing,
437.60,Rearing,
437.80,Rearing,
438.00,Other (W),
438.20,Other (W),
438.40,Other (W),
438.60,Other (W),
438.80,Other (W),
439.00,Other (W),
439.20,Other (W),
439.40,Other (W),
439.60,Self-groom,
439.80,Self-groom,
440.00,Self-groom,
440.20,Self-groom,
440.40,Self-groom,
440.60,Self-groom,
440.80,Self-groom,
441.00,Self-groom,
441.20,Self-groom,
441.40,Self-groom,
441.60,Self-groom,
441.80,Self-groom,
442.00,Self-groom,
442.20,Self-groom,
442.40,Self-groom,
442.60,Self-groom,
442.80,Self-groom,
443.00,Self-groom,
443.20,Self-groom,
443.40,Self-groom,
443.60,Self-groom,
443.80,Self-groom,
444.00,Other (W),
444.20,Other (W),
444.40,Rearing,
444.60,Rearing,
444.80,Other (W),
445.00,Other (W),
445.20,Other (W),
445.40,Other (W),
445.60,Other (W),
445.80,Other (W),
446.00,Other (W),
446.20,Other (W),
446.40,Other (W),
446.60,Other (W),
446.80,Other (W),
447.00,Face sniff (D),
447.20,Face sniff (D),
447.40,Face sniff (D),
447.60,Face sniff (D),
447.80,Walk away,
448.00,Walk away,
448.20,Walk away,
448.40,Walk away,
448.60,Other (W),
448.80,Other (W),
449.00,Other (W),
449.20,Rearing,
449.40,Rearing,
449.60,Rearing,
449.80,Rearing,
450.00,Other (W),
450.20,Other (W),
450.40,Other (W),
450.60,Other (W),
450.80,Other (W),
451.00,Other (W),
451.20,Other (W),
451.40,Other (W),
451.60,Other (W),
451.80,Other (W),
452.00,Other (W),
452.20,Other (W),
452.40,Other (W),
452.60,Other (W),
452.80,Other (W),
453.00,Other (W),
453.20,Other (W),
453.40,Other (W),
453.60,Other (W),
453.80,Other (W),
454.00,Other (W),
454.20,Other (W),
454.40,Other (W),
454.60,Other (W),
454.80,Other (W),
455.00,Other (W),
455.20,Face sniff (D),
455.40,Face sniff (D),
455.60,Face sniff (D),
455.80,Walk away,
456.00,Walk away,
456.20,Walk away,
456.40,Other (W),
456.60,Other (W),
456.80,Other (W),
457.00,Avoid,
457.20,Avoid,
457.40,Avoid,
457.60,Avoid,
457.80,Other (W),
458.00,Other (W),
458.20,Other (W),
458.40,Other (W),
458.60,Other (W),
458.80,Avoid,
459.00,Avoid,
459.20,Avoid,
459.40,Avoid,
459.60,Avoid,
459.80,Avoid,
460.00,Avoid,
460.20,Other (W),
460.40,Other (W),
460.60,Other (W),
460.80,Other (W),
461.00,Other (W),
461.20,Other (W),
461.40,Other (W),
461.60,Other (W),
461.80,Other (W),
462.00,Other (W),
462.20,Other (W),
462.40,Other (W),
462.60,Rearing,
462.80,Rearing,
463.00,Rearing,
463.20,Rearing,
463.40,Rearing,
463.60,Rearing,
463.80,Rearing,
464.00,Rearing,
464.20,Other (W),
464.40,Other (W),
464.60,Other (W),
464.80,Other (W),
465.00,Other (W),
465.20,Other (W),
465.40,Other (W),
465.60,Other (W),
465.80,Other (W),
466.00,Other (W),
466.20,Other (W),
466.40,Face sniff (D),
466.60,Face sniff (D),
466.80,Face sniff (D),
467.00,Face sniff (D),
467.20,Attack,
467.40,Attack,
467.60,Attack,
467.80,Attack,
468.00,Attack,
468.20,Attack,
468.40,Upright posture (U),
468.60,Upright posture (U),
468.80,Upright posture (U),
469.00,Upright posture (U),
469.20,Upright posture (U),
469.40,Upright posture (U),
469.60,Upright posture (U),
469.80,Upright posture (U),
470.00,Upright posture (U),
470.20,Upright posture (U),
470.40,Upright posture (U),
470.60,Upright posture (U),
470.80,Upright posture (U),
471.00,Upright posture (U),
471.20,Walk away,
471.40,Walk away,
471.60,Walk away,
471.80,Walk away,
472.00,Other (W),
472.20,Other (W),
472.40,Other (W),
472.60,Other (W),
472.80,Other (W),
473.00,Other (W),
473.20,Other (W),
473.40,Other (W),
473.60,Other (W),
473.80,Other (W),
474.00,Other (W),
474.20,Other (W),
474.40,Other (W),
474.60,Other (W),
474.80,Other (W),
475.00,Body sniff (S),
475.20,Body sniff (S),
475.40,Attack,
475.60,Attack,
475.80,Attack,
476.00,Attack,
476.20,Walk away,
476.40,Walk away,
476.60,Walk away,
476.80,Other (W),
477.00,Other (W),
477.20,Other (W),
477.40,Other (W),
477.60,Other (W),
477.80,Other (W),
478.00,Other (W),
478.20,Other (W),
478.40,Other (W),
478.60,Other (W),
478.80,Other (W),
479.00,Other (W),
479.20,Other (W),
479.40,Attack,
479.60,Attack,
479.80,Attack,
480.00,Attack,
480.20,Attack,
480.40,Attack,
480.60,Attack,
480.80,Chase,
481.00,Chase,
481.20,Chase,
481.40,Attack,
481.60,Attack,
481.80,Attack,
482.00,Other (W),
482.20,Other (W),
482.40,Other (W),
482.60,Chase,
482.80,Chase,
483.00,Chase,
483.20,Chase,
483.40,Chase,
483.60,Attack,
483.80,Attack,
484.00,Attack,
484.20,Attack,
484.40,Attack,
484.60,Attack,
484.80,Attack,
485.00,Attack,
485.20,Attack,
485.40,Attack,
485.60,Attack,
485.80,Attack,
486.00,Attack,
486.20,Attack,
486.40,Attack,
486.60,Attack,
486.80,Attack,
487.00,Attack,
487.20,Attack,
487.40,Attack,
487.60,Attack,
487.80,Attack,
488.00,Attack,
488.20,Other (W),
488.40,Other (W),
488.60,Other (W),
488.80,Other (W),
489.00,Other (W),
489.20,Other (W),
489.40,Attack,
489.60,Attack,
489.80,Attack,
490.00,Attack,
490.20,Attack,
490.40,Attack,
490.60,Attack,
490.80,Attack,
491.00,Attack,
491.20,Attack,
491.40,Attack,
491.60,Attack,
491.80,Attack,
492.00,Attack,
492.20,Attack,
492.40,Attack,
492.60,Attack,
492.80,Attack,
493.00,Attack,
493.20,Attack,
493.40,Attack,
493.60,Attack,
493.80,Attack,
494.00,Attack,
494.20,Attack,
494.40,Attack,
494.60,Attack,
494.80,Attack,
495.00,Walk away,
495.20,Walk away,
495.40,Walk away,
495.60,Other (W),
495.80,Other (W),
496.00,Other (W),
496.20,Other (W),
496.40,Other (W),
496.60,Other (W),
496.80,Other (W),
497.00,Other (W),
497.20,Other (W),
497.40,Other (W),
497.60,Other (W),
497.80,Other (W),
498.00,Other (W),
498.20,Other (W),
498.40,Other (W),
498.60,Other (W),
498.80,Other (W),
499.00,Other (W),
499.20,Other (W),
499.40,Other (W),
499.60,Other (W),
499.80,Other (W),
500.00,Other (W),
500.20,Other (W),
500.40,Other (W),
500.60,Other (W),
500.80,Other (W),
501.00,Other (W),
501.20,Body sniff (S),
501.40,Body sniff (S),
501.60,Walk away,
501.80,Walk away,
502.00,Other (W),
502.20,Other (W),
502.40,Other (W),
502.60,Other (W),
502.80,Attack,
503.00,Attack,
503.20,Attack,
503.40,Attack,
503.60,Attack,
503.80,Attack,
504.00,Attack,
504.20,Attack,
504.40,Attack,
504.60,Attack,
504.80,Attack,
505.00,Attack,
505.20,Attack,
505.40,Attack,
505.60,Walk away,
505.80,Walk away,
506.00,Walk away,
506.20,Walk away,
506.40,Walk away,
506.60,Other (W),
506.80,Other (W),
507.00,Other (W),
507.20,Other (W),
507.40,Other (W),
507.60,Other (W),
507.80,Other (W),
508.00,Walk away,
508.20,Walk away,
508.40,Walk away,
508.60,Other (W),
508.80,Other (W),
509.00,Other (W),
509.20,Other (W),
509.40,Other (W),
509.60,Other (W),
509.80,Attack,
510.00,Attack,
510.20,Attack,
510.40,Upright posture (U),
510.60,Upright posture (U),
510.80,Upright posture (U),
511.00,Upright posture (U),
511.20,Upright posture (U),
511.40,Upright posture (U),
511.60,Other (W),
511.80,Other (W),
512.00,Other (W),
512.20,Other (W),
512.40,Other (W),
512.60,Other (W),
512.80,Other (W),
513.00,Other (W),
513.20,Other (W),
513.40,Other (W),
513.60,Other (W),
513.80,Attack,
514.00,Attack,
514.20,Attack,
514.40,Walk away,
514.60,Walk away,
514.80,Walk away,
515.00,Other (W),
515.20,Other (W),
515.40,Other (W),
515.60,Other (W),
515.80,Other (W),
516.00,Other (W),
516.20,Other (W),
516.40,Other (W),
516.60,Other (W),
516.80,Other (W),
517.00,Other (W),
517.20,Other (W),
517.40,Other (W),
517.60,Other (W),
517.80,Other (W),
518.00,Other (W),
518.20,Other (W),
518.40,Other (W),
518.60,Other (W),
518.80,Other (W),
519.00,Other (W),
519.20,Other (W),
519.40,Other (W),
519.60,Other (W),
519.80,Other (W),
520.00,Other (W),
520.20,Other (W),
520.40,Other (W),
520.60,Other (W),
520.80,Other (W),
521.00,Other (W),
521.20,Other (W),
521.40,Other (W),
521.60,Other (W),
521.80,Other (W),
522.00,Other (W),
522.20,Other (W),
522.40,Rearing,
522.60,Rearing,
522.80,Rearing,
523.00,Rearing,
523.20,Rearing,
523.40,Rearing,
523.60,Rearing,
523.80,Rearing,
524.00,Rearing,
524.20,Rearing,
524.40,Rearing,
524.60,Rearing,
524.80,Rearing,
525.00,Rearing,
525.20,Other (W),
525.40,Other (W),
525.60,Other (W),
525.80,Other (W),
526.00,Rearing,
526.20,Rearing,
526.40,Rearing,
526.60,Rearing,
526.80,Rearing,
527.00,Rearing,
527.20,Rearing,
527.40,Rearing,
527.60,Rearing,
527.80,Rearing,
528.00,Rearing,
528.20,Rearing,
528.40,Rearing,
528.60,Rearing,
528.80,Rearing,
529.00,Other (W),
529.20,Other (W),
529.40,Other (W),
529.60,Other (W),
529.80,Other (W),
530.00,Other (W),
530.20,Other (W),
530.40,Other (W),
530.60,Other (W),
530.80,Attack,
531.00,Attack,
531.20,Attack,
531.40,Chase,
531.60,Chase,
531.80,Other (W),
532.00,Other (W),
532.20,Other (W),
532.40,Other (W),
532.60,Other (W),
532.80,Attack,
533.00,Attack,
533.20,Attack,
533.40,Attack,
533.60,Attack,
533.80,Attack,
534.00,Upright posture (U),
534.20,Upright posture (U),
534.40,Upright posture (U),
534.60,Other (W),
534.80,Other (W),
535.00,Other (W),
535.20,Other (W),
535.40,Other (W),
535.60,Other (W),
535.80,Other (W),
536.00,Other (W),
536.20,Other (W),
536.40,Other (W),
536.60,Other (W),
536.80,Other (W),
537.00,Other (W),
537.20,Other (W),
537.40,Other (W),
537.60,Other (W),
537.80,Other (W),
538.00,Other (W),
538.20,Other (W),
538.40,Other (W),
538.60,Other (W),
538.80,Attack,
539.00,Attack,
539.20,Attack,
539.40,Attack,
539.60,Attack,
539.80,Attack,
540.00,Attack,
540.20,Attack,
540.40,Attack,
540.60,Attack,
540.80,Attack,
541.00,Attack,
541.20,Attack,
541.40,Attack,
541.60,Attack,
541.80,Attack,
542.00,Attack,
542.20,Attack,
542.40,Attack,
542.60,Attack,
542.80,Attack,
543.00,Chase,
543.20,Attack,
543.40,Attack,
543.60,Attack,
543.80,Attack,
544.00,Attack,
544.20,Attack,
544.40,Attack,
544.60,Attack,
544.80,Attack,
545.00,Attack,
545.20,Attack,
545.40,Attack,
545.60,Attack,
545.80,Attack,
546.00,Attack,
546.20,Attack,
546.40,Attack,
546.60,Upright posture (U),
546.80,Upright posture (U),
547.00,Upright posture (U),
547.20,Upright posture (U),
547.40,Upright posture (U),
547.60,Upright posture (U),
547.80,Upright posture (U),
548.00,Upright posture (U),
548.20,Upright posture (U),
548.40,Upright posture (U),
548.60,Upright posture (U),
548.80,Upright posture (U),
549.00,Upright posture (U),
549.20,Upright posture (U),
549.40,Upright posture (U),
549.60,Attack,
549.80,Attack,
550.00,Attack,
550.20,Attack,
550.40,Attack,
550.60,Attack,
550.80,Attack,
551.00,Attack,
551.20,Attack,
551.40,Attack,
551.60,Attack,
551.80,Attack,
552.00,Attack,
552.20,Attack,
552.40,Upright posture (U),
552.60,Upright posture (U),
552.80,Upright posture (U),
553.00,Upright posture (U),
553.20,Walk away,
553.40,Other (W),
553.60,Other (W),
553.80,Tail rattle,
554.00,Tail rattle,
554.20,Tail rattle,
554.40,Tail rattle,
554.60,Tail rattle,
554.80,Tail rattle,
555.00,Tail rattle,
555.20,Tail rattle,
555.40,Other (W),
555.60,Other (W),
555.80,Other (W),
556.00,Other (W),
556.20,Other (W),
556.40,Other (W),
556.60,Other (W),
556.80,Other (W),
557.00,Other (W),
557.20,Other (W),
557.40,Other (W),
557.60,Other (W),
557.80,Other (W),
558.00,Other (W),
558.20,Avoid,
558.40,Avoid,
558.60,Other (W),
558.80,Other (W),
559.00,Other (W),
559.20,Other (W),
559.40,Other (W),
559.60,Other (W),
559.80,Other (W),
560.00,Other (W),
560.20,Other (W),
560.40,Other (W),
560.60,Other (W),
560.80,Other (W),
561.00,Other (W),
561.20,Other (W),
561.40,Other (W),
561.60,Other (W),
561.80,Other (W),
562.00,Other (W),
562.20,Rearing,
562.40,Rearing,
562.60,Rearing,
562.80,Rearing,
563.00,Rearing,
563.20,Rearing,
563.40,Rearing,
563.60,Rearing,
563.80,Rearing,
564.00,Rearing,
564.20,Rearing,
564.40,Rearing,
564.60,Rearing,
564.80,Rearing,
565.00,Rearing,
565.20,Rearing,
565.40,Other (W),
565.60,Other (W),
565.80,Other (W),
566.00,Other (W),
566.20,Other (W),
566.40,Other (W),
566.60,Other (W),
566.80,Other (W),
567.00,Other (W),
567.20,Rearing,
567.40,Rearing,
567.60,Rearing,
567.80,Rearing,
568.00,Rearing,
568.20,Rearing,
568.40,Rearing,
568.60,Rearing,
568.80,Rearing,
569.00,Rearing,
569.20,Rearing,
569.40,Rearing,
569.60,Rearing,
569.80,Other (W),
570.00,Other (W),
570.20,Other (W),
570.40,Other (W),
570.60,Other (W),
570.80,Other (W),
571.00,Other (W),
571.20,Other (W),
571.40,Other (W),
571.60,Other (W),
571.80,Other (W),
572.00,Other (W),
572.20,Other (W),
572.40,Upright posture (U),
572.60,Upright posture (U),
572.80,Upright posture (U),
573.00,Upright posture (U),
573.20,Upright posture (U),
573.40,Other (W),
573.60,Other (W),
573.80,Other (W),
574.00,Other (W),
574.20,Other (W),
574.40,Other (W),
574.60,Other (W),
574.80,Other (W),
575.00,Other (W),
575.20,Other (W),
575.40,Other (W),
575.60,Other (W),
575.80,Other (W),
576.00,Other (W),
576.20,Other (W),
576.40,Other (W),
576.60,Other (W),
576.80,Other (W),
577.00,Other (W),
577.20,Other (W),
577.40,Other (W),
577.60,Other (W),
577.80,Other (W),
578.00,Other (W),
578.20,Other (W),
578.40,Other (W),
578.60,Other (W),
578.80,Other (W),
579.00,Other (W),
579.20,Other (W),
579.40,Rearing,
579.60,Rearing,
579.80,Other (W),
580.00,Other (W),
580.20,Other (W),
580.40,Other (W),
580.60,Other (W),
580.80,Other (W),
581.00,Other (W),
581.20,Other (W),
581.40,Other (W),
581.60,Other (W),
581.80,Other (W),
582.00,Rearing,
582.20,Rearing,
582.40,Rearing,
582.60,Rearing,
582.80,Rearing,
583.00,Rearing,
583.20,Rearing,
583.40,Rearing,
583.60,Rearing,
583.80,Rearing,
584.00,Rearing,
584.20,Other (W),
584.40,Other (W),
584.60,Other (W),
584.80,Other (W),
585.00,Other (W),
585.20,Other (W),
585.40,Other (W),
585.60,Other (W),
585.80,Other (W),
586.00,Other (W),
586.20,Other (W),
586.40,Other (W),
586.60,Other (W),
586.80,Other (W),
587.00,Other (W),
587.20,Other (W),
587.40,Other (W),
587.60,Other (W),
587.80,Other (W),
588.00,Other (W),
588.20,Other (W),
588.40,Other (W),
588.60,Other (W),
588.80,Other (W),
589.00,Other (W),
589.20,Other (W),
589.40,Other (W),
589.60,Other (W),
589.80,Other (W),
590.00,Other (W),
590.20,Other (W),
590.40,Other (W),
590.60,Rearing,
590.80,Rearing,
591.00,Rearing,
591.20,Rearing,
591.40,Rearing,
591.60,Rearing,
591.80,Rearing,
592.00,Rearing,
592.20,Rearing,
592.40,Rearing,
592.60,Rearing,
592.80,Rearing,
593.00,Rearing,
593.20,Rearing,
593.40,Rearing,
593.60,Rearing,
593.80,Other (W),
594.00,Other (W),
594.20,Other (W),
594.40,Other (W),
594.60,Other (W),
594.80,Other (W),
595.00,Other (W),
595.20,Other (W),
595.40,Other (W),
595.60,Other (W),
595.80,Other (W),
596.00,Other (W),
596.20,Other (W),
596.40,Other (W),
596.60,Other (W),
596.80,Other (W),
597.00,Other (W),
597.20,Other (W),
597.40,Other (W),
597.60,Other (W),
597.80,Other (W),
598.00,Other (W),
598.20,Other (W),
598.40,Other (W),
598.60,Other (W),
598.80,Other (W),
599.00,Other (W),
599.20,Other (W),
599.40,Other (W),
599.60,Other (W),
599.80,Other (W),
600.00,Other (W),
600.20,Other (W),
600.40,Other (W),
600.60,Other (W),
600.80,Other (W),
601.00,Other (W),
601.20,Other (W),
601.40,Other (W),
601.60,Other (W),
601.80,Other (W),
602.00,Other (W),
602.20,Other (W),
602.40,Other (W),
602.60,Other (W),
602.80,Other (W),
603.00,Other (W),
603.20,Other (W),
603.40,Rearing,
603.60,Rearing,
603.80,Rearing,
604.00,Rearing,
604.20,Rearing,
604.40,Rearing,
604.60,Rearing,
604.80,Rearing,
605.00,Rearing,
605.20,Rearing,
605.40,Rearing,
605.60,Rearing,
605.80,Rearing,
606.00,Other (W),
606.20,Other (W),
606.40,Other (W),
606.60,Other (W),
606.80,Other (W),
607.00,Other (W),
607.20,Other (W),
607.40,Other (W),
607.60,Other (W),
607.80,Other (W),
608.00,Other (W),
608.20,Other (W),
608.40,Other (W),
608.60,Other (W),
608.80,Other (W),
609.00,Other (W),
609.20,Rearing,
609.40,Rearing,
609.60,Rearing,
609.80,Other (W),
610.00,Other (W),
610.20,Other (W),
610.40,Upright posture (U),
610.60,Upright posture (U),
610.80,Upright posture (U),
611.00,Upright posture (U),
611.20,Upright posture (U),
611.40,Upright posture (U),
611.60,Upright posture (U),
611.80,Other (W),
612.00,Other (W),
612.20,Other (W),
612.40,Other (W),
612.60,Other (W),
612.80,Other (W),
613.00,Other (W),
613.20,Other (W),
613.40,Other (W),
613.60,Other (W),
613.80,Other (W),
614.00,Other (W),
614.20,Other (W),
614.40,Other (W),
614.60,Other (W),
614.80,Other (W),
615.00,Other (W),
615.20,Other (W),
615.40,Other (W),
615.60,Other (W),
615.80,Other (W),
616.00,Other (W),
616.20,Other (W),
616.40,Other (W),
616.60,Other (W),
616.80,Other (W),
617.00,Other (W),
617.20,Other (W),
617.40,Other (W),
617.60,Other (W),
617.80,Other (W),
618.00,Other (W),
618.20,Other (W),
618.40,Other (W),
618.60,Other (W),
618.80,Rearing,
619.00,Rearing,
619.20,Other (W),
619.40,Other (W),
619.60,Other (W),
619.80,Other (W),
620.00,Other (W),
620.20,Other (W),
620.40,Other (W),
620.60,Other (W),
620.80,Rearing,
621.00,Rearing,
621.20,Rearing,
621.40,Rearing,
621.60,Rearing,
621.80,Rearing,
622.00,Rearing,
622.20,Other (W),
622.40,Other (W),
622.60,Other (W),
622.80,Other (W),
623.00,Other (W),
623.20,Other (W),
623.40,Other (W),
623.60,Other (W),
623.80,Other (W),
624.00,Other (W),
624.20,Rearing,
624.40,Rearing,
624.60,Rearing,
624.80,Rearing,
625.00,Rearing,
625.20,Rearing,
625.40,Rearing,
625.60,Rearing,
625.80,Rearing,
626.00,Rearing,
626.20,Rearing,
626.40,Other (W),
626.60,Other (W),
626.80,Other (W),
627.00,Face sniff (D),
627.20,Face sniff (D),
627.40,Face sniff (D),
627.60,Face sniff (D),
627.80,Face sniff (D),
628.00,Face sniff (D),
628.20,Face sniff (D),
628.40,Face sniff (D),
628.60,Attack,
628.80,Attack,
629.00,Attack,
629.20,Attack,
629.40,Attack,
629.60,Attack,
629.80,Attack,
630.00,Attack,