Time,Behaviors,Start
0.00,,
0.20,,
0.40,,
0.60,,
0.80,,
1.00,,
1.20,,
1.40,,
1.60,,
1.80,,
2.00,,
2.20,,
2.40,,
2.60,,
2.80,,
3.00,,
3.20,,
3.40,,
3.60,,
3.80,,
4.00,Other (W),Juvenile in
4.20,Other (W),
4.40,Other (W),
4.60,Other (W),
4.80,Other (W),
5.00,Body sniff (S),
5.20,Body sniff (S),
5.40,Body sniff (S),
5.60,Body sniff (S),
5.80,Body sniff (S),
6.00,Body sniff (S),
6.20,Body sniff (S),
6.40,Body sniff (S),
6.60,Body sniff (S),
6.80,AG sniff (A),
7.00,AG sniff (A),
7.20,AG sniff (A),
7.40,AG sniff (A),
7.60,AG sniff (A),
7.80,AG sniff (A),
8.00,AG sniff (A),
8.20,Other (W),
8.40,Other (W),
8.60,Other (W),
8.80,Other (W),
9.00,Other (W),
9.20,Other (W),
9.40,Other (W),
9.60,Other (W),
9.80,Other (W),
10.00,Other (W),
10.20,Other (W),
10.40,Other (W),
10.60,Body sniff (S),
10.80,Body sniff (S),
11.00,Body sniff (S),
11.20,Body sniff (S),
11.40,Body sniff (S),
11.60,Body sniff (S),
11.80,Body sniff (S),
12.00,Body sniff (S),
12.20,Body sniff (S),
12.40,Body sniff (S),
12.60,Body sniff (S),
12.80,Body sniff (S),
13.00,Body sniff (S),
13.20,Body sniff (S),
13.40,Body sniff (S),
13.60,Body sniff (S),
13.80,Body sniff (S),
14.00,Body sniff (S),
14.20,Body sniff (S),
14.40,Body sniff (S),
14.60,Body sniff (S),
14.80,Body sniff (S),
15.00,Body sniff (S),
15.20,Body sniff (S),
15.40,Body sniff (S),
15.60,Body sniff (S),
15.80,Body sniff (S),
16.00,Body sniff (S),
16.20,Body sniff (S),
16.40,Body sniff (S),
16.60,Body sniff (S),
16.80,Body sniff (S),
17.00,Body sniff (S),
17.20,Body sniff (S),
17.40,Body sniff (S),
17.60,Body sniff (S),
17.80,Body sniff (S),
18.00,Body sniff (S),
18.20,Body sniff (S),
18.40,Body sniff (S),
18.60,AG sniff (A),
18.80,AG sniff (A),
19.00,AG sniff (A),
19.20,AG sniff (A),
19.40,AG sniff (A),
19.60,AG sniff (A),
19.80,AG sniff (A),
20.00,AG sniff (A),
20.20,Body sniff (S),
20.40,Body sniff (S),
20.60,Body sniff (S),
20.80,Body sniff (S),
21.00,Body sniff (S),
21.20,Body sniff (S),
21.40,Body sniff (S),
21.60,Body sniff (S),
21.80,Other (W),
22.00,Other (W),
22.20,Other (W),
22.40,Other (W),
22.60,Other (W),
22.80,Other (W),
23.00,Other (W),
23.20,Other (W),
23.40,Other (W),
23.60,Other (W),
23.80,Other (W),
24.00,Other (W),
24.20,Other (W),
24.40,Other (W),
24.60,Other (W),
24.80,Other (W),
25.00,Other (W),
25.20,Body sniff (S),
25.40,Body sniff (S),
25.60,Body sniff (S),
25.80,Body sniff (S),
26.00,Body sniff (S),
26.20,Other (W),
26.40,Other (W),
26.60,Other (W),
26.80,Other (W),
27.00,Other (W),
27.20,Other (W),
27.40,Other (W),
27.60,Other (W),
27.80,Body sniff (S),
28.00,Body sniff (S),
28.20,Body sniff (S),
28.40,Body sniff (S),
28.60,Body sniff (S),
28.80,Body sniff (S),
29.00,Other (W),
29.20,Other (W),
29.40,Other (W),
29.60,Other (W),
29.80,Other (W),
30.00,Other (W),
30.20,Other (W),
30.40,Other (W),
30.60,Other (W),
30.80,Other (W),
31.00,Other (W),
31.20,Other (W),
31.40,Other (W),
31.60,Other (W),
31.80,Other (W),
32.00,Other (W),
32.20,Other (W),
32.40,Other (W),
32.60,Other (W),
32.80,Other (W),
33.00,Other (W),
33.20,Other (W),
33.40,Other (W),
33.60,Other (W),
33.80,Other (W),
34.00,Other (W),
34.20,Other (W),
34.40,Other (W),
34.60,Other (W),
34.80,Other (W),
35.00,Other (W),
35.20,Other (W),
35.40,Other (W),
35.60,Other (W),
35.80,Other (W),
36.00,Other (W),
36.20,Other (W),
36.40,Other (W),
36.60,Other (W),
36.80,Other (W),
37.00,Other (W),
37.20,Other (W),
37.40,Other (W),
37.60,Other (W),
37.80,Other (W),
38.00,Body sniff (S),
38.20,Body sniff (S),
38.40,Body sniff (S),
38.60,AG sniff (A),
38.80,AG sniff (A),
39.00,AG sniff (A),
39.20,AG sniff (A),
39.40,AG sniff (A),
39.60,Body sniff (S),
39.80,Body sniff (S),
40.00,Body sniff (S),
40.20,Body sniff (S),
40.40,Body sniff (S),
40.60,Body sniff (S),
40.80,Body sniff (S),
41.00,Body sniff (S),
41.20,Body sniff (S),
41.40,Body sniff (S),
41.60,Body sniff (S),
41.80,Body sniff (S),
42.00,Body sniff (S),
42.20,Body sniff (S),
42.40,Body sniff (S),
42.60,Body sniff (S),
42.80,Body sniff (S),
43.00,Body sniff (S),
43.20,Body sniff (S),
43.40,Body sniff (S),
43.60,Body sniff (S),
43.80,Body sniff (S),
44.00,Body sniff (S),
44.20,Body sniff (S),
44.40,Body sniff (S),
44.60,AG sniff (A),
44.80,AG sniff (A),
45.00,AG sniff (A),
45.20,AG sniff (A),
45.40,AG sniff (A),
45.60,AG sniff (A),
45.80,AG sniff (A),
46.00,AG sniff (A),
46.20,AG sniff (A),
46.40,AG sniff (A),
46.60,AG sniff (A),
46.80,Body sniff (S),
47.00,Body sniff (S),
47.20,Body sniff (S),
47.40,Body sniff (S),
47.60,Body sniff (S),
47.80,Body sniff (S),
48.00,Body sniff (S),
48.20,Body sniff (S),
48.40,Body sniff (S),
48.60,Body sniff (S),
48.80,Body sniff (S),
49.00,Body sniff (S),
49.20,Body sniff (S),
49.40,Body sniff (S),
49.60,Body sniff (S),
49.80,Body sniff (S),
50.00,Body sniff (S),
50.20,AG sniff (A),
50.40,AG sniff (A),
50.60,AG sniff (A),
50.80,AG sniff (A),
51.00,AG sniff (A),
51.20,AG sniff (A),
51.40,AG sniff (A),
51.60,Body sniff (S),
51.80,Body sniff (S),
52.00,Body sniff (S),
52.20,Body sniff (S),
52.40,Body sniff (S),
52.60,Body sniff (S),
52.80,Body sniff (S),
53.00,Body sniff (S),
53.20,AG sniff (A),
53.40,AG sniff (A),
53.60,AG sniff (A),
53.80,AG sniff (A),
54.00,AG sniff (A),
54.20,AG sniff (A),
54.40,AG sniff (A),
54.60,AG sniff (A),
54.80,AG sniff (A),
55.00,AG sniff (A),
55.20,AG sniff (A),
55.40,AG sniff (A),
55.60,AG sniff (A),
55.80,AG sniff (A),
56.00,AG sniff (A),
56.20,AG sniff (A),
56.40,AG sniff (A),
56.60,AG sniff (A),
56.80,AG sniff (A),
57.00,Body sniff (S),
57.20,Body sniff (S),
57.40,Body sniff (S),
57.60,Body sniff (S),
57.80,Body sniff (S),
58.00,Body sniff (S),
58.20,Body sniff (S),
58.40,Body sniff (S),
58.60,Body sniff (S),
58.80,Body sniff (S),
59.00,AG sniff (A),
59.20,AG sniff (A),
59.40,AG sniff (A),
59.60,AG sniff (A),
59.80,AG sniff (A),
60.00,AG sniff (A),
60.20,AG sniff (A),
60.40,Other (W),
60.60,Other (W),
60.80,Other (W),
61.00,Other (W),
61.20,Other (W),
61.40,Other (W),
61.60,Body sniff (S),
61.80,Body sniff (S),
62.00,Body sniff (S),
62.20,Body sniff (S),
62.40,Body sniff (S),
62.60,Body sniff (S),
62.80,Body sniff (S),
63.00,Body sniff (S),
63.20,AG sniff (A),
63.40,AG sniff (A),
63.60,AG sniff (A),
63.80,AG sniff (A),
64.00,AG sniff (A),
64.20,Body sniff (S),
64.40,Body sniff (S),
64.60,Body sniff (S),
64.80,Body sniff (S),
65.00,Body sniff (S),
65.20,Other (W),
65.40,Other (W),
65.60,Other (W),
65.80,Other (W),
66.00,AG sniff (A),
66.20,AG sniff (A),
66.40,Body sniff (S),
66.60,Body sniff (S),
66.80,Body sniff (S),
67.00,Body sniff (S),
67.20,Body sniff (S),
67.40,Body sniff (S),
67.60,Face sniff (D),
67.80,Face sniff (D),
68.00,Face sniff (D),
68.20,Face sniff (D),
68.40,Face sniff (D),
68.60,Body sniff (S),
68.80,Body sniff (S),
69.00,Body sniff (S),
69.20,Face sniff (D),
69.40,Face sniff (D),
69.60,Face sniff (D),
69.80,Face sniff (D),
70.00,Face sniff (D),
70.20,Face sniff (D),
70.40,Body sniff (S),
70.60,Body sniff (S),
70.80,Body sniff (S),
71.00,Body sniff (S),
71.20,Body sniff (S),
71.40,Body sniff (S),
71.60,Face sniff (D),
71.80,Face sniff (D),
72.00,Face sniff (D),
72.20,Body sniff (S),
72.40,Body sniff (S),
72.60,Body sniff (S),
72.80,Body sniff (S),
73.00,Body sniff (S),
73.20,Body sniff (S),
73.40,AG sniff (A),
73.60,AG sniff (A),
73.80,AG sniff (A),
74.00,AG sniff (A),
74.20,AG sniff (A),
74.40,AG sniff (A),
74.60,Body sniff (S),
74.80,Body sniff (S),
75.00,Body sniff (S),
75.20,Body sniff (S),
75.40,Body sniff (S),
75.60,AG sniff (A),
75.80,AG sniff (A),
76.00,AG sniff (A),
76.20,AG sniff (A),
76.40,AG sniff (A),
76.60,AG sniff (A),
76.80,AG sniff (A),
77.00,Other (W),
77.20,Other (W),
77.40,Body sniff (S),
77.60,Body sniff (S),
77.80,Body sniff (S),
78.00,Face sniff (D),
78.20,Face sniff (D),
78.40,Face sniff (D),
78.60,Face sniff (D),
78.80,Face sniff (D),
79.00,Face sniff (D),
79.20,Face sniff (D),
79.40,Face sniff (D),
79.60,Face sniff (D),
79.80,Face sniff (D),
80.00,Face sniff (D),
80.20,Face sniff (D),
80.40,Face sniff (D),
80.60,Face sniff (D),
80.80,Face sniff (D),
81.00,Face sniff (D),
81.20,Face sniff (D),
81.40,Face sniff (D),
81.60,Face sniff (D),
81.80,AG sniff (A),
82.00,AG sniff (A),
82.20,AG sniff (A),
82.40,AG sniff (A),
82.60,AG sniff (A),
82.80,AG sniff (A),
83.00,AG sniff (A),
83.20,AG sniff (A),
83.40,AG sniff (A),
83.60,AG sniff (A),
83.80,AG sniff (A),
84.00,AG sniff (A),
84.20,AG sniff (A),
84.40,AG sniff (A),
84.60,AG sniff (A),
84.80,AG sniff (A),
85.00,AG sniff (A),
85.20,AG sniff (A),
85.40,Other (W),
85.60,Other (W),
85.80,Other (W),
86.00,Other (W),
86.20,Rearing,
86.40,Rearing,
86.60,Rearing,
86.80,Rearing,
87.00,Rearing,
87.20,Rearing,
87.40,Rearing,
87.60,Other (W),
87.80,Other (W),
88.00,Other (W),
88.20,Other (W),
88.40,Other (W),
88.60,Other (W),
88.80,Face sniff (D),
89.00,Face sniff (D),
89.20,Face sniff (D),
89.40,Face sniff (D),
89.60,Face sniff (D),
89.80,Face sniff (D),
90.00,Face sniff (D),
90.20,Face sniff (D),
90.40,Face sniff (D),
90.60,Face sniff (D),
90.80,Face sniff (D),
91.00,Face sniff (D),
91.20,Face sniff (D),
91.40,Face sniff (D),
91.60,Face sniff (D),
91.80,Face sniff (D),
92.00,Face sniff (D),
92.20,Face sniff (D),
92.40,Face sniff (D),
92.60,Face sniff (D),
92.80,Face sniff (D),
93.00,Face sniff (D),
93.20,Face sniff (D),
93.40,Face sniff (D),
93.60,Face sniff (D),
93.80,Face sniff (D),
94.00,Face sniff (D),
94.20,Face sniff (D),
94.40,Face sniff (D),
94.60,Face sniff (D),
94.80,Face sniff (D),
95.00,Face sniff (D),
95.20,Face sniff (D),
95.40,Face sniff (D),
95.60,Face sniff (D),
95.80,Face sniff (D),
96.00,Face sniff (D),
96.20,Face sniff (D),
96.40,Face sniff (D),
96.60,Face sniff (D),
96.80,Face sniff (D),
97.00,Face sniff (D),
97.20,Face sniff (D),
97.40,Face sniff (D),
97.60,Face sniff (D),
97.80,Face sniff (D),
98.00,Face sniff (D),
98.20,Face sniff (D),
98.40,Face sniff (D),
98.60,Face sniff (D),
98.80,Face sniff (D),
99.00,Face sniff (D),
99.20,Other (W),
99.40,Other (W),
99.60,Other (W),
99.80,Face sniff (D),
100.00,Face sniff (D),
100.20,Face sniff (D),
100.40,Face sniff (D),
100.60,Face sniff (D),
100.80,Face sniff (D),
101.00,Body sniff (S),
101.20,Body sniff (S),
101.40,Body sniff (S),
101.60,Body sniff (S),
101.80,AG sniff (A),
102.00,AG sniff (A),
102.20,AG sniff (A),
102.40,AG sniff (A),
102.60,AG sniff (A),
102.80,AG sniff (A),
103.00,AG sniff (A),
103.20,AG sniff (A),
103.40,Other (W),
103.60,Other (W),
103.80,Other (W),
104.00,Other (W),
104.20,Other (W),
104.40,Other (W),
104.60,Other (W),
104.80,Other (W),
105.00,Other (W),
105.20,Other (W),
105.40,Other (W),
105.60,Other (W),
105.80,Other (W),
106.00,Rearing,
106.20,Rearing,
106.40,Rearing,
106.60,Rearing,
106.80,Rearing,
107.00,Rearing,
107.20,Rearing,
107.40,Rearing,
107.60,Other (W),
107.80,Other (W),
108.00,Other (W),
108.20,Other (W),
108.40,Other (W),
108.60,Other (W),
108.80,Other (W),
109.00,Other (W),
109.20,Other (W),
109.40,Rearing,
109.60,Rearing,
109.80,Rearing,
110.00,Rearing,
110.20,Rearing,
110.40,Rearing,
110.60,Rearing,
110.80,Rearing,
111.00,Rearing,
111.20,Rearing,
111.40,Rearing,
111.60,Rearing,
111.80,Other (W),
112.00,Other (W),
112.20,Other (W),
112.40,Other (W),
112.60,Other (W),
112.80,Other (W),
113.00,Face sniff (D),
113.20,Face sniff (D),
113.40,Face sniff (D),
113.60,Walk away,
113.80,Walk away,
114.00,Other (W),
114.20,Other (W),
114.40,Other (W),
114.60,Other (W),
114.80,Rearing,
115.00,Rearing,
115.20,Rearing,
115.40,Rearing,
115.60,Rearing,
115.80,Rearing,
116.00,Rearing,
116.20,Face sniff (D),
116.40,Face sniff (D),
116.60,Face sniff (D),
116.80,Face sniff (D),
117.00,Face sniff (D),
117.20,Other (W),
117.40,Other (W),
117.60,Other (W),
117.80,Other (W),
118.00,Other (W),
118.20,Other (W),
118.40,Other (W),
118.60,Other (W),
118.80,Other (W),
119.00,Other (W),
119.20,Other (W),
119.40,Other (W),
119.60,Other (W),
119.80,Other (W),
120.00,Other (W),
120.20,Other (W),
120.40,Rearing,
120.60,Rearing,
120.80,Rearing,
121.00,Rearing,
121.20,Rearing,
121.40,Rearing,
121.60,Rearing,
121.80,Other (W),
122.00,Other (W),
122.20,Other (W),
122.40,Other (W),
122.60,Other (W),
122.80,Other (W),
123.00,Other (W),
123.20,Other (W),
123.40,Other (W),
123.60,Other (W),
123.80,Other (W),
124.00,Other (W),
124.20,Other (W),
124.40,Other (W),
124.60,Other (W),
124.80,Other (W),
125.00,Other (W),
125.20,Other (W),
125.40,Other (W),
125.60,Other (W),
125.80,Other (W),
126.00,Rearing,
126.20,Rearing,
126.40,Rearing,
126.60,Rearing,
126.80,Rearing,
127.00,Rearing,
127.20,Rearing,
127.40,Rearing,
127.60,Rearing,
127.80,Rearing,
128.00,Rearing,
128.20,Other (W),
128.40,Other (W),
128.60,Other (W),
128.80,Other (W),
129.00,Other (W),
129.20,Other (W),
129.40,Other (W),
129.60,Other (W),
129.80,Other (W),
130.00,Rearing,
130.20,Rearing,
130.40,Rearing,
130.60,Rearing,
130.80,Rearing,
131.00,Face sniff (D),
131.20,Face sniff (D),
131.40,Face sniff (D),
131.60,Face sniff (D),
131.80,Face sniff (D),
132.00,Face sniff (D),
132.20,Face sniff (D),
132.40,Face sniff (D),
132.60,Face sniff (D),
132.80,Face sniff (D),
133.00,Face sniff (D),
133.20,Face sniff (D),
133.40,Face sniff (D),
133.60,Face sniff (D),
133.80,Face sniff (D),
134.00,Face sniff (D),
134.20,Face sniff (D),
134.40,Face sniff (D),
134.60,Face sniff (D),
134.80,Face sniff (D),
135.00,Face sniff (D),
135.20,Face sniff (D),
135.40,Face sniff (D),
135.60,Face sniff (D),
135.80,Face sniff (D),
136.00,Face sniff (D),
136.20,Face sniff (D),
136.40,Face sniff (D),
136.60,Face sniff (D),
136.80,Face sniff (D),
137.00,Face sniff (D),
137.20,Face sniff (D),
137.40,Face sniff (D),
137.60,Face sniff (D),
137.80,Face sniff (D),
138.00,Face sniff (D),
138.20,Face sniff (D),
138.40,Face sniff (D),
138.60,Face sniff (D),
138.80,Face sniff (D),
139.00,Face sniff (D),
139.20,Face sniff (D),
139.40,Face sniff (D),
139.60,Face sniff (D),
139.80,Face sniff (D),
140.00,Face sniff (D),
140.20,Face sniff (D),
140.40,Face sniff (D),
140.60,Face sniff (D),
140.80,Face sniff (D),
141.00,Face sniff (D),
141.20,Other (W),
141.40,Other (W),
141.60,Other (W),
141.80,Other (W),
142.00,Other (W),
142.20,Other (W),
142.40,Other (W),
142.60,Other (W),
142.80,Other (W),
143.00,Other (W),
143.20,Other (W),
143.40,Other (W),
143.60,Other (W),
143.80,Face sniff (D),
144.00,Face sniff (D),
144.20,Face sniff (D),
144.40,Face sniff (D),
144.60,Face sniff (D),
144.80,Face sniff (D),
145.00,Face sniff (D),
145.20,Face sniff (D),
145.40,Face sniff (D),
145.60,Face sniff (D),
145.80,Face sniff (D),
146.00,Body sniff (S),
146.20,Body sniff (S),
146.40,Body sniff (S),
146.60,Body sniff (S),
146.80,Body sniff (S),
147.00,Body sniff (S),
147.20,Body sniff (S),
147.40,Face sniff (D),
147.60,Face sniff (D),
147.80,Face sniff (D),
148.00,Face sniff (D),
148.20,Face sniff (D),
148.40,Face sniff (D),
148.60,Face sniff (D),
148.80,Face sniff (D),
149.00,Face sniff (D),
149.20,Other (W),
149.40,Other (W),
149.60,Other (W),
149.80,Other (W),
150.00,Other (W),
150.20,Other (W),
150.40,Other (W),
150.60,Other (W),
150.80,Other (W),
151.00,Other (W),
151.20,Other (W),
151.40,Rearing,
151.60,Rearing,
151.80,Rearing,
152.00,Rearing,
152.20,Rearing,
152.40,Rearing,
152.60,Rearing,
152.80,Rearing,
153.00,Other (W),
153.20,Other (W),
153.40,Other (W),
153.60,Other (W),
153.80,Other (W),
154.00,Other (W),
154.20,Other (W),
154.40,Other (W),
154.60,Other (W),
154.80,Other (W),
155.00,Other (W),
155.20,Other (W),
155.40,Other (W),
155.60,Other (W),
155.80,Other (W),
156.00,Other (W),
156.20,Other (W),
156.40,Other (W),
156.60,Other (W),
156.80,Other (W),
157.00,Other (W),
157.20,Other (W),
157.40,Other (W),
157.60,Other (W),
157.80,Other (W),
158.00,Other (W),
158.20,Other (W),
158.40,Other (W),
158.60,Other (W),
158.80,Other (W),
159.00,Other (W),
159.20,Other (W),
159.40,Other (W),
159.60,Other (W),
159.80,Other (W),
160.00,Other (W),
160.20,Other (W),
160.40,Other (W),
160.60,Other (W),
160.80,Other (W),
161.00,Other (W),
161.20,Other (W),
161.40,Other (W),
161.60,Other (W),
161.80,Other (W),
162.00,Other (W),
162.20,Other (W),
162.40,Other (W),
162.60,Other (W),
162.80,Other (W),
163.00,Other (W),
163.20,Other (W),
163.40,Other (W),
163.60,Other (W),
163.80,Other (W),
164.00,Other (W),
164.20,Other (W),
164.40,Other (W),
164.60,Other (W),
164.80,Face sniff (D),
165.00,Face sniff (D),
165.20,Face sniff (D),
165.40,Face sniff (D),
165.60,Face sniff (D),
165.80,Face sniff (D),
166.00,Body sniff (S),
166.20,Body sniff (S),
166.40,Body sniff (S),
166.60,Body sniff (S),
166.80,Body sniff (S),
167.00,Other (W),
167.20,Other (W),
167.40,Other (W),
167.60,Other (W),
167.80,Other (W),
168.00,Other (W),
168.20,Other (W),
168.40,Other (W),
168.60,Other (W),
168.80,Other (W),
169.00,Other (W),
169.20,Other (W),
169.40,Rearing,
169.60,Rearing,
169.80,Rearing,
170.00,Rearing,
170.20,Other (W),
170.40,Other (W),
170.60,Other (W),
170.80,Other (W),
171.00,Other (W),
171.20,Other (W),
171.40,Other (W),
171.60,Other (W),
171.80,Other (W),
172.00,Other (W),
172.20,Other (W),
172.40,Other (W),
172.60,AG sniff (A),
172.80,AG sniff (A),
173.00,Other (W),
173.20,Other (W),
173.40,Other (W),
173.60,Other (W),
173.80,Body sniff (S),
174.00,Body sniff (S),
174.20,Body sniff (S),
174.40,AG sniff (A),
174.60,AG sniff (A),
174.80,AG sniff (A),
175.00,Other (W),
175.20,Other (W),
175.40,Other (W),
175.60,Other (W),
175.80,Other (W),
176.00,Other (W),
176.20,Body sniff (S),
176.40,Body sniff (S),
176.60,Face sniff (D),
176.80,Face sniff (D),
177.00,Face sniff (D),
177.20,Face sniff (D),
177.40,Face sniff (D),
177.60,Face sniff (D),
177.80,Face sniff (D),
178.00,Face sniff (D),
178.20,Face sniff (D),
178.40,Face sniff (D),
178.60,Face sniff (D),
178.80,Face sniff (D),
179.00,Face sniff (D),
179.20,Face sniff (D),
179.40,Face sniff (D),
179.60,Face sniff (D),
179.80,Face sniff (D),
180.00,Face sniff (D),
180.20,Face sniff (D),
180.40,Face sniff (D),
180.60,Face sniff (D),
180.80,Face sniff (D),
181.00,Other (W),
181.20,Other (W),
181.40,Other (W),
181.60,Other (W),
181.80,Other (W),
182.00,Other (W),
182.20,Other (W),
182.40,Other (W),
182.60,Other (W),
182.80,Other (W),
183.00,Other (W),
183.20,Rearing,
183.40,Rearing,
183.60,Rearing,
183.80,Rearing,
184.00,Rearing,
184.20,Other (W),
184.40,Other (W),
184.60,Other (W),
184.80,Other (W),
185.00,Other (W),
185.20,Rearing,
185.40,Rearing,
185.60,Face sniff (D),
185.80,Face sniff (D),
186.00,Face sniff (D),
186.20,Face sniff (D),
186.40,Face sniff (D),
186.60,Face sniff (D),
186.80,Face sniff (D),
187.00,Face sniff (D),
187.20,Face sniff (D),
187.40,Face sniff (D),
187.60,Face sniff (D),
187.80,Face sniff (D),
188.00,Face sniff (D),
188.20,Face sniff (D),
188.40,Face sniff (D),
188.60,Body sniff (S),
188.80,Body sniff (S),
189.00,AG sniff (A),
189.20,AG sniff (A),
189.40,AG sniff (A),
189.60,Other (W),
189.80,Other (W),
190.00,Other (W),
190.20,Other (W),
190.40,Other (W),
190.60,Other (W),
190.80,Other (W),
191.00,Other (W),
191.20,Other (W),
191.40,Other (W),
191.60,Other (W),
191.80,Body sniff (S),
192.00,Body sniff (S),
192.20,Body sniff (S),
192.40,Body sniff (S),
192.60,Body sniff (S),
192.80,Body sniff (S),
193.00,Body sniff (S),
193.20,Face sniff (D),
193.40,Face sniff (D),
193.60,Face sniff (D),
193.80,Face sniff (D),
194.00,Face sniff (D),
194.20,Face sniff (D),
194.40,Face sniff (D),
194.60,Face sniff (D),
194.80,Face sniff (D),
195.00,Face sniff (D),
195.20,Face sniff (D),
195.40,Face sniff (D),
195.60,Face sniff (D),
195.80,Face sniff (D),
196.00,Face sniff (D),
196.20,Face sniff (D),
196.40,Face sniff (D),
196.60,Face sniff (D),
196.80,Body sniff (S),
197.00,Body sniff (S),
197.20,Body sniff (S),
197.40,Body sniff (S),
197.60,Body sniff (S),
197.80,Body sniff (S),
198.00,Body sniff (S),
198.20,Body sniff (S),
198.40,Body sniff (S),
198.60,Body sniff (S),
198.80,Body sniff (S),
199.00,Body sniff (S),
199.20,Body sniff (S),
199.40,Body sniff (S),
199.60,Body sniff (S),
199.80,Body sniff (S),
200.00,Face sniff (D),
200.20,Face sniff (D),
200.40,Face sniff (D),
200.60,Face sniff (D),
200.80,Face sniff (D),
201.00,Face sniff (D),
201.20,Face sniff (D),
201.40,Face sniff (D),
201.60,Face sniff (D),
201.80,Face sniff (D),
202.00,Face sniff (D),
202.20,Other (W),
202.40,Other (W),
202.60,Other (W),
202.80,Other (W),
203.00,Other (W),
203.20,Other (W),
203.40,Other (W),
203.60,Other (W),
203.80,Other (W),
204.00,Self-groom,
204.20,Self-groom,
204.40,Self-groom,
204.60,Self-groom,
204.80,Self-groom,
205.00,Self-groom,
205.20,Self-groom,
205.40,Self-groom,
205.60,Self-groom,
205.80,Self-groom,
206.00,Self-groom,
206.20,Self-groom,
206.40,Self-groom,
206.60,Self-groom,
206.80,Self-groom,
207.00,Self-groom,
207.20,Self-groom,
207.40,Self-groom,
207.60,Self-groom,
207.80,Self-groom,
208.00,Self-groom,
208.20,Self-groom,
208.40,Self-groom,
208.60,Self-groom,
208.80,Self-groom,
209.00,Self-groom,
209.20,Self-groom,
209.40,Self-groom,
209.60,Self-groom,
209.80,Self-groom,
210.00,Self-groom,
210.20,Self-groom,
210.40,Self-groom,
210.60,Self-groom,
210.80,Self-groom,
211.00,Self-groom,
211.20,Self-groom,
211.40,Self-groom,
211.60,Other (W),
211.80,Other (W),
212.00,Other (W),
212.20,Rearing,
212.40,Rearing,
212.60,Rearing,
212.80,Other (W),
213.00,Other (W),
213.20,Other (W),
213.40,Other (W),
213.60,Other (W),
213.80,Other (W),
214.00,Face sniff (D),
214.20,Body sniff (S),
214.40,Body sniff (S),
214.60,Body sniff (S),
214.80,Body sniff (S),
215.00,Body sniff (S),
215.20,Body sniff (S),
215.40,Face sniff (D),
215.60,Face sniff (D),
215.80,Face sniff (D),
216.00,Face sniff (D),
216.20,Face sniff (D),
216.40,Face sniff (D),
216.60,Face sniff (D),
216.80,AG sniff (A),
217.00,AG sniff (A),
217.20,AG sniff (A),
217.40,Other (W),
217.60,Other (W),
217.80,Other (W),
218.00,Other (W),
218.20,Other (W),
218.40,Other (W),
218.60,Other (W),
218.80,Body sniff (S),
219.00,Body sniff (S),
219.20,Body sniff (S),
219.40,Body sniff (S),
219.60,Body sniff (S),
219.80,Body sniff (S),
220.00,Body sniff (S),
220.20,Allogroom Agg,
220.40,Allogroom Agg,
220.60,Allogroom Agg,
220.80,Allogroom Agg,
221.00,Allogroom Agg,
221.20,Allogroom Agg,
221.40,Allogroom Agg,
221.60,Other (W),
221.80,Other (W),
222.00,Body sniff (S),
222.20,Body sniff (S),
222.40,Body sniff (S),
222.60,Body sniff (S),
222.80,Body sniff (S),
223.00,Body sniff (S),
223.20,Body sniff (S),
223.40,Body sniff (S),
223.60,Face sniff (D),
223.80,Face sniff (D),
224.00,Face sniff (D),
224.20,Face sniff (D),
224.40,Face sniff (D),
224.60,Face sniff (D),
224.80,Face sniff (D),
225.00,Face sniff (D),
225.20,Face sniff (D),
225.40,Face sniff (D),
225.60,Face sniff (D),
225.80,Face sniff (D),
226.00,Face sniff (D),
226.20,Face sniff (D),
226.40,Face sniff (D),
226.60,Face sniff (D),
226.80,Body sniff (S),
227.00,Body sniff (S),
227.20,Other (W),
227.40,Other (W),
227.60,Other (W),
227.80,Other (W),
228.00,Other (W),
228.20,Other (W),
228.40,Other (W),
228.60,Other (W),
228.80,Other (W),
229.00,Other (W),
229.20,Other (W),
229.40,Other (W),
229.60,Other (W),
229.80,Other (W),
230.00,Other (W),
230.20,Other (W),
230.40,Other (W),
230.60,Other (W),
230.80,Self-groom,
231.00,Self-groom,
231.20,Self-groom,
231.40,Self-groom,
231.60,Self-groom,
231.80,Self-groom,
232.00,Self-groom,
232.20,Self-groom,
232.40,Self-groom,
232.60,Other (W),
232.80,Other (W),
233.00,Other (W),
233.20,Other (W),
233.40,Other (W),
233.60,Other (W),
233.80,Other (W),
234.00,Other (W),
234.20,Other (W),
234.40,Other (W),
234.60,Other (W),
234.80,Other (W),
235.00,Rearing,
235.20,Rearing,
235.40,Rearing,
235.60,Rearing,
235.80,Rearing,
236.00,Rearing,
236.20,Rearing,
236.40,Rearing,
236.60,Rearing,
236.80,Other (W),
237.00,Self-groom,
237.20,Self-groom,
237.40,Self-groom,
237.60,Other (W),
237.80,Other (W),
238.00,Other (W),
238.20,Rearing,
238.40,Rearing,
238.60,Rearing,
238.80,Rearing,
239.00,Other (W),
239.20,Other (W),
239.40,Other (W),
239.60,Other (W),
239.80,Other (W),
240.00,Rearing,
240.20,Rearing,
240.40,Rearing,
240.60,Rearing,
240.80,Rearing,
241.00,Rearing,
241.20,Rearing,
241.40,Rearing,
241.60,Rearing,
241.80,Rearing,
242.00,Rearing,
242.20,Rearing,
242.40,Other (W),
242.60,Rearing,
242.80,Rearing,
243.00,Rearing,
243.20,Rearing,
243.40,Rearing,
243.60,Rearing,
243.80,Rearing,
244.00,Other (W),
244.20,Other (W),
244.40,Other (W),
244.60,Other (W),
244.80,Rearing,
245.00,Rearing,
245.20,Rearing,
245.40,Rearing,
245.60,Rearing,
245.80,Rearing,
246.00,Rearing,
246.20,Other (W),
246.40,Other (W),
246.60,Other (W),
246.80,Face sniff (D),
247.00,Face sniff (D),
247.20,Face sniff (D),
247.40,Face sniff (D),
247.60,Face sniff (D),
247.80,Body sniff (S),
248.00,Body sniff (S),
248.20,Body sniff (S),
248.40,Body sniff (S),
248.60,Body sniff (S),
248.80,Body sniff (S),
249.00,Body sniff (S),
249.20,Body sniff (S),
249.40,Body sniff (S),
249.60,Body sniff (S),
249.80,Allogroom Agg,
250.00,Allogroom Agg,
250.20,Allogroom Agg,
250.40,Allogroom Agg,
250.60,Allogroom Agg,
250.80,Body sniff (S),
251.00,Body sniff (S),
251.20,Body sniff (S),
251.40,Body sniff (S),
251.60,Body sniff (S),
251.80,Body sniff (S),
252.00,Body sniff (S),
252.20,Face sniff (D),
252.40,Face sniff (D),
252.60,Face sniff (D),
252.80,Face sniff (D),
253.00,Face sniff (D),
253.20,Face sniff (D),
253.40,Face sniff (D),
253.60,Face sniff (D),
253.80,Other (W),
254.00,Self-groom,
254.20,Self-groom,
254.40,Self-groom,
254.60,Self-groom,
254.80,Self-groom,
255.00,Self-groom,
255.20,Self-groom,
255.40,Self-groom,
255.60,Self-groom,
255.80,Self-groom,
256.00,Self-groom,
256.20,Self-groom,
256.40,Self-groom,
256.60,Rearing,
256.80,Rearing,
257.00,Rearing,
257.20,Rearing,
257.40,Body sniff (S),
257.60,Body sniff (S),
257.80,Rearing,
258.00,Rearing,
258.20,Rearing,
258.40,Rearing,
258.60,Rearing,
258.80,Body sniff (S),
259.00,Body sniff (S),
259.20,Body sniff (S),
259.40,Body sniff (S),
259.60,Other (W),
259.80,Other (W),
260.00,Body sniff (S),
260.20,Body sniff (S),
260.40,Body sniff (S),
260.60,Body sniff (S),
260.80,Other (W),
261.00,Other (W),
261.20,Other (W),
261.40,Other (W),
261.60,Face sniff (D),
261.80,Face sniff (D),
262.00,Face sniff (D),
262.20,Face sniff (D),
262.40,Face sniff (D),
262.60,Face sniff (D),
262.80,Face sniff (D),
263.00,Face sniff (D),
263.20,Face sniff (D),
263.40,Face sniff (D),
263.60,Face sniff (D),
263.80,Face sniff (D),
264.00,Other (W),
264.20,Other (W),
264.40,Other (W),
264.60,Other (W),
264.80,Other (W),
265.00,Other (W),
265.20,Other (W),
265.40,Other (W),
265.60,Other (W),
265.80,Other (W),
266.00,Other (W),
266.20,Other (W),
266.40,Rearing,
266.60,Rearing,
266.80,Rearing,
267.00,Rearing,
267.20,Rearing,
267.40,Rearing,
267.60,Rearing,
267.80,Rearing,
268.00,Rearing,
268.20,Rearing,
268.40,Rearing,
268.60,Rearing,
268.80,Rearing,
269.00,Rearing,
269.20,Rearing,
269.40,Rearing,
269.60,Rearing,
269.80,Other (W),
270.00,Other (W),
270.20,Other (W),
270.40,Other (W),
270.60,Other (W),
270.80,Other (W),
271.00,Other (W),
271.20,Other (W),
271.40,Other (W),
271.60,Other (W),
271.80,Other (W),
272.00,Rearing,
272.20,Rearing,
272.40,Rearing,
272.60,Rearing,
272.80,Rearing,
273.00,Rearing,
273.20,Rearing,
273.40,Rearing,
273.60,Rearing,
273.80,Rearing,
274.00,Rearing,
274.20,Rearing,
274.40,Other (W),
274.60,Other (W),
274.80,Other (W),
275.00,Other (W),
275.20,Other (W),
275.40,Other (W),
275.60,Other (W),
275.80,Other (W),
276.00,Other (W),
276.20,Other (W),
276.40,Other (W),
276.60,Other (W),
276.80,Other (W),
277.00,Other (W),
277.20,Other (W),
277.40,Other (W),
277.60,Other (W),
277.80,Other (W),
278.00,Rearing,
278.20,Rearing,
278.40,Rearing,
278.60,Rearing,
278.80,Rearing,
279.00,Rearing,
279.20,Rearing,
279.40,Rearing,
279.60,Rearing,
279.80,Rearing,
280.00,Rearing,
280.20,Rearing,
280.40,Rearing,
280.60,Rearing,
280.80,Rearing,
281.00,Other (W),
281.20,Other (W),
281.40,Other (W),
281.60,Other (W),
281.80,Other (W),
282.00,Other (W),
282.20,Face sniff (D),
282.40,Face sniff (D),
282.60,Face sniff (D),
282.80,Face sniff (D),
283.00,Face sniff (D),
283.20,Face sniff (D),
283.40,Face sniff (D),
283.60,Face sniff (D),
283.80,Face sniff (D),
284.00,Face sniff (D),
284.20,Face sniff (D),
284.40,Face sniff (D),
284.60,Face sniff (D),
284.80,Face sniff (D),
285.00,Face sniff (D),
285.20,Body sniff (S),
285.40,Body sniff (S),
285.60,Body sniff (S),
285.80,Body sniff (S),
286.00,Body sniff (S),
286.20,Face sniff (D),
286.40,Face sniff (D),
286.60,Face sniff (D),
286.80,Other (W),
287.00,Other (W),
287.20,Other (W),
287.40,Other (W),
287.60,Other (W),
287.80,Other (W),
288.00,Other (W),
288.20,Other (W),
288.40,Other (W),
288.60,Other (W),
288.80,Other (W),
289.00,Other (W),
289.20,Other (W),
289.40,Other (W),
289.60,Other (W),
289.80,Other (W),
290.00,Other (W),
290.20,Other (W),
290.40,Other (W),
290.60,Other (W),
290.80,Other (W),
291.00,Other (W),
291.20,Other (W),
291.40,Other (W),
291.60,Other (W),
291.80,Other (W),
292.00,Other (W),
292.20,Other (W),
292.40,Other (W),
292.60,Other (W),
292.80,Other (W),
293.00,Other (W),
293.20,Other (W),
293.40,Other (W),
293.60,Other (W),
293.80,Other (W),
294.00,Other (W),
294.20,Other (W),
294.40,Other (W),
294.60,Other (W),
294.80,Other (W),
295.00,Other (W),
295.20,Other (W),
295.40,Other (W),
295.60,Other (W),
295.80,Other (W),
296.00,Other (W),
296.20,Other (W),
296.40,Other (W),
296.60,Other (W),
296.80,Other (W),
297.00,Other (W),
297.20,Other (W),
297.40,Other (W),
297.60,Other (W),
297.80,Face sniff (D),
298.00,Face sniff (D),
298.20,Face sniff (D),
298.40,Face sniff (D),
298.60,Face sniff (D),
298.80,Face sniff (D),
299.00,Face sniff (D),
299.20,Face sniff (D),
299.40,Face sniff (D),
299.60,Face sniff (D),
299.80,Face sniff (D),
300.00,Face sniff (D),
300.20,Other (W),
300.40,Other (W),
300.60,Other (W),
300.80,Other (W),
301.00,Other (W),
301.20,Other (W),
301.40,Other (W),
301.60,Other (W),
301.80,Other (W),
302.00,Body sniff (S),
302.20,Body sniff (S),
302.40,Body sniff (S),
302.60,Body sniff (S),
302.80,Face sniff (D),
303.00,Face sniff (D),
303.20,Face sniff (D),
303.40,Face sniff (D),
303.60,Face sniff (D),
303.80,Face sniff (D),
304.00,Face sniff (D),
304.20,Face sniff (D),
304.40,Face sniff (D),
304.60,Face sniff (D),
304.80,Face sniff (D),
305.00,Face sniff (D),
305.20,Face sniff (D),
305.40,Face sniff (D),
305.60,Face sniff (D),
305.80,Face sniff (D),
306.00,Face sniff (D),
306.20,Face sniff (D),
306.40,Face sniff (D),
306.60,Face sniff (D),
306.80,Face sniff (D),
307.00,Face sniff (D),
307.20,Other (W),
307.40,Other (W),
307.60,Other (W),
307.80,Other (W),
308.00,Other (W),
308.20,Other (W),
308.40,Other (W),
308.60,Other (W),
308.80,Other (W),
309.00,Other (W),
309.20,Walk away,
309.40,Walk away,
309.60,Walk away,
309.80,Rearing,
310.00,Rearing,
310.20,Rearing,
310.40,Rearing,
310.60,Rearing,
310.80,Rearing,
311.00,Rearing,
311.20,Rearing,
311.40,Rearing,
311.60,Rearing,
311.80,Rearing,
312.00,Rearing,
312.20,Rearing,
312.40,Rearing,
312.60,Rearing,
312.80,Other (W),
313.00,Other (W),
313.20,Other (W),
313.40,Other (W),
313.60,Body sniff (S),
313.80,Body sniff (S),
314.00,Body sniff (S),
314.20,Body sniff (S),
314.40,Face sniff (D),
314.60,Face sniff (D),
314.80,Face sniff (D),
315.00,Face sniff (D),
315.20,Face sniff (D),
315.40,Face sniff (D),
315.60,Face sniff (D),
315.80,Face sniff (D),
316.00,Face sniff (D),
316.20,Face sniff (D),
316.40,Face sniff (D),
316.60,Face sniff (D),
316.80,Face sniff (D),
317.00,Face sniff (D),
317.20,Face sniff (D),
317.40,Face sniff (D),
317.60,Face sniff (D),
317.80,Other (W),
318.00,Other (W),
318.20,Other (W),
318.40,Other (W),
318.60,Other (W),
318.80,Other (W),
319.00,Other (W),
319.20,Other (W),
319.40,Other (W),
319.60,Other (W),
319.80,Other (W),
320.00,Other (W),
320.20,Other (W),
320.40,Other (W),
320.60,Other (W),
320.80,Other (W),
321.00,Other (W),
321.20,Other (W),
321.40,Other (W),
321.60,Other (W),
321.80,Other (W),
322.00,Other (W),
322.20,Other (W),
322.40,Other (W),
322.60,Other (W),
322.80,Other (W),
323.00,Other (W),
323.20,Other (W),
323.40,Other (W),
323.60,Other (W),
323.80,Other (W),
324.00,Other (W),
324.20,Other (W),
324.40,Other (W),
324.60,Other (W),
324.80,Face sniff (D),
325.00,Face sniff (D),
325.20,Face sniff (D),
325.40,Face sniff (D),
325.60,Face sniff (D),
325.80,Face sniff (D),
326.00,Face sniff (D),
326.20,Face sniff (D),
326.40,Face sniff (D),
326.60,Face sniff (D),
326.80,Face sniff (D),
327.00,Face sniff (D),
327.20,Face sniff (D),
327.40,Face sniff (D),
327.60,Face sniff (D),
327.80,Face sniff (D),
328.00,Face sniff (D),
328.20,Face sniff (D),
328.40,Face sniff (D),
328.60,Other (W),
328.80,Other (W),
329.00,Other (W),
329.20,Other (W),
329.40,Other (W),
329.60,Other (W),
329.80,Other (W),
330.00,Other (W),
330.20,Other (W),
330.40,Other (W),
330.60,Other (W),
330.80,Other (W),
331.00,Other (W),
331.20,Other (W),
331.40,Other (W),
331.60,Other (W),
331.80,Body sniff (S),
332.00,Body sniff (S),
332.20,Body sniff (S),
332.40,Body sniff (S),
332.60,Body sniff (S),
332.80,Face sniff (D),
333.00,Face sniff (D),
333.20,Face sniff (D),
333.40,Face sniff (D),
333.60,Face sniff (D),
333.80,Face sniff (D),
334.00,Face sniff (D),
334.20,Face sniff (D),
334.40,Face sniff (D),
334.60,Face sniff (D),
334.80,Face sniff (D),
335.00,Face sniff (D),
335.20,Face sniff (D),
335.40,Face sniff (D),
335.60,Face sniff (D),
335.80,Face sniff (D),
336.00,Face sniff (D),
336.20,Face sniff (D),
336.40,Face sniff (D),
336.60,Face sniff (D),
336.80,Face sniff (D),
337.00,Face sniff (D),
337.20,Other (W),
337.40,Other (W),
337.60,Face sniff (D),
337.80,Face sniff (D),
338.00,Face sniff (D),
338.20,Face sniff (D),
338.40,Body sniff (S),
338.60,Body sniff (S),
338.80,Body sniff (S),
339.00,Body sniff (S),
339.20,Body sniff (S),
339.40,Body sniff (S),
339.60,Body sniff (S),
339.80,Body sniff (S),
340.00,Body sniff (S),
340.20,Body sniff (S),
340.40,Body sniff (S),
340.60,Body sniff (S),
340.80,Body sniff (S),
341.00,Body sniff (S),
341.20,Body sniff (S),
341.40,Body sniff (S),
341.60,Body sniff (S),
341.80,Body sniff (S),
342.00,Body sniff (S),
342.20,Body sniff (S),
342.40,Body sniff (S),
342.60,Body sniff (S),
342.80,Body sniff (S),
343.00,Other (W),
343.20,Other (W),
343.40,Other (W),
343.60,Other (W),
343.80,Other (W),
344.00,Body sniff (S),
344.20,Body sniff (S),
344.40,Body sniff (S),
344.60,Body sniff (S),
344.80,Body sniff (S),
345.00,Body sniff (S),
345.20,Body sniff (S),
345.40,Body sniff (S),
345.60,Body sniff (S),
345.80,Body sniff (S),
346.00,Body sniff (S),
346.20,Body sniff (S),
346.40,Body sniff (S),
346.60,Body sniff (S),
346.80,Rearing,
347.00,Rearing,
347.20,Rearing,
347.40,Rearing,
347.60,Rearing,
347.80,Rearing,
348.00,Rearing,
348.20,Rearing,
348.40,Other (W),
348.60,Other (W),
348.80,Other (W),
349.00,Body sniff (S),
349.20,Body sniff (S),
349.40,Body sniff (S),
349.60,Body sniff (S),
349.80,Body sniff (S),
350.00,Body sniff (S),
350.20,Body sniff (S),
350.40,Body sniff (S),
350.60,Face sniff (D),
350.80,Face sniff (D),
351.00,Face sniff (D),
351.20,Other (W),
351.40,Other (W),
351.60,Other (W),
351.80,Other (W),
352.00,Other (W),
352.20,Other (W),
352.40,Other (W),
352.60,Other (W),
352.80,Body sniff (S),
353.00,Body sniff (S),
353.20,Body sniff (S),
353.40,Body sniff (S),
353.60,Body sniff (S),
353.80,Body sniff (S),
354.00,Body sniff (S),
354.20,AG sniff (A),
354.40,AG sniff (A),
354.60,AG sniff (A),
354.80,AG sniff (A),
355.00,AG sniff (A),
355.20,AG sniff (A),
355.40,AG sniff (A),
355.60,AG sniff (A),
355.80,AG sniff (A),
356.00,AG sniff (A),
356.20,AG sniff (A),
356.40,AG sniff (A),
356.60,AG sniff (A),
356.80,AG sniff (A),
357.00,AG sniff (A),
357.20,AG sniff (A),
357.40,AG sniff (A),
357.60,AG sniff (A),
357.80,AG sniff (A),
358.00,AG sniff (A),
358.20,AG sniff (A),
358.40,AG sniff (A),
358.60,Body sniff (S),
358.80,Body sniff (S),
359.00,Body sniff (S),
359.20,AG sniff (A),
359.40,AG sniff (A),
359.60,AG sniff (A),
359.80,AG sniff (A),
360.00,AG sniff (A),
360.20,AG sniff (A),
360.40,AG sniff (A),
360.60,AG sniff (A),
360.80,AG sniff (A),
361.00,AG sniff (A),
361.20,AG sniff (A),
361.40,AG sniff (A),
361.60,AG sniff (A),
361.80,AG sniff (A),
362.00,AG sniff (A),
362.20,AG sniff (A),
362.40,AG sniff (A),
362.60,AG sniff (A),
362.80,AG sniff (A),
363.00,Other (W),
363.20,Other (W),
363.40,Other (W),
363.60,Other (W),
363.80,Other (W),
364.00,Other (W),
364.20,Other (W),
364.40,Body sniff (S),
364.60,Body sniff (S),
364.80,Body sniff (S),
365.00,Body sniff (S),
365.20,Body sniff (S),
365.40,Body sniff (S),
365.60,Body sniff (S),
365.80,Body sniff (S),
366.00,Body sniff (S),
366.20,Body sniff (S),
366.40,Body sniff (S),
366.60,Body sniff (S),
366.80,Body sniff (S),
367.00,Body sniff (S),
367.20,Body sniff (S),
367.40,Body sniff (S),
367.60,Body sniff (S),
367.80,AG sniff (A),
368.00,AG sniff (A),
368.20,AG sniff (A),
368.40,AG sniff (A),
368.60,Body sniff (S),
368.80,Body sniff (S),
369.00,Body sniff (S),
369.20,Body sniff (S),
369.40,Body sniff (S),
369.60,Body sniff (S),
369.80,Body sniff (S),
370.00,Body sniff (S),
370.20,Body sniff (S),
370.40,Body sniff (S),
370.60,Body sniff (S),
370.80,Body sniff (S),
371.00,Body sniff (S),
371.20,Body sniff (S),
371.40,Body sniff (S),
371.60,Body sniff (S),
371.80,Face sniff (D),
372.00,Face sniff (D),
372.20,Face sniff (D),
372.40,Face sniff (D),
372.60,Face sniff (D),
372.80,Face sniff (D),
373.00,Face sniff (D),
373.20,Face sniff (D),
373.40,Body sniff (S),
373.60,Body sniff (S),
373.80,Body sniff (S),
374.00,AG sniff (A),
374.20,AG sniff (A),
374.40,AG sniff (A),
374.60,AG sniff (A),
374.80,AG sniff (A),
375.00,AG sniff (A),
375.20,AG sniff (A),
375.40,Body sniff (S),
375.60,Body sniff (S),
375.80,AG sniff (A),
376.00,AG sniff (A),
376.20,AG sniff (A),
376.40,AG sniff (A),
376.60,AG sniff (A),
376.80,AG sniff (A),
377.00,Body sniff (S),
377.20,Body sniff (S),
377.40,Body sniff (S),
377.60,Body sniff (S),
377.80,Body sniff (S),
378.00,Body sniff (S),
378.20,Body sniff (S),
378.40,Body sniff (S),
378.60,Body sniff (S),
378.80,Body sniff (S),
379.00,Body sniff (S),
379.20,AG sniff (A),
379.40,AG sniff (A),
379.60,AG sniff (A),
379.80,AG sniff (A),
380.00,AG sniff (A),
380.20,AG sniff (A),
380.40,AG sniff (A),
380.60,AG sniff (A),
380.80,AG sniff (A),
381.00,AG sniff (A),
381.20,AG sniff (A),
381.40,Body sniff (S),
381.60,Body sniff (S),
381.80,Body sniff (S),
382.00,Body sniff (S),
382.20,Face sniff (D),
382.40,Face sniff (D),
382.60,Face sniff (D),
382.80,Face sniff (D),
383.00,Face sniff (D),
383.20,Face sniff (D),
383.40,Face sniff (D),
383.60,Face sniff (D),
383.80,Face sniff (D),
384.00,Face sniff (D),
384.20,Face sniff (D),
384.40,Face sniff (D),
384.60,Face sniff (D),
384.80,Face sniff (D),
385.00,Face sniff (D),
385.20,Face sniff (D),
385.40,Other (W),
385.60,Other (W),
385.80,Other (W),
386.00,Other (W),
386.20,Body sniff (S),
386.40,Body sniff (S),
386.60,Body sniff (S),
386.80,Body sniff (S),
387.00,Body sniff (S),
387.20,Body sniff (S),
387.40,Body sniff (S),
387.60,Body sniff (S),
387.80,Face sniff (D),
388.00,Face sniff (D),
388.20,Face sniff (D),
388.40,Face sniff (D),
388.60,Face sniff (D),
388.80,Face sniff (D),
389.00,Face sniff (D),
389.20,Face sniff (D),
389.40,Face sniff (D),
389.60,Face sniff (D),
389.80,Face sniff (D),
390.00,Face sniff (D),
390.20,Face sniff (D),
390.40,Face sniff (D),
390.60,Face sniff (D),
390.80,Face sniff (D),
391.00,Face sniff (D),
391.20,Face sniff (D),
391.40,Face sniff (D),
391.60,Face sniff (D),
391.80,Face sniff (D),
392.00,Face sniff (D),
392.20,Face sniff (D),
392.40,Face sniff (D),
392.60,Face sniff (D),
392.80,Face sniff (D),
393.00,Face sniff (D),
393.20,Face sniff (D),
393.40,Face sniff (D),
393.60,Face sniff (D),
393.80,Face sniff (D),
394.00,Face sniff (D),
394.20,Face sniff (D),
394.40,Face sniff (D),
394.60,Face sniff (D),
394.80,Face sniff (D),
395.00,Face sniff (D),
395.20,Face sniff (D),
395.40,Face sniff (D),
395.60,Face sniff (D),
395.80,Face sniff (D),
396.00,Face sniff (D),
396.20,Face sniff (D),
396.40,Face sniff (D),
396.60,Face sniff (D),
396.80,Face sniff (D),
397.00,Other (W),
397.20,Other (W),
397.40,Other (W),
397.60,Other (W),
397.80,Other (W),
398.00,Other (W),
398.20,Other (W),
398.40,Other (W),
398.60,Body sniff (S),
398.80,Body sniff (S),
399.00,Body sniff (S),
399.20,Body sniff (S),
399.40,Body sniff (S),
399.60,Face sniff (D),
399.80,Face sniff (D),
400.00,Face sniff (D),
400.20,Face sniff (D),
400.40,Face sniff (D),
400.60,Face sniff (D),
400.80,Face sniff (D),
401.00,Face sniff (D),
401.20,Face sniff (D),
401.40,Face sniff (D),
401.60,Face sniff (D),
401.80,Face sniff (D),
402.00,Face sniff (D),
402.20,Face sniff (D),
402.40,Face sniff (D),
402.60,Face sniff (D),
402.80,Face sniff (D),
403.00,Face sniff (D),
403.20,Face sniff (D),
403.40,Face sniff (D),
403.60,Face sniff (D),
403.80,Face sniff (D),
404.00,Face sniff (D),
404.20,Face sniff (D),
404.40,Face sniff (D),
404.60,Face sniff (D),
404.80,Face sniff (D),
405.00,Face sniff (D),
405.20,Face sniff (D),
405.40,Face sniff (D),
405.60,Face sniff (D),
405.80,Face sniff (D),
406.00,Face sniff (D),
406.20,Face sniff (D),
406.40,Face sniff (D),
406.60,Face sniff (D),
406.80,Face sniff (D),
407.00,Other (W),
407.20,Other (W),
407.40,Other (W),
407.60,Other (W),
407.80,Other (W),
408.00,Other (W),
408.20,Other (W),
408.40,Other (W),
408.60,Other (W),
408.80,Other (W),
409.00,Other (W),
409.20,Face sniff (D),
409.40,Face sniff (D),
409.60,Face sniff (D),
409.80,Face sniff (D),
410.00,Face sniff (D),
410.20,Face sniff (D),
410.40,Other (W),
410.60,Other (W),
410.80,Other (W),
411.00,Other (W),
411.20,Other (W),
411.40,Other (W),
411.60,Other (W),
411.80,Other (W),
412.00,Other (W),
412.20,Other (W),
412.40,Other (W),
412.60,Face sniff (D),
412.80,Face sniff (D),
413.00,Face sniff (D),
413.20,Face sniff (D),
413.40,Other (W),
413.60,Other (W),
413.80,Other (W),
414.00,Other (W),
414.20,Other (W),
414.40,Other (W),
414.60,Face sniff (D),
414.80,Face sniff (D),
415.00,Face sniff (D),
415.20,Face sniff (D),
415.40,Face sniff (D),
415.60,Face sniff (D),
415.80,Face sniff (D),
416.00,Face sniff (D),
416.20,Face sniff (D),
416.40,Face sniff (D),
416.60,Face sniff (D),
416.80,Face sniff (D),
417.00,Face sniff (D),
417.20,Face sniff (D),
417.40,Face sniff (D),
417.60,Face sniff (D),
417.80,Face sniff (D),
418.00,Face sniff (D),
418.20,Face sniff (D),
418.40,Face sniff (D),
418.60,Face sniff (D),
418.80,Face sniff (D),
419.00,Face sniff (D),
419.20,Face sniff (D),
419.40,Face sniff (D),
419.60,Face sniff (D),
419.80,Face sniff (D),
420.00,Face sniff (D),
420.20,Face sniff (D),
420.40,Rearing,
420.60,Rearing,
420.80,Rearing,
421.00,Rearing,
421.20,Rearing,
421.40,Rearing,
421.60,Rearing,
421.80,Rearing,
422.00,Rearing,
422.20,Rearing,
422.40,Rearing,
422.60,Rearing,
422.80,Rearing,
423.00,Rearing,
423.20,Rearing,
423.40,Rearing,
423.60,Rearing,
423.80,Other (W),
424.00,Other (W),
424.20,Body sniff (S),
424.40,Body sniff (S),
424.60,Body sniff (S),
424.80,Body sniff (S),
425.00,Body sniff (S),
425.20,Body sniff (S),
425.40,Body sniff (S),
425.60,Body sniff (S),
425.80,Body sniff (S),
426.00,AG sniff (A),
426.20,AG sniff (A),
426.40,AG sniff (A),
426.60,Body sniff (S),
426.80,Body sniff (S),
427.00,Body sniff (S),
427.20,Body sniff (S),
427.40,Body sniff (S),
427.60,Body sniff (S),
427.80,Body sniff (S),
428.00,Body sniff (S),
428.20,Body sniff (S),
428.40,Body sniff (S),
428.60,Body sniff (S),
428.80,Body sniff (S),
429.00,Body sniff (S),
429.20,Body sniff (S),
429.40,Body sniff (S),
429.60,Body sniff (S),
429.80,Body sniff (S),
430.00,Body sniff (S),
430.20,AG sniff (A),
430.40,AG sniff (A),
430.60,AG sniff (A),
430.80,AG sniff (A),
431.00,AG sniff (A),
431.20,Body sniff (S),
431.40,Body sniff (S),
431.60,Body sniff (S),
431.80,Body sniff (S),
432.00,Body sniff (S),
432.20,Body sniff (S),
432.40,Body sniff (S),
432.60,Body sniff (S),
432.80,Body sniff (S),
433.00,Body sniff (S),
433.20,Body sniff (S),
433.40,Body sniff (S),
433.60,Body sniff (S),
433.80,Body sniff (S),
434.00,AG sniff (A),
434.20,AG sniff (A),
434.40,,
434.60,Other (W),
434.80,Other (W),
435.00,Other (W),
435.20,Body sniff (S),
435.40,Body sniff (S),
435.60,Body sniff (S),
435.80,Allogroom Agg,
436.00,Allogroom Agg,
436.20,Allogroom Agg,
436.40,Other (W),
436.60,Other (W),
436.80,Other (W),
437.00,Other (W),
437.20,Other (W),
437.40,Other (W),
437.60,Other (W),
437.80,Other (W),
438.00,Face sniff (D),
438.20,Face sniff (D),
438.40,Face sniff (D),
438.60,Face sniff (D),
438.80,Face sniff (D),
439.00,Face sniff (D),
439.20,Face sniff (D),
439.40,Body sniff (S),
439.60,Allogroom Agg,
439.80,Allogroom Agg,
440.00,Allogroom Agg,
440.20,Body sniff (S),
440.40,Body sniff (S),
440.60,Body sniff (S),
440.80,Body sniff (S),
441.00,Body sniff (S),
441.20,Face sniff (D),
441.40,Face sniff (D),
441.60,Face sniff (D),
441.80,Face sniff (D),
442.00,Face sniff (D),
442.20,Face sniff (D),
442.40,Face sniff (D),
442.60,Face sniff (D),
442.80,Face sniff (D),
443.00,Face sniff (D),
443.20,Face sniff (D),
443.40,Face sniff (D),
443.60,Face sniff (D),
443.80,Face sniff (D),
444.00,Face sniff (D),
444.20,Face sniff (D),
444.40,Face sniff (D),
444.60,Face sniff (D),
444.80,Face sniff (D),
445.00,Face sniff (D),
445.20,Face sniff (D),
445.40,Face sniff (D),
445.60,Face sniff (D),
445.80,Face sniff (D),
446.00,Face sniff (D),
446.20,Face sniff (D),
446.40,Face sniff (D),
446.60,Face sniff (D),
446.80,Face sniff (D),
447.00,Face sniff (D),
447.20,Allogroom Agg,
447.40,Allogroom Agg,
447.60,Allogroom Agg,
447.80,Allogroom Agg,
448.00,Allogroom Agg,
448.20,Allogroom Agg,
448.40,Allogroom Agg,
448.60,Allogroom Agg,
448.80,Allogroom Agg,
449.00,Allogroom Agg,
449.20,Allogroom Agg,
449.40,Allogroom Agg,
449.60,Allogroom Agg,
449.80,Allogroom Agg,
450.00,Allogroom Agg,
450.20,Allogroom Agg,
450.40,Allogroom Agg,
450.60,Allogroom Agg,
450.80,Allogroom Agg,
451.00,Allogroom Agg,
451.20,Allogroom Agg,
451.40,Allogroom Agg,
451.60,Allogroom Agg,
451.80,Allogroom Agg,
452.00,Allogroom Agg,
452.20,Allogroom Agg,
452.40,Allogroom Agg,
452.60,Allogroom Agg,
452.80,Allogroom Agg,
453.00,Allogroom Agg,
453.20,Allogroom Agg,
453.40,AG sniff (A),
453.60,AG sniff (A),
453.80,AG sniff (A),
454.00,AG sniff (A),
454.20,AG sniff (A),
454.40,AG sniff (A),
454.60,AG sniff (A),
454.80,AG sniff (A),
455.00,Other (W),
455.20,Other (W),
455.40,Other (W),
455.60,Other (W),
455.80,Other (W),
456.00,Other (W),
456.20,Other (W),
456.40,Other (W),
456.60,Other (W),
456.80,Other (W),
457.00,Other (W),
457.20,Other (W),
457.40,Other (W),
457.60,Other (W),
457.80,Other (W),
458.00,Other (W),
458.20,Other (W),
458.40,Other (W),
458.60,Other (W),
458.80,Other (W),
459.00,Other (W),
459.20,Other (W),
459.40,Other (W),
459.60,Other (W),
459.80,Other (W),
460.00,Other (W),
460.20,Other (W),
460.40,Other (W),
460.60,Other (W),
460.80,Other (W),
461.00,Self-groom,
461.20,Self-groom,
461.40,Self-groom,
461.60,Self-groom,
461.80,Self-groom,
462.00,Self-groom,
462.20,Self-groom,
462.40,Self-groom,
462.60,Self-groom,
462.80,Self-groom,
463.00,Self-groom,
463.20,Self-groom,
463.40,Self-groom,
463.60,Self-groom,
463.80,Self-groom,
464.00,Self-groom,
464.20,Self-groom,
464.40,Self-groom,
464.60,Self-groom,
464.80,Self-groom,
465.00,Self-groom,
465.20,Self-groom,
465.40,Self-groom,
465.60,Self-groom,
465.80,Self-groom,
466.00,Self-groom,
466.20,Self-groom,
466.40,Self-groom,
466.60,Self-groom,
466.80,Self-groom,
467.00,Self-groom,
467.20,Self-groom,
467.40,Other (W),
467.60,Other (W),
467.80,Other (W),
468.00,Self-groom,
468.20,Self-groom,
468.40,Self-groom,
468.60,Self-groom,
468.80,Self-groom,
469.00,Self-groom,
469.20,Self-groom,
469.40,Self-groom,
469.60,Self-groom,
469.80,Self-groom,
470.00,Other (W),
470.20,Other (W),
470.40,Other (W),
470.60,Other (W),
470.80,Rearing,
471.00,Rearing,
471.20,Rearing,
471.40,Rearing,
471.60,Rearing,
471.80,Rearing,
472.00,Rearing,
472.20,Other (W),
472.40,Other (W),
472.60,Other (W),
472.80,Other (W),
473.00,Other (W),
473.20,Other (W),
473.40,Other (W),
473.60,Other (W),
473.80,Face sniff (D),
474.00,Face sniff (D),
474.20,Face sniff (D),
474.40,Face sniff (D),
474.60,Face sniff (D),
474.80,Face sniff (D),
475.00,Face sniff (D),
475.20,Face sniff (D),
475.40,Face sniff (D),
475.60,Face sniff (D),
475.80,Face sniff (D),
476.00,Face sniff (D),
476.20,Face sniff (D),
476.40,Face sniff (D),
476.60,Face sniff (D),
476.80,Face sniff (D),
477.00,Face sniff (D),
477.20,Face sniff (D),
477.40,Face sniff (D),
477.60,Face sniff (D),
477.80,Face sniff (D),
478.00,Face sniff (D),
478.20,Face sniff (D),
478.40,Face sniff (D),
478.60,Face sniff (D),
478.80,Face sniff (D),
479.00,Face sniff (D),
479.20,Face sniff (D),
479.40,Face sniff (D),
479.60,Face sniff (D),
479.80,Face sniff (D),
480.00,Face sniff (D),
480.20,Face sniff (D),
480.40,Face sniff (D),
480.60,Face sniff (D),
480.80,Face sniff (D),
481.00,Face sniff (D),
481.20,AG sniff (A),
481.40,AG sniff (A),
481.60,AG sniff (A),
481.80,AG sniff (A),
482.00,AG sniff (A),
482.20,AG sniff (A),
482.40,Other (W),
482.60,Other (W),
482.80,Other (W),
483.00,Other (W),
483.20,AG sniff (A),
483.40,Body sniff (S),
483.60,Body sniff (S),
483.80,Body sniff (S),
484.00,Body sniff (S),
484.20,Body sniff (S),
484.40,Body sniff (S),
484.60,Face sniff (D),
484.80,Face sniff (D),
485.00,Face sniff (D),
485.20,Face sniff (D),
485.40,Face sniff (D),
485.60,Allogroom Agg,
485.80,Allogroom Agg,
486.00,Allogroom Agg,
486.20,Allogroom Agg,
486.40,Face sniff (D),
486.60,Face sniff (D),
486.80,Face sniff (D),
487.00,Face sniff (D),
487.20,Face sniff (D),
487.40,Face sniff (D),
487.60,Face sniff (D),
487.80,Face sniff (D),
488.00,Face sniff (D),
488.20,Face sniff (D),
488.40,Other (W),
488.60,Other (W),
488.80,Other (W),
489.00,Body sniff (S),
489.20,Body sniff (S),
489.40,Body sniff (S),
489.60,Body sniff (S),
489.80,Body sniff (S),
490.00,Body sniff (S),
490.20,Body sniff (S),
490.40,Body sniff (S),
490.60,Face sniff (D),
490.80,Face sniff (D),
491.00,Face sniff (D),
491.20,Face sniff (D),
491.40,Face sniff (D),
491.60,Face sniff (D),
491.80,Face sniff (D),
492.00,Face sniff (D),
492.20,Face sniff (D),
492.40,Face sniff (D),
492.60,Face sniff (D),
492.80,Face sniff (D),
493.00,Other (W),
493.20,Other (W),
493.40,Other (W),
493.60,Other (W),
493.80,Other (W),
494.00,Face sniff (D),
494.20,Face sniff (D),
494.40,Face sniff (D),
494.60,Face sniff (D),
494.80,Face sniff (D),
495.00,Face sniff (D),
495.20,Other (W),
495.40,Other (W),
495.60,Other (W),
495.80,Walk away,
496.00,Walk away,
496.20,Walk away,
496.40,Other (W),
496.60,Other (W),
496.80,Rearing,
497.00,Rearing,
497.20,Rearing,
497.40,Rearing,
497.60,Rearing,
497.80,Rearing,
498.00,Rearing,
498.20,Rearing,
498.40,Rearing,
498.60,Rearing,
498.80,Other (W),
499.00,Other (W),
499.20,Other (W),
499.40,Face sniff (D),
499.60,Face sniff (D),
499.80,Face sniff (D),
500.00,Face sniff (D),
500.20,Face sniff (D),
500.40,Body sniff (S),
500.60,Body sniff (S),
500.80,Body sniff (S),
501.00,Body sniff (S),
501.20,Body sniff (S),
501.40,Body sniff (S),
501.60,Body sniff (S),
501.80,Body sniff (S),
502.00,Body sniff (S),
502.20,Face sniff (D),
502.40,Face sniff (D),
502.60,Face sniff (D),
502.80,Face sniff (D),
503.00,Face sniff (D),
503.20,Face sniff (D),
503.40,Face sniff (D),
503.60,Face sniff (D),
503.80,Face sniff (D),
504.00,Face sniff (D),
504.20,Face sniff (D),
504.40,Face sniff (D),
504.60,Face sniff (D),
504.80,Face sniff (D),
505.00,Face sniff (D),
505.20,Face sniff (D),
505.40,Face sniff (D),
505.60,Face sniff (D),
505.80,Allogroom Agg,
506.00,Allogroom Agg,
506.20,Allogroom Agg,
506.40,Allogroom Agg,
506.60,Face sniff (D),
506.80,Face sniff (D),
507.00,Other (W),
507.20,Other (W),
507.40,Other (W),
507.60,Other (W),
507.80,Other (W),
508.00,Other (W),
508.20,Rearing,
508.40,Rearing,
508.60,Rearing,
508.80,Rearing,
509.00,Rearing,
509.20,Rearing,
509.40,Other (W),
509.60,Other (W),
509.80,Other (W),
510.00,Other (W),
510.20,Other (W),
510.40,Other (W),
510.60,Other (W),
510.80,Other (W),
511.00,Other (W),
511.20,Other (W),
511.40,Body sniff (S),
511.60,Body sniff (S),
511.80,Body sniff (S),
512.00,Body sniff (S),
512.20,Body sniff (S),
512.40,Body sniff (S),
512.60,Body sniff (S),
512.80,Body sniff (S),
513.00,Body sniff (S),
513.20,Body sniff (S),
513.40,Body sniff (S),
513.60,Body sniff (S),
513.80,Body sniff (S),
514.00,Body sniff (S),
514.20,Body sniff (S),
514.40,Body sniff (S),
514.60,Body sniff (S),
514.80,Body sniff (S),
515.00,Body sniff (S),
515.20,Body sniff (S),
515.40,Body sniff (S),
515.60,Body sniff (S),
515.80,Rearing,
516.00,Rearing,
516.20,Rearing,
516.40,Rearing,
516.60,Rearing,
516.80,Other (W),
517.00,Other (W),
517.20,Other (W),
517.40,Other (W),
517.60,Other (W),
517.80,Other (W),
518.00,Other (W),
518.20,Other (W),
518.40,Other (W),
518.60,Other (W),
518.80,Other (W),
519.00,Other (W),
519.20,Other (W),
519.40,Other (W),
519.60,Other (W),
519.80,Other (W),
520.00,Other (W),
520.20,Other (W),
520.40,Other (W),
520.60,Other (W),
520.80,Other (W),
521.00,Other (W),
521.20,Other (W),
521.40,Other (W),
521.60,Other (W),
521.80,Other (W),
522.00,Other (W),
522.20,Other (W),
522.40,Other (W),
522.60,Other (W),
522.80,Other (W),
523.00,Other (W),
523.20,Other (W),
523.40,Other (W),
523.60,Other (W),
523.80,Other (W),
524.00,Other (W),
524.20,Other (W),
524.40,Other (W),
524.60,Body sniff (S),
524.80,Body sniff (S),
525.00,Body sniff (S),
525.20,Body sniff (S),
525.40,Body sniff (S),
525.60,Body sniff (S),
525.80,Body sniff (S),
526.00,Body sniff (S),
526.20,Body sniff (S),
526.40,Body sniff (S),
526.60,Body sniff (S),
526.80,Body sniff (S),
527.00,Rearing,
527.20,Rearing,
527.40,Rearing,
527.60,Rearing,
527.80,Rearing,
528.00,Rearing,
528.20,Rearing,
528.40,Rearing,
528.60,Other (W),
528.80,Other (W),
529.00,Other (W),
529.20,Other (W),
529.40,Other (W),
529.60,Other (W),
529.80,Body sniff (S),
530.00,Body sniff (S),
530.20,Body sniff (S),
530.40,Body sniff (S),
530.60,Body sniff (S),
530.80,Body sniff (S),
531.00,Body sniff (S),
531.20,Face sniff (D),
531.40,Face sniff (D),
531.60,Face sniff (D),
531.80,Face sniff (D),
532.00,Face sniff (D),
532.20,Face sniff (D),
532.40,Face sniff (D),
532.60,Face sniff (D),
532.80,Face sniff (D),
533.00,Face sniff (D),
533.20,Face sniff (D),
533.40,Face sniff (D),
533.60,Face sniff (D),
533.80,Face sniff (D),
534.00,Face sniff (D),
534.20,Face sniff (D),
534.40,Face sniff (D),
534.60,Face sniff (D),
534.80,Face sniff (D),
535.00,Face sniff (D),
535.20,Face sniff (D),
535.40,Face sniff (D),
535.60,Face sniff (D),
535.80,Face sniff (D),
536.00,Face sniff (D),
536.20,Face sniff (D),
536.40,Face sniff (D),
536.60,Rearing,
536.80,Rearing,
537.00,Rearing,
537.20,Rearing,
537.40,Rearing,
537.60,Rearing,
537.80,Face sniff (D),
538.00,Face sniff (D),
538.20,Face sniff (D),
538.40,Face sniff (D),
538.60,Face sniff (D),
538.80,Face sniff (D),
539.00,Face sniff (D),
539.20,Face sniff (D),
539.40,Face sniff (D),
539.60,Face sniff (D),
539.80,Face sniff (D),
540.00,Face sniff (D),
540.20,Face sniff (D),
540.40,Face sniff (D),
540.60,Face sniff (D),
540.80,Face sniff (D),
541.00,Other (W),
541.20,Other (W),
541.40,Other (W),
541.60,Other (W),
541.80,Other (W),
542.00,Other (W),
542.20,Other (W),
542.40,Other (W),
542.60,Other (W),
542.80,Other (W),
543.00,Other (W),
543.20,Other (W),
543.40,Other (W),
543.60,Other (W),
543.80,Other (W),
544.00,Other (W),
544.20,Other (W),
544.40,Other (W),
544.60,Other (W),
544.80,Other (W),
545.00,Face sniff (D),
545.20,Face sniff (D),
545.40,Face sniff (D),
545.60,Face sniff (D),
545.80,Face sniff (D),
546.00,Face sniff (D),
546.20,Face sniff (D),
546.40,Face sniff (D),
546.60,Face sniff (D),
546.80,Face sniff (D),
547.00,Face sniff (D),
547.20,Face sniff (D),
547.40,Face sniff (D),
547.60,Other (W),
547.80,Other (W),
548.00,Other (W),
548.20,Other (W),
548.40,Other (W),
548.60,Other (W),
548.80,Other (W),
549.00,Other (W),
549.20,Other (W),
549.40,Other (W),
549.60,Other (W),
549.80,Other (W),
550.00,Other (W),
550.20,Other (W),
550.40,Other (W),
550.60,Body sniff (S),
550.80,Body sniff (S),
551.00,Body sniff (S),
551.20,Body sniff (S),
551.40,Body sniff (S),
551.60,Body sniff (S),
551.80,Body sniff (S),
552.00,Body sniff (S),
552.20,Body sniff (S),
552.40,Body sniff (S),
552.60,Body sniff (S),
552.80,Body sniff (S),
553.00,Body sniff (S),
553.20,Other (W),
553.40,Other (W),
553.60,Other (W),
553.80,Rearing,
554.00,Rearing,
554.20,Rearing,
554.40,Rearing,
554.60,Rearing,
554.80,Other (W),
555.00,Other (W),
555.20,Other (W),
555.40,Other (W),
555.60,Other (W),
555.80,Other (W),
556.00,Other (W),
556.20,Body sniff (S),
556.40,Body sniff (S),
556.60,Body sniff (S),
556.80,Body sniff (S),
557.00,Body sniff (S),
557.20,Body sniff (S),
557.40,Body sniff (S),
557.60,Body sniff (S),
557.80,Body sniff (S),
558.00,Body sniff (S),
558.20,Body sniff (S),
558.40,Body sniff (S),
558.60,Body sniff (S),
558.80,Body sniff (S),
559.00,Body sniff (S),
559.20,Body sniff (S),
559.40,Body sniff (S),
559.60,Body sniff (S),
559.80,Body sniff (S),
560.00,Body sniff (S),
560.20,Body sniff (S),
560.40,Body sniff (S),
560.60,Body sniff (S),
560.80,Body sniff (S),
561.00,Body sniff (S),
561.20,Body sniff (S),
561.40,Other (W),
561.60,Other (W),
561.80,Other (W),
562.00,Other (W),
562.20,Other (W),
562.40,Other (W),
562.60,Other (W),
562.80,Other (W),
563.00,Other (W),
563.20,Other (W),
563.40,Other (W),
563.60,Other (W),
563.80,Other (W),
564.00,Other (W),
564.20,Other (W),
564.40,Other (W),
564.60,Other (W),
564.80,Other (W),
565.00,Other (W),
565.20,Other (W),
565.40,Other (W),
565.60,Other (W),
565.80,Other (W),
566.00,Other (W),
566.20,Other (W),
566.40,Other (W),
566.60,Other (W),
566.80,Other (W),
567.00,Other (W),
567.20,Other (W),
567.40,Other (W),
567.60,Other (W),
567.80,Other (W),
568.00,Body sniff (S),
568.20,Body sniff (S),
568.40,Body sniff (S),
568.60,Body sniff (S),
568.80,Face sniff (D),
569.00,Face sniff (D),
569.20,Face sniff (D),
569.40,Face sniff (D),
569.60,Face sniff (D),
569.80,Face sniff (D),
570.00,Face sniff (D),
570.20,Face sniff (D),
570.40,Face sniff (D),
570.60,Other (W),
570.80,Other (W),
571.00,Other (W),
571.20,Other (W),
571.40,Other (W),
571.60,Other (W),
571.80,Other (W),
572.00,Rearing,
572.20,Rearing,
572.40,Rearing,
572.60,Rearing,
572.80,Rearing,
573.00,Rearing,
573.20,Rearing,
573.40,Rearing,
573.60,Rearing,
573.80,Rearing,
574.00,Rearing,
574.20,Other (W),
574.40,Other (W),
574.60,Other (W),
574.80,Body sniff (S),
575.00,Body sniff (S),
575.20,AG sniff (A),
575.40,AG sniff (A),
575.60,Other (W),
575.80,Other (W),
576.00,Other (W),
576.20,Other (W),
576.40,Other (W),
576.60,Other (W),
576.80,Rearing,
577.00,Rearing,
577.20,Rearing,
577.40,Rearing,
577.60,Rearing,
577.80,Rearing,
578.00,Other (W),
578.20,Other (W),
578.40,Other (W),
578.60,Other (W),
578.80,Other (W),
579.00,Other (W),
579.20,Other (W),
579.40,Other (W),
579.60,Other (W),
579.80,Other (W),
580.00,Other (W),
580.20,Other (W),
580.40,Other (W),
580.60,Other (W),
580.80,Other (W),
581.00,Other (W),
581.20,Other (W),
581.40,Other (W),
581.60,Other (W),
581.80,Other (W),
582.00,Other (W),
582.20,Other (W),
582.40,Body sniff (S),
582.60,Body sniff (S),
582.80,Other (W),
583.00,Other (W),
583.20,Other (W),
583.40,Other (W),
583.60,Other (W),
583.80,Face sniff (D),
584.00,Face sniff (D),
584.20,Face sniff (D),
584.40,Face sniff (D),
584.60,Rearing,
584.80,Rearing,
585.00,Rearing,
585.20,Rearing,
585.40,Rearing,
585.60,Rearing,
585.80,Rearing,
586.00,Rearing,
586.20,Rearing,
586.40,Rearing,
586.60,Rearing,
586.80,Other (W),
587.00,Other (W),
587.20,Other (W),
587.40,Other (W),
587.60,Other (W),
587.80,Other (W),
588.00,Other (W),
588.20,Other (W),
588.40,Body sniff (S),
588.60,Body sniff (S),
588.80,Rearing,
589.00,Rearing,
589.20,Rearing,
589.40,Rearing,
589.60,Rearing,
589.80,Rearing,
590.00,Rearing,
590.20,Rearing,
590.40,Rearing,
590.60,Rearing,
590.80,Rearing,
591.00,Rearing,
591.20,Rearing,
591.40,Other (W),
591.60,Other (W),
591.80,Other (W),
592.00,Rearing,
592.20,Rearing,
592.40,Rearing,
592.60,Rearing,
592.80,Rearing,
593.00,Rearing,
593.20,Rearing,
593.40,Rearing,
593.60,Rearing,
593.80,Rearing,
594.00,Rearing,
594.20,Rearing,
594.40,Rearing,
594.60,Rearing,
594.80,Rearing,
595.00,Other (W),
595.20,Other (W),
595.40,Other (W),
595.60,Other (W),
595.80,Other (W),
596.00,Other (W),
596.20,Other (W),
596.40,Other (W),
596.60,Other (W),
596.80,Body sniff (S),
597.00,Body sniff (S),
597.20,Body sniff (S),
597.40,Body sniff (S),
597.60,Body sniff (S),
597.80,Body sniff (S),
598.00,Body sniff (S),
598.20,Face sniff (D),
598.40,Face sniff (D),
598.60,Face sniff (D),
598.80,Face sniff (D),
599.00,Other (W),
599.20,Other (W),
599.40,Other (W),
599.60,Other (W),
599.80,Other (W),
600.00,Other (W),
600.20,Other (W),
600.40,Other (W),
600.60,Other (W),
600.80,Other (W),
601.00,Other (W),
601.20,Other (W),
601.40,Other (W),
601.60,Other (W),
601.80,Other (W),
602.00,Other (W),
602.20,Other (W),
602.40,Other (W),
602.60,Other (W),
602.80,Other (W),
603.00,Other (W),
603.20,Other (W),
603.40,Other (W),
603.60,Other (W),
603.80,Body sniff (S),
604.00,Body sniff (S),
604.20,Body sniff (S),
604.40,Body sniff (S),
604.60,Other (W),
604.80,Other (W),
605.00,Other (W),
605.20,Other (W),
605.40,Other (W),
605.60,Other (W),
605.80,Other (W),
606.00,Other (W),
606.20,Other (W),
606.40,Other (W),
606.60,Other (W),
606.80,Other (W),
607.00,Other (W),
607.20,Other (W),
607.40,Other (W),
607.60,Other (W),
607.80,Other (W),
608.00,Other (W),
608.20,Other (W),
608.40,Body sniff (S),
608.60,Body sniff (S),
608.80,Body sniff (S),
609.00,Body sniff (S),
609.20,Body sniff (S),
609.40,Body sniff (S),
609.60,Body sniff (S),
609.80,Other (W),
610.00,Other (W),
610.20,Other (W),
610.40,Other (W),
610.60,Other (W),
610.80,Other (W),
611.00,Other (W),
611.20,Other (W),
611.40,Other (W),
611.60,Other (W),
611.80,Other (W),
612.00,Other (W),
612.20,Other (W),
612.40,Other (W),
612.60,Other (W),
612.80,Rearing,
613.00,Rearing,
613.20,Rearing,
613.40,Rearing,
613.60,Rearing,
613.80,Other (W),
614.00,Other (W),
614.20,Other (W),
614.40,Other (W),
614.60,Other (W),
614.80,Other (W),
615.00,Other (W),
615.20,Other (W),
615.40,Other (W),
615.60,Other (W),
615.80,Other (W),
616.00,Other (W),
616.20,Other (W),
616.40,Other (W),
616.60,Other (W),
616.80,Other (W),
617.00,Other (W),
617.20,Other (W),
617.40,Other (W),
617.60,Other (W),
617.80,Other (W),
618.00,Other (W),
618.20,Other (W),
618.40,Other (W),
618.60,Other (W),
618.80,Other (W),
619.00,Other (W),
619.20,Other (W),
619.40,Other (W),
619.60,Other (W),
619.80,Other (W),
620.00,Other (W),
620.20,Other (W),
620.40,Other (W),
620.60,Other (W),
620.80,Other (W),
621.00,Other (W),
621.20,Other (W),
621.40,Other (W),
621.60,Other (W),
621.80,Other (W),
622.00,Other (W),
622.20,Other (W),
622.40,Other (W),
622.60,Other (W),
622.80,Other (W),
623.00,Other (W),
623.20,Other (W),
623.40,Other (W),
623.60,Other (W),
623.80,Other (W),
624.00,Body sniff (S),
624.20,Body sniff (S),
624.40,Other (W),
624.60,Other (W),
624.80,Other (W),
625.00,Other (W),
625.20,Other (W),
625.40,Other (W),
625.60,Other (W),
625.80,Other (W),
626.00,Other (W),
626.20,Other (W),
626.40,Other (W),
626.60,Other (W),
626.80,Other (W),
627.00,Other (W),
627.20,Other (W),
627.40,Other (W),
627.60,Other (W),
627.80,Other (W),
628.00,Other (W),
628.20,Other (W),
628.40,Other (W),
628.60,Other (W),
628.80,Face sniff (D),
629.00,Face sniff (D),
629.20,Face sniff (D),
629.40,Face sniff (D),
629.60,Body sniff (S),
629.80,Body sniff (S),
630.00,Body sniff (S),