Time,Behaviors,Start
0.00,,
0.20,,
0.40,,
0.60,,
0.80,,
1.00,,
1.20,,
1.40,,
1.60,,
1.80,,
2.00,,
2.20,,
2.40,,
2.60,,
2.80,,
3.00,,
3.20,,
3.40,,
3.60,,
3.80,,
4.00,,
4.20,,
4.40,,
4.60,,
4.80,,
5.00,,
5.20,,
5.40,,
5.60,,
5.80,,
6.00,,
6.20,Other (W),Juvenile in
6.40,Other (W),
6.60,Other (W),
6.80,Other (W),
7.00,Other (W),
7.20,Other (W),
7.40,Other (W),
7.60,Other (W),
7.80,Other (W),
8.00,Other (W),
8.20,Other (W),
8.40,Other (W),
8.60,Other (W),
8.80,Other (W),
9.00,Other (W),
9.20,Other (W),
9.40,Other (W),
9.60,Other (W),
9.80,Other (W),
10.00,Other (W),
10.20,Other (W),
10.40,Other (W),
10.60,Other (W),
10.80,Other (W),
11.00,Other (W),
11.20,Other (W),
11.40,Other (W),
11.60,Rearing,
11.80,Rearing,
12.00,Rearing,
12.20,Rearing,
12.40,Rearing,
12.60,Rearing,
12.80,Rearing,
13.00,Rearing,
13.20,Rearing,
13.40,Rearing,
13.60,Rearing,
13.80,Rearing,
14.00,Rearing,
14.20,Other (W),
14.40,Other (W),
14.60,Other (W),
14.80,Other (W),
15.00,Other (W),
15.20,Other (W),
15.40,Other (W),
15.60,Other (W),
15.80,Other (W),
16.00,Other (W),
16.20,Other (W),
16.40,Other (W),
16.60,Other (W),
16.80,Other (W),
17.00,Other (W),
17.20,Body sniff (S),
17.40,Body sniff (S),
17.60,Body sniff (S),
17.80,Body sniff (S),
18.00,Body sniff (S),
18.20,Body sniff (S),
18.40,Body sniff (S),
18.60,Body sniff (S),
18.80,Body sniff (S),
19.00,Body sniff (S),
19.20,Body sniff (S),
19.40,Body sniff (S),
19.60,Body sniff (S),
19.80,Body sniff (S),
20.00,Body sniff (S),
20.20,Body sniff (S),
20.40,Body sniff (S),
20.60,Body sniff (S),
20.80,Body sniff (S),
21.00,Body sniff (S),
21.20,Body sniff (S),
21.40,Body sniff (S),
21.60,Body sniff (S),
21.80,Body sniff (S),
22.00,AG sniff (A),
22.20,AG sniff (A),
22.40,AG sniff (A),
22.60,AG sniff (A),
22.80,AG sniff (A),
23.00,AG sniff (A),
23.20,AG sniff (A),
23.40,Other (W),
23.60,Other (W),
23.80,Other (W),
24.00,Other (W),
24.20,Other (W),
24.40,Other (W),
24.60,Other (W),
24.80,Other (W),
25.00,Other (W),
25.20,Follow (Q),
25.40,Follow (Q),
25.60,Follow (Q),
25.80,Follow (Q),
26.00,Follow (Q),
26.20,Body sniff (S),
26.40,Body sniff (S),
26.60,Body sniff (S),
26.80,Body sniff (S),
27.00,Follow (Q),
27.20,Follow (Q),
27.40,Follow (Q),
27.60,Follow (Q),
27.80,Follow (Q),
28.00,Follow (Q),
28.20,Follow (Q),
28.40,Follow (Q),
28.60,Body sniff (S),
28.80,Body sniff (S),
29.00,Body sniff (S),
29.20,Body sniff (S),
29.40,Body sniff (S),
29.60,Body sniff (S),
29.80,Body sniff (S),
30.00,Body sniff (S),
30.20,Body sniff (S),
30.40,Body sniff (S),
30.60,AG sniff (A),
30.80,AG sniff (A),
31.00,AG sniff (A),
31.20,AG sniff (A),
31.40,Body sniff (S),
31.60,Body sniff (S),
31.80,Body sniff (S),
32.00,Body sniff (S),
32.20,Body sniff (S),
32.40,Body sniff (S),
32.60,AG sniff (A),
32.80,AG sniff (A),
33.00,AG sniff (A),
33.20,AG sniff (A),
33.40,AG sniff (A),
33.60,Body sniff (S),
33.80,Body sniff (S),
34.00,Body sniff (S),
34.20,Body sniff (S),
34.40,AG sniff (A),
34.60,AG sniff (A),
34.80,Follow (Q),
35.00,Follow (Q),
35.20,Follow (Q),
35.40,Follow (Q),
35.60,Follow (Q),
35.80,Follow (Q),
36.00,Follow (Q),
36.20,Follow (Q),
36.40,Follow (Q),
36.60,Body sniff (S),
36.80,Body sniff (S),
37.00,Body sniff (S),
37.20,Body sniff (S),
37.40,Body sniff (S),
37.60,Body sniff (S),
37.80,Body sniff (S),
38.00,Body sniff (S),
38.20,Body sniff (S),
38.40,Body sniff (S),
38.60,Body sniff (S),
38.80,Follow (Q),
39.00,Follow (Q),
39.20,Follow (Q),
39.40,Follow (Q),
39.60,Follow (Q),
39.80,Follow (Q),
40.00,Follow (Q),
40.20,Follow (Q),
40.40,Follow (Q),
40.60,Body sniff (S),
40.80,Body sniff (S),
41.00,Body sniff (S),
41.20,Body sniff (S),
41.40,Body sniff (S),
41.60,Body sniff (S),
41.80,Body sniff (S),
42.00,Body sniff (S),
42.20,Body sniff (S),
42.40,Body sniff (S),
42.60,Body sniff (S),
42.80,Body sniff (S),
43.00,Body sniff (S),
43.20,Body sniff (S),
43.40,Body sniff (S),
43.60,Body sniff (S),
43.80,Body sniff (S),
44.00,Body sniff (S),
44.20,Body sniff (S),
44.40,Body sniff (S),
44.60,Body sniff (S),
44.80,Body sniff (S),
45.00,Body sniff (S),
45.20,Body sniff (S),
45.40,Body sniff (S),
45.60,Body sniff (S),
45.80,Body sniff (S),
46.00,Body sniff (S),
46.20,Body sniff (S),
46.40,AG sniff (A),
46.60,AG sniff (A),
46.80,AG sniff (A),
47.00,Follow (Q),
47.20,Follow (Q),
47.40,Follow (Q),
47.60,Follow (Q),
47.80,Follow (Q),
48.00,Body sniff (S),
48.20,Body sniff (S),
48.40,Body sniff (S),
48.60,Body sniff (S),
48.80,Body sniff (S),
49.00,AG sniff (A),
49.20,AG sniff (A),
49.40,AG sniff (A),
49.60,AG sniff (A),
49.80,AG sniff (A),
50.00,AG sniff (A),
50.20,AG sniff (A),
50.40,AG sniff (A),
50.60,AG sniff (A),
50.80,AG sniff (A),
51.00,AG sniff (A),
51.20,AG sniff (A),
51.40,AG sniff (A),
51.60,AG sniff (A),
51.80,AG sniff (A),
52.00,Follow (Q),
52.20,Follow (Q),
52.40,Follow (Q),
52.60,Follow (Q),
52.80,Follow (Q),
53.00,Follow (Q),
53.20,Follow (Q),
53.40,Follow (Q),
53.60,Body sniff (S),
53.80,Body sniff (S),
54.00,Body sniff (S),
54.20,Body sniff (S),
54.40,Body sniff (S),
54.60,Body sniff (S),
54.80,Body sniff (S),
55.00,Body sniff (S),
55.20,Body sniff (S),
55.40,Body sniff (S),
55.60,Body sniff (S),
55.80,Body sniff (S),
56.00,AG sniff (A),
56.20,AG sniff (A),
56.40,AG sniff (A),
56.60,AG sniff (A),
56.80,AG sniff (A),
57.00,AG sniff (A),
57.20,AG sniff (A),
57.40,AG sniff (A),
57.60,AG sniff (A),
57.80,AG sniff (A),
58.00,AG sniff (A),
58.20,AG sniff (A),
58.40,AG sniff (A),
58.60,AG sniff (A),
58.80,AG sniff (A),
59.00,AG sniff (A),
59.20,AG sniff (A),
59.40,AG sniff (A),
59.60,AG sniff (A),
59.80,AG sniff (A),
60.00,AG sniff (A),
60.20,AG sniff (A),
60.40,AG sniff (A),
60.60,AG sniff (A),
60.80,Body sniff (S),
61.00,Body sniff (S),
61.20,Body sniff (S),
61.40,Body sniff (S),
61.60,Body sniff (S),
61.80,Body sniff (S),
62.00,Body sniff (S),
62.20,Body sniff (S),
62.40,Body sniff (S),
62.60,Body sniff (S),
62.80,Body sniff (S),
63.00,Body sniff (S),
63.20,Body sniff (S),
63.40,Body sniff (S),
63.60,Body sniff (S),
63.80,Body sniff (S),
64.00,Body sniff (S),
64.20,Follow (Q),
64.40,Follow (Q),
64.60,Follow (Q),
64.80,Follow (Q),
65.00,Body sniff (S),
65.20,Body sniff (S),
65.40,Body sniff (S),
65.60,Body sniff (S),
65.80,Body sniff (S),
66.00,Body sniff (S),
66.20,Body sniff (S),
66.40,Body sniff (S),
66.60,Body sniff (S),
66.80,Body sniff (S),
67.00,Body sniff (S),
67.20,Face sniff (D),
67.40,Face sniff (D),
67.60,Face sniff (D),
67.80,Face sniff (D),
68.00,Face sniff (D),
68.20,Face sniff (D),
68.40,Face sniff (D),
68.60,Face sniff (D),
68.80,Face sniff (D),
69.00,Face sniff (D),
69.20,Face sniff (D),
69.40,Face sniff (D),
69.60,Other (W),
69.80,Other (W),
70.00,Other (W),
70.20,Other (W),
70.40,Other (W),
70.60,Other (W),
70.80,Other (W),
71.00,Other (W),
71.20,Other (W),
71.40,Other (W),
71.60,Face sniff (D),
71.80,Face sniff (D),
72.00,Face sniff (D),
72.20,Face sniff (D),
72.40,Face sniff (D),
72.60,Face sniff (D),
72.80,Face sniff (D),
73.00,Face sniff (D),
73.20,Face sniff (D),
73.40,Face sniff (D),
73.60,Face sniff (D),
73.80,Face sniff (D),
74.00,Face sniff (D),
74.20,Face sniff (D),
74.40,Face sniff (D),
74.60,Body sniff (S),
74.80,Body sniff (S),
75.00,Body sniff (S),
75.20,Body sniff (S),
75.40,Body sniff (S),
75.60,AG sniff (A),
75.80,AG sniff (A),
76.00,AG sniff (A),
76.20,AG sniff (A),
76.40,AG sniff (A),
76.60,AG sniff (A),
76.80,AG sniff (A),
77.00,AG sniff (A),
77.20,AG sniff (A),
77.40,AG sniff (A),
77.60,AG sniff (A),
77.80,Follow (Q),
78.00,Follow (Q),
78.20,Follow (Q),
78.40,Follow (Q),
78.60,Follow (Q),
78.80,Follow (Q),
79.00,Follow (Q),
79.20,Follow (Q),
79.40,Follow (Q),
79.60,Follow (Q),
79.80,Follow (Q),
80.00,Follow (Q),
80.20,Follow (Q),
80.40,AG sniff (A),
80.60,AG sniff (A),
80.80,AG sniff (A),
81.00,Body sniff (S),
81.20,Body sniff (S),
81.40,Face sniff (D),
81.60,Face sniff (D),
81.80,Face sniff (D),
82.00,Face sniff (D),
82.20,AG sniff (A),
82.40,AG sniff (A),
82.60,AG sniff (A),
82.80,AG sniff (A),
83.00,AG sniff (A),
83.20,AG sniff (A),
83.40,AG sniff (A),
83.60,AG sniff (A),
83.80,AG sniff (A),
84.00,AG sniff (A),
84.20,AG sniff (A),
84.40,AG sniff (A),
84.60,AG sniff (A),
84.80,AG sniff (A),
85.00,AG sniff (A),
85.20,AG sniff (A),
85.40,Walk away,
85.60,Walk away,
85.80,Walk away,
86.00,Rearing,
86.20,Rearing,
86.40,Rearing,
86.60,Rearing,
86.80,Rearing,
87.00,Rearing,
87.20,Rearing,
87.40,Rearing,
87.60,Rearing,
87.80,Rearing,
88.00,Rearing,
88.20,Rearing,
88.40,Rearing,
88.60,Rearing,
88.80,Rearing,
89.00,Rearing,
89.20,Rearing,
89.40,Rearing,
89.60,Rearing,
89.80,Rearing,
90.00,Rearing,
90.20,Rearing,
90.40,Rearing,
90.60,Rearing,
90.80,Rearing,
91.00,Rearing,
91.20,Rearing,
91.40,Other (W),
91.60,Other (W),
91.80,Other (W),
92.00,Other (W),
92.20,Other (W),
92.40,Other (W),
92.60,Other (W),
92.80,Other (W),
93.00,Other (W),
93.20,Other (W),
93.40,Body sniff (S),
93.60,Body sniff (S),
93.80,Other (W),
94.00,Other (W),
94.20,Other (W),
94.40,Other (W),
94.60,Rearing,
94.80,Rearing,
95.00,Rearing,
95.20,Rearing,
95.40,Rearing,
95.60,Rearing,
95.80,Rearing,
96.00,Other (W),
96.20,Other (W),
96.40,Other (W),
96.60,Other (W),
96.80,Other (W),
97.00,Other (W),
97.20,Rearing,
97.40,Rearing,
97.60,Rearing,
97.80,Rearing,
98.00,Rearing,
98.20,Rearing,
98.40,Other (W),
98.60,Other (W),
98.80,Other (W),
99.00,Other (W),
99.20,Other (W),
99.40,Other (W),
99.60,Other (W),
99.80,Other (W),
100.00,Other (W),
100.20,Other (W),
100.40,Other (W),
100.60,Other (W),
100.80,Other (W),
101.00,Other (W),
101.20,Other (W),
101.40,Other (W),
101.60,Other (W),
101.80,Other (W),
102.00,Other (W),
102.20,Other (W),
102.40,Other (W),
102.60,Other (W),
102.80,Other (W),
103.00,Other (W),
103.20,Other (W),
103.40,Other (W),
103.60,Other (W),
103.80,Other (W),
104.00,Other (W),
104.20,Other (W),
104.40,Other (W),
104.60,Other (W),
104.80,Other (W),
105.00,Other (W),
105.20,Body sniff (S),
105.40,Body sniff (S),
105.60,Body sniff (S),
105.80,Body sniff (S),
106.00,Body sniff (S),
106.20,AG sniff (A),
106.40,AG sniff (A),
106.60,Body sniff (S),
106.80,Body sniff (S),
107.00,Body sniff (S),
107.20,Body sniff (S),
107.40,Rearing,
107.60,Rearing,
107.80,Rearing,
108.00,Rearing,
108.20,Rearing,
108.40,Rearing,
108.60,Rearing,
108.80,Rearing,
109.00,Rearing,
109.20,Rearing,
109.40,Rearing,
109.60,Rearing,
109.80,Rearing,
110.00,Rearing,
110.20,Rearing,
110.40,Rearing,
110.60,Rearing,
110.80,Rearing,
111.00,Other (W),
111.20,Other (W),
111.40,Other (W),
111.60,Other (W),
111.80,Other (W),
112.00,Other (W),
112.20,Other (W),
112.40,Other (W),
112.60,Other (W),
112.80,Other (W),
113.00,Other (W),
113.20,Rearing,
113.40,Rearing,
113.60,Rearing,
113.80,Rearing,
114.00,Rearing,
114.20,Rearing,
114.40,Rearing,
114.60,Rearing,
114.80,Rearing,
115.00,Rearing,
115.20,Rearing,
115.40,Rearing,
115.60,Rearing,
115.80,Rearing,
116.00,Rearing,
116.20,Other (W),
116.40,Other (W),
116.60,Other (W),
116.80,Other (W),
117.00,Other (W),
117.20,Other (W),
117.40,Other (W),
117.60,Other (W),
117.80,Other (W),
118.00,Other (W),
118.20,Other (W),
118.40,Other (W),
118.60,Other (W),
118.80,Other (W),
119.00,Other (W),
119.20,Other (W),
119.40,Other (W),
119.60,Other (W),
119.80,Other (W),
120.00,Other (W),
120.20,Other (W),
120.40,Other (W),
120.60,Other (W),
120.80,Other (W),
121.00,Other (W),
121.20,Other (W),
121.40,Other (W),
121.60,Other (W),
121.80,Body sniff (S),
122.00,Body sniff (S),
122.20,Body sniff (S),
122.40,Body sniff (S),
122.60,Body sniff (S),
122.80,Body sniff (S),
123.00,Body sniff (S),
123.20,Body sniff (S),
123.40,Body sniff (S),
123.60,Body sniff (S),
123.80,Other (W),
124.00,Other (W),
124.20,Other (W),
124.40,Rearing,
124.60,Rearing,
124.80,Rearing,
125.00,Rearing,
125.20,Rearing,
125.40,Rearing,
125.60,Rearing,
125.80,Rearing,
126.00,Other (W),
126.20,Other (W),
126.40,Other (W),
126.60,Other (W),
126.80,Other (W),
127.00,Other (W),
127.20,Other (W),
127.40,Other (W),
127.60,Other (W),
127.80,Other (W),
128.00,Other (W),
128.20,Other (W),
128.40,Other (W),
128.60,Other (W),
128.80,Other (W),
129.00,Other (W),
129.20,Other (W),
129.40,Body sniff (S),
129.60,Body sniff (S),
129.80,Body sniff (S),
130.00,Body sniff (S),
130.20,AG sniff (A),
130.40,AG sniff (A),
130.60,AG sniff (A),
130.80,AG sniff (A),
131.00,AG sniff (A),
131.20,AG sniff (A),
131.40,AG sniff (A),
131.60,AG sniff (A),
131.80,AG sniff (A),
132.00,Walk away,
132.20,Walk away,
132.40,Walk away,
132.60,Walk away,
132.80,Other (W),
133.00,Other (W),
133.20,Other (W),
133.40,Other (W),
133.60,AG sniff (A),
133.80,AG sniff (A),
134.00,AG sniff (A),
134.20,AG sniff (A),
134.40,AG sniff (A),
134.60,Other (W),
134.80,Other (W),
135.00,Rearing,
135.20,Rearing,
135.40,Rearing,
135.60,Rearing,
135.80,Rearing,
136.00,Rearing,
136.20,Rearing,
136.40,Other (W),
136.60,Other (W),
136.80,Other (W),
137.00,Other (W),
137.20,Other (W),
137.40,Rearing,
137.60,Rearing,
137.80,Rearing,
138.00,Rearing,
138.20,Rearing,
138.40,Rearing,
138.60,Rearing,
138.80,Rearing,
139.00,Rearing,
139.20,Body sniff (S),
139.40,Body sniff (S),
139.60,Body sniff (S),
139.80,Body sniff (S),
140.00,Body sniff (S),
140.20,Body sniff (S),
140.40,Body sniff (S),
140.60,Body sniff (S),
140.80,Body sniff (S),
141.00,Body sniff (S),
141.20,Body sniff (S),
141.40,Body sniff (S),
141.60,Body sniff (S),
141.80,Body sniff (S),
142.00,Body sniff (S),
142.20,Body sniff (S),
142.40,Body sniff (S),
142.60,Body sniff (S),
142.80,Body sniff (S),
143.00,Body sniff (S),
143.20,Body sniff (S),
143.40,AG sniff (A),
143.60,AG sniff (A),
143.80,AG sniff (A),
144.00,AG sniff (A),
144.20,Other (W),
144.40,Other (W),
144.60,Other (W),
144.80,Other (W),
145.00,Other (W),
145.20,Other (W),
145.40,Other (W),
145.60,Other (W),
145.80,Other (W),
146.00,Other (W),
146.20,Rearing,
146.40,Rearing,
146.60,Rearing,
146.80,Rearing,
147.00,Rearing,
147.20,Rearing,
147.40,Rearing,
147.60,Rearing,
147.80,Other (W),
148.00,Other (W),
148.20,Other (W),
148.40,Other (W),
148.60,Other (W),
148.80,Other (W),
149.00,Other (W),
149.20,Other (W),
149.40,Other (W),
149.60,Other (W),
149.80,Other (W),
150.00,Other (W),
150.20,Face sniff (D),
150.40,Face sniff (D),
150.60,Face sniff (D),
150.80,Face sniff (D),
151.00,Face sniff (D),
151.20,Face sniff (D),
151.40,Face sniff (D),
151.60,Face sniff (D),
151.80,Face sniff (D),
152.00,Face sniff (D),
152.20,Face sniff (D),
152.40,Face sniff (D),
152.60,Face sniff (D),
152.80,Body sniff (S),
153.00,Body sniff (S),
153.20,Body sniff (S),
153.40,Body sniff (S),
153.60,Body sniff (S),
153.80,Body sniff (S),
154.00,Body sniff (S),
154.20,Body sniff (S),
154.40,Body sniff (S),
154.60,Body sniff (S),
154.80,Body sniff (S),
155.00,Body sniff (S),
155.20,Body sniff (S),
155.40,Body sniff (S),
155.60,Body sniff (S),
155.80,Rearing,
156.00,Rearing,
156.20,Rearing,
156.40,Rearing,
156.60,Rearing,
156.80,Body sniff (S),
157.00,Body sniff (S),
157.20,Body sniff (S),
157.40,Body sniff (S),
157.60,Body sniff (S),
157.80,Body sniff (S),
158.00,AG sniff (A),
158.20,AG sniff (A),
158.40,AG sniff (A),
158.60,Body sniff (S),
158.80,Body sniff (S),
159.00,Body sniff (S),
159.20,AG sniff (A),
159.40,AG sniff (A),
159.60,AG sniff (A),
159.80,AG sniff (A),
160.00,Body sniff (S),
160.20,Body sniff (S),
160.40,Body sniff (S),
160.60,Body sniff (S),
160.80,Body sniff (S),
161.00,Body sniff (S),
161.20,Body sniff (S),
161.40,Body sniff (S),
161.60,Body sniff (S),
161.80,Body sniff (S),
162.00,Body sniff (S),
162.20,Body sniff (S),
162.40,Body sniff (S),
162.60,Body sniff (S),
162.80,Body sniff (S),
163.00,Body sniff (S),
163.20,Body sniff (S),
163.40,Body sniff (S),
163.60,Body sniff (S),
163.80,Body sniff (S),
164.00,Body sniff (S),
164.20,Body sniff (S),
164.40,Body sniff (S),
164.60,Body sniff (S),
164.80,Body sniff (S),
165.00,Body sniff (S),
165.20,Body sniff (S),
165.40,Body sniff (S),
165.60,Body sniff (S),
165.80,Body sniff (S),
166.00,Body sniff (S),
166.20,Body sniff (S),
166.40,Body sniff (S),
166.60,Follow (Q),
166.80,Follow (Q),
167.00,Follow (Q),
167.20,Body sniff (S),
167.40,Body sniff (S),
167.60,Body sniff (S),
167.80,Other (W),
168.00,Other (W),
168.20,Other (W),
168.40,Other (W),
168.60,Other (W),
168.80,Other (W),
169.00,Rearing,
169.20,Rearing,
169.40,Rearing,
169.60,Rearing,
169.80,Rearing,
170.00,Other (W),
170.20,Other (W),
170.40,Other (W),
170.60,Other (W),
170.80,Other (W),
171.00,Other (W),
171.20,Other (W),
171.40,Other (W),
171.60,Other (W),
171.80,Other (W),
172.00,Other (W),
172.20,Other (W),
172.40,Other (W),
172.60,Other (W),
172.80,Other (W),
173.00,Other (W),
173.20,Other (W),
173.40,Other (W),
173.60,Other (W),
173.80,Other (W),
174.00,Other (W),
174.20,Other (W),
174.40,Other (W),
174.60,Other (W),
174.80,Rearing,
175.00,Rearing,
175.20,Rearing,
175.40,Rearing,
175.60,Rearing,
175.80,Rearing,
176.00,Rearing,
176.20,Rearing,
176.40,Rearing,
176.60,Rearing,
176.80,Rearing,
177.00,Rearing,
177.20,Face sniff (D),
177.40,Face sniff (D),
177.60,Face sniff (D),
177.80,Face sniff (D),
178.00,Face sniff (D),
178.20,Face sniff (D),
178.40,Face sniff (D),
178.60,Face sniff (D),
178.80,Face sniff (D),
179.00,Face sniff (D),
179.20,Face sniff (D),
179.40,Face sniff (D),
179.60,Face sniff (D),
179.80,Face sniff (D),
180.00,Face sniff (D),
180.20,Face sniff (D),
180.40,Face sniff (D),
180.60,Other (W),
180.80,Other (W),
181.00,Other (W),
181.20,Other (W),
181.40,Other (W),
181.60,Other (W),
181.80,Other (W),
182.00,Face sniff (D),
182.20,Face sniff (D),
182.40,Face sniff (D),
182.60,Face sniff (D),
182.80,Face sniff (D),
183.00,Face sniff (D),
183.20,Face sniff (D),
183.40,Face sniff (D),
183.60,Face sniff (D),
183.80,Face sniff (D),
184.00,Face sniff (D),
184.20,Face sniff (D),
184.40,Face sniff (D),
184.60,Face sniff (D),
184.80,Other (W),
185.00,Other (W),
185.20,Other (W),
185.40,Other (W),
185.60,Other (W),
185.80,Other (W),
186.00,Other (W),
186.20,Other (W),
186.40,Other (W),
186.60,Other (W),
186.80,Other (W),
187.00,Other (W),
187.20,Other (W),
187.40,Other (W),
187.60,Other (W),
187.80,Other (W),
188.00,Other (W),
188.20,Other (W),
188.40,Other (W),
188.60,Other (W),
188.80,Other (W),
189.00,Other (W),
189.20,Other (W),
189.40,Other (W),
189.60,Other (W),
189.80,Body sniff (S),
190.00,Body sniff (S),
190.20,Face sniff (D),
190.40,Face sniff (D),
190.60,Face sniff (D),
190.80,Face sniff (D),
191.00,Face sniff (D),
191.20,Face sniff (D),
191.40,Face sniff (D),
191.60,Body sniff (S),
191.80,Body sniff (S),
192.00,Other (W),
192.20,Other (W),
192.40,Other (W),
192.60,Other (W),
192.80,Other (W),
193.00,Other (W),
193.20,Other (W),
193.40,Other (W),
193.60,Other (W),
193.80,Other (W),
194.00,Other (W),
194.20,Other (W),
194.40,Body sniff (S),
194.60,Body sniff (S),
194.80,Other (W),
195.00,Other (W),
195.20,Other (W),
195.40,Other (W),
195.60,Rearing,
195.80,Rearing,
196.00,Rearing,
196.20,Rearing,
196.40,Rearing,
196.60,Rearing,
196.80,Rearing,
197.00,Rearing,
197.20,Rearing,
197.40,Rearing,
197.60,Other (W),
197.80,Other (W),
198.00,Other (W),
198.20,Other (W),
198.40,Other (W),
198.60,Other (W),
198.80,Other (W),
199.00,Other (W),
199.20,Other (W),
199.40,Other (W),
199.60,Other (W),
199.80,Other (W),
200.00,Other (W),
200.20,Rearing,
200.40,Rearing,
200.60,Rearing,
200.80,Rearing,
201.00,Rearing,
201.20,Rearing,
201.40,Rearing,
201.60,Rearing,
201.80,Rearing,
202.00,Rearing,
202.20,Rearing,
202.40,Rearing,
202.60,Other (W),
202.80,Other (W),
203.00,Other (W),
203.20,Rearing,
203.40,Rearing,
203.60,Rearing,
203.80,Rearing,
204.00,Rearing,
204.20,Other (W),
204.40,Other (W),
204.60,Other (W),
204.80,Other (W),
205.00,Other (W),
205.20,Body sniff (S),
205.40,Body sniff (S),
205.60,Body sniff (S),
205.80,Body sniff (S),
206.00,Body sniff (S),
206.20,Body sniff (S),
206.40,Body sniff (S),
206.60,Body sniff (S),
206.80,Body sniff (S),
207.00,Body sniff (S),
207.20,Body sniff (S),
207.40,Face sniff (D),
207.60,Face sniff (D),
207.80,Face sniff (D),
208.00,Face sniff (D),
208.20,Body sniff (S),
208.40,Body sniff (S),
208.60,Body sniff (S),
208.80,Body sniff (S),
209.00,Body sniff (S),
209.20,Body sniff (S),
209.40,Body sniff (S),
209.60,Body sniff (S),
209.80,Body sniff (S),
210.00,Body sniff (S),
210.20,Body sniff (S),
210.40,Body sniff (S),
210.60,Body sniff (S),
210.80,Body sniff (S),
211.00,Rearing,
211.20,Rearing,
211.40,Rearing,
211.60,Rearing,
211.80,Follow (Q),
212.00,Follow (Q),
212.20,Follow (Q),
212.40,Follow (Q),
212.60,Body sniff (S),
212.80,Body sniff (S),
213.00,Body sniff (S),
213.20,AG sniff (A),
213.40,AG sniff (A),
213.60,AG sniff (A),
213.80,AG sniff (A),
214.00,AG sniff (A),
214.20,AG sniff (A),
214.40,AG sniff (A),
214.60,AG sniff (A),
214.80,AG sniff (A),
215.00,Body sniff (S),
215.20,Body sniff (S),
215.40,Body sniff (S),
215.60,Body sniff (S),
215.80,Body sniff (S),
216.00,Body sniff (S),
216.20,Body sniff (S),
216.40,Body sniff (S),
216.60,Body sniff (S),
216.80,Body sniff (S),
217.00,Follow (Q),
217.20,Follow (Q),
217.40,Follow (Q),
217.60,Follow (Q),
217.80,Follow (Q),
218.00,Follow (Q),
218.20,Body sniff (S),
218.40,Body sniff (S),
218.60,Body sniff (S),
218.80,Body sniff (S),
219.00,Body sniff (S),
219.20,Body sniff (S),
219.40,Body sniff (S),
219.60,Body sniff (S),
219.80,Body sniff (S),
220.00,Body sniff (S),
220.20,Body sniff (S),
220.40,Face sniff (D),
220.60,Face sniff (D),
220.80,Face sniff (D),
221.00,Face sniff (D),
221.20,Face sniff (D),
221.40,Face sniff (D),
221.60,Face sniff (D),
221.80,Face sniff (D),
222.00,Face sniff (D),
222.20,Face sniff (D),
222.40,Face sniff (D),
222.60,Face sniff (D),
222.80,Face sniff (D),
223.00,Face sniff (D),
223.20,Face sniff (D),
223.40,Face sniff (D),
223.60,Face sniff (D),
223.80,Face sniff (D),
224.00,Face sniff (D),
224.20,Face sniff (D),
224.40,Body sniff (S),
224.60,Body sniff (S),
224.80,Body sniff (S),
225.00,Body sniff (S),
225.20,Body sniff (S),
225.40,Body sniff (S),
225.60,Face sniff (D),
225.80,Face sniff (D),
226.00,Face sniff (D),
226.20,Body sniff (S),
226.40,Body sniff (S),
226.60,Body sniff (S),
226.80,Body sniff (S),
227.00,Body sniff (S),
227.20,Body sniff (S),
227.40,Face sniff (D),
227.60,Face sniff (D),
227.80,Face sniff (D),
228.00,Face sniff (D),
228.20,Face sniff (D),
228.40,Face sniff (D),
228.60,Face sniff (D),
228.80,Face sniff (D),
229.00,Body sniff (S),
229.20,Body sniff (S),
229.40,Body sniff (S),
229.60,Body sniff (S),
229.80,Body sniff (S),
230.00,Body sniff (S),
230.20,Body sniff (S),
230.40,Body sniff (S),
230.60,Body sniff (S),
230.80,Body sniff (S),
231.00,Body sniff (S),
231.20,Body sniff (S),
231.40,Face sniff (D),
231.60,Face sniff (D),
231.80,Face sniff (D),
232.00,Face sniff (D),
232.20,Face sniff (D),
232.40,Face sniff (D),
232.60,Face sniff (D),
232.80,Face sniff (D),
233.00,Face sniff (D),
233.20,Face sniff (D),
233.40,Walk away,
233.60,Walk away,
233.80,Walk away,
234.00,Walk away,
234.20,Walk away,
234.40,Other (W),
234.60,Other (W),
234.80,Other (W),
235.00,Other (W),
235.20,Other (W),
235.40,Other (W),
235.60,Other (W),
235.80,Other (W),
236.00,Other (W),
236.20,Other (W),
236.40,Other (W),
236.60,Other (W),
236.80,Other (W),
237.00,Other (W),
237.20,Other (W),
237.40,Other (W),
237.60,Other (W),
237.80,Other (W),
238.00,Other (W),
238.20,Other (W),
238.40,Other (W),
238.60,Rearing,
238.80,Rearing,
239.00,Rearing,
239.20,Rearing,
239.40,Rearing,
239.60,Other (W),
239.80,Other (W),
240.00,Other (W),
240.20,Other (W),
240.40,Other (W),
240.60,Other (W),
240.80,Other (W),
241.00,Other (W),
241.20,Other (W),
241.40,Other (W),
241.60,Other (W),
241.80,Other (W),
242.00,Other (W),
242.20,Other (W),
242.40,Other (W),
242.60,Other (W),
242.80,Other (W),
243.00,Other (W),
243.20,Other (W),
243.40,Other (W),
243.60,Other (W),
243.80,Other (W),
244.00,Other (W),
244.20,Other (W),
244.40,Follow (Q),
244.60,Follow (Q),
244.80,Follow (Q),
245.00,Follow (Q),
245.20,Follow (Q),
245.40,Body sniff (S),
245.60,Body sniff (S),
245.80,Body sniff (S),
246.00,Body sniff (S),
246.20,Body sniff (S),
246.40,Body sniff (S),
246.60,Body sniff (S),
246.80,Body sniff (S),
247.00,Body sniff (S),
247.20,Body sniff (S),
247.40,Body sniff (S),
247.60,Body sniff (S),
247.80,Body sniff (S),
248.00,Body sniff (S),
248.20,Body sniff (S),
248.40,Body sniff (S),
248.60,Body sniff (S),
248.80,Body sniff (S),
249.00,Body sniff (S),
249.20,Body sniff (S),
249.40,Body sniff (S),
249.60,Body sniff (S),
249.80,Body sniff (S),
250.00,Body sniff (S),
250.20,Body sniff (S),
250.40,Body sniff (S),
250.60,Body sniff (S),
250.80,Body sniff (S),
251.00,Body sniff (S),
251.20,AG sniff (A),
251.40,AG sniff (A),
251.60,AG sniff (A),
251.80,Body sniff (S),
252.00,Body sniff (S),
252.20,Body sniff (S),
252.40,AG sniff (A),
252.60,AG sniff (A),
252.80,AG sniff (A),
253.00,AG sniff (A),
253.20,AG sniff (A),
253.40,AG sniff (A),
253.60,AG sniff (A),
253.80,AG sniff (A),
254.00,AG sniff (A),
254.20,AG sniff (A),
254.40,AG sniff (A),
254.60,AG sniff (A),
254.80,Follow (Q),
255.00,Follow (Q),
255.20,Follow (Q),
255.40,Follow (Q),
255.60,Follow (Q),
255.80,Body sniff (S),
256.00,Body sniff (S),
256.20,Body sniff (S),
256.40,Follow (Q),
256.60,Follow (Q),
256.80,Body sniff (S),
257.00,Body sniff (S),
257.20,Body sniff (S),
257.40,Body sniff (S),
257.60,Body sniff (S),
257.80,Body sniff (S),
258.00,Body sniff (S),
258.20,Body sniff (S),
258.40,Body sniff (S),
258.60,Body sniff (S),
258.80,Body sniff (S),
259.00,Body sniff (S),
259.20,Body sniff (S),
259.40,Face sniff (D),
259.60,Face sniff (D),
259.80,Face sniff (D),
260.00,Face sniff (D),
260.20,Face sniff (D),
260.40,Face sniff (D),
260.60,Face sniff (D),
260.80,Thrust (Y),
261.00,Thrust (Y),
261.20,Thrust (Y),
261.40,Thrust (Y),
261.60,Thrust (Y),
261.80,Thrust (Y),
262.00,Thrust (Y),
262.20,Thrust (Y),
262.40,Thrust (Y),
262.60,Body sniff (S),
262.80,Body sniff (S),
263.00,Body sniff (S),
263.20,Body sniff (S),
263.40,Body sniff (S),
263.60,Body sniff (S),
263.80,Body sniff (S),
264.00,Body sniff (S),
264.20,Face sniff (D),
264.40,Face sniff (D),
264.60,Face sniff (D),
264.80,Face sniff (D),
265.00,Face sniff (D),
265.20,Face sniff (D),
265.40,Face sniff (D),
265.60,Face sniff (D),
265.80,Face sniff (D),
266.00,Face sniff (D),
266.20,Face sniff (D),
266.40,Face sniff (D),
266.60,Face sniff (D),
266.80,Face sniff (D),
267.00,Face sniff (D),
267.20,Thrust (Y),
267.40,Thrust (Y),
267.60,Thrust (Y),
267.80,Thrust (Y),
268.00,Thrust (Y),
268.20,Body sniff (S),
268.40,Body sniff (S),
268.60,Body sniff (S),
268.80,Body sniff (S),
269.00,Body sniff (S),
269.20,Body sniff (S),
269.40,Body sniff (S),
269.60,Body sniff (S),
269.80,Body sniff (S),
270.00,Body sniff (S),
270.20,AG sniff (A),
270.40,AG sniff (A),
270.60,AG sniff (A),
270.80,AG sniff (A),
271.00,AG sniff (A),
271.20,AG sniff (A),
271.40,AG sniff (A),
271.60,AG sniff (A),
271.80,AG sniff (A),
272.00,AG sniff (A),
272.20,AG sniff (A),
272.40,AG sniff (A),
272.60,AG sniff (A),
272.80,AG sniff (A),
273.00,AG sniff (A),
273.20,AG sniff (A),
273.40,AG sniff (A),
273.60,AG sniff (A),
273.80,AG sniff (A),
274.00,AG sniff (A),
274.20,AG sniff (A),
274.40,AG sniff (A),
274.60,AG sniff (A),
274.80,AG sniff (A),
275.00,AG sniff (A),
275.20,Other (W),
275.40,Other (W),
275.60,Other (W),
275.80,Other (W),
276.00,Other (W),
276.20,Other (W),
276.40,Other (W),
276.60,Body sniff (S),
276.80,Body sniff (S),
277.00,Body sniff (S),
277.20,Body sniff (S),
277.40,Body sniff (S),
277.60,Body sniff (S),
277.80,Body sniff (S),
278.00,Body sniff (S),
278.20,Body sniff (S),
278.40,Body sniff (S),
278.60,Body sniff (S),
278.80,Body sniff (S),
279.00,AG sniff (A),
279.20,AG sniff (A),
279.40,AG sniff (A),
279.60,AG sniff (A),
279.80,AG sniff (A),
280.00,AG sniff (A),
280.20,AG sniff (A),
280.40,AG sniff (A),
280.60,AG sniff (A),
280.80,AG sniff (A),
281.00,AG sniff (A),
281.20,AG sniff (A),
281.40,AG sniff (A),
281.60,AG sniff (A),
281.80,AG sniff (A),
282.00,AG sniff (A),
282.20,AG sniff (A),
282.40,Allogroom Agg,
282.60,Allogroom Agg,
282.80,Allogroom Agg,
283.00,Allogroom Agg,
283.20,Allogroom Agg,
283.40,Allogroom Agg,
283.60,Allogroom Agg,
283.80,Allogroom Agg,
284.00,Face sniff (D),
284.20,Face sniff (D),
284.40,Face sniff (D),
284.60,Face sniff (D),
284.80,Face sniff (D),
285.00,Face sniff (D),
285.20,Other (W),
285.40,Other (W),
285.60,Other (W),
285.80,Other (W),
286.00,Other (W),
286.20,Other (W),
286.40,Rearing,
286.60,Rearing,
286.80,Rearing,
287.00,Rearing,
287.20,Rearing,
287.40,Rearing,
287.60,Rearing,
287.80,Rearing,
288.00,Other (W),
288.20,Other (W),
288.40,Other (W),
288.60,Other (W),
288.80,Other (W),
289.00,Other (W),
289.20,Other (W),
289.40,Other (W),
289.60,Other (W),
289.80,Other (W),
290.00,Other (W),
290.20,Other (W),
290.40,Other (W),
290.60,Other (W),
290.80,Other (W),
291.00,Other (W),
291.20,Body sniff (S),
291.40,Body sniff (S),
291.60,Body sniff (S),
291.80,Other (W),
292.00,Other (W),
292.20,Face sniff (D),
292.40,Face sniff (D),
292.60,Face sniff (D),
292.80,Face sniff (D),
293.00,Face sniff (D),
293.20,Face sniff (D),
293.40,Body sniff (S),
293.60,Body sniff (S),
293.80,Body sniff (S),
294.00,Body sniff (S),
294.20,Body sniff (S),
294.40,Face sniff (D),
294.60,Face sniff (D),
294.80,Body sniff (S),
295.00,Body sniff (S),
295.20,Other (W),
295.40,Other (W),
295.60,Other (W),
295.80,Rearing,
296.00,Rearing,
296.20,Rearing,
296.40,Other (W),
296.60,Other (W),
296.80,Other (W),
297.00,Other (W),
297.20,Other (W),
297.40,Other (W),
297.60,Other (W),
297.80,Other (W),
298.00,Other (W),
298.20,Rearing,
298.40,Rearing,
298.60,Rearing,
298.80,Rearing,
299.00,Rearing,
299.20,Rearing,
299.40,Rearing,
299.60,Rearing,
299.80,Other (W),
300.00,Other (W),
300.20,Other (W),
300.40,Other (W),
300.60,Other (W),
300.80,Other (W),
301.00,Other (W),
301.20,Other (W),
301.40,Rearing,
301.60,Rearing,
301.80,Rearing,
302.00,Rearing,
302.20,Rearing,
302.40,Rearing,
302.60,Rearing,
302.80,Rearing,
303.00,Rearing,
303.20,Rearing,
303.40,Rearing,
303.60,Rearing,
303.80,Rearing,
304.00,Rearing,
304.20,Other (W),
304.40,Other (W),
304.60,Other (W),
304.80,Rearing,
305.00,Rearing,
305.20,Rearing,
305.40,Rearing,
305.60,Rearing,
305.80,Rearing,
306.00,Rearing,
306.20,Other (W),
306.40,Rearing,
306.60,Rearing,
306.80,Rearing,
307.00,Rearing,
307.20,Rearing,
307.40,Rearing,
307.60,Rearing,
307.80,Rearing,
308.00,Rearing,
308.20,Rearing,
308.40,Other (W),
308.60,Other (W),
308.80,Other (W),
309.00,Other (W),
309.20,Other (W),
309.40,Other (W),
309.60,Other (W),
309.80,Other (W),
310.00,Other (W),
310.20,Face sniff (D),
310.40,Face sniff (D),
310.60,Face sniff (D),
310.80,Face sniff (D),
311.00,Face sniff (D),
311.20,Face sniff (D),
311.40,Walk away,
311.60,Other (W),
311.80,Other (W),
312.00,Rearing,
312.20,Rearing,
312.40,Rearing,
312.60,Rearing,
312.80,Rearing,
313.00,Rearing,
313.20,Rearing,
313.40,Rearing,
313.60,Other (W),
313.80,Other (W),
314.00,Other (W),
314.20,Other (W),
314.40,Other (W),
314.60,Face sniff (D),
314.80,Face sniff (D),
315.00,Face sniff (D),
315.20,Face sniff (D),
315.40,Face sniff (D),
315.60,Face sniff (D),
315.80,Face sniff (D),
316.00,Face sniff (D),
316.20,Face sniff (D),
316.40,Face sniff (D),
316.60,Face sniff (D),
316.80,Face sniff (D),
317.00,Body sniff (S),
317.20,Body sniff (S),
317.40,Body sniff (S),
317.60,Follow (Q),
317.80,Follow (Q),
318.00,Follow (Q),
318.20,Follow (Q),
318.40,Body sniff (S),
318.60,Body sniff (S),
318.80,Body sniff (S),
319.00,AG sniff (A),
319.20,AG sniff (A),
319.40,AG sniff (A),
319.60,Body sniff (S),
319.80,Body sniff (S),
320.00,Body sniff (S),
320.20,Body sniff (S),
320.40,Body sniff (S),
320.60,Body sniff (S),
320.80,Body sniff (S),
321.00,Body sniff (S),
321.20,Body sniff (S),
321.40,Body sniff (S),
321.60,Body sniff (S),
321.80,Body sniff (S),
322.00,Body sniff (S),
322.20,Face sniff (D),
322.40,Face sniff (D),
322.60,Body sniff (S),
322.80,Body sniff (S),
323.00,Body sniff (S),
323.20,Body sniff (S),
323.40,Body sniff (S),
323.60,Body sniff (S),
323.80,Rearing,
324.00,Rearing,
324.20,Rearing,
324.40,Rearing,
324.60,Rearing,
324.80,Rearing,
325.00,Body sniff (S),
325.20,Body sniff (S),
325.40,Body sniff (S),
325.60,Face sniff (D),
325.80,Face sniff (D),
326.00,Face sniff (D),
326.20,Body sniff (S),
326.40,Body sniff (S),
326.60,Body sniff (S),
326.80,Body sniff (S),
327.00,Body sniff (S),
327.20,AG sniff (A),
327.40,AG sniff (A),
327.60,AG sniff (A),
327.80,AG sniff (A),
328.00,AG sniff (A),
328.20,AG sniff (A),
328.40,AG sniff (A),
328.60,AG sniff (A),
328.80,AG sniff (A),
329.00,AG sniff (A),
329.20,AG sniff (A),
329.40,AG sniff (A),
329.60,Body sniff (S),
329.80,Body sniff (S),
330.00,Face sniff (D),
330.20,Face sniff (D),
330.40,Face sniff (D),
330.60,Face sniff (D),
330.80,Face sniff (D),
331.00,Face sniff (D),
331.20,Face sniff (D),
331.40,Face sniff (D),
331.60,Body sniff (S),
331.80,Body sniff (S),
332.00,Body sniff (S),
332.20,Body sniff (S),
332.40,Body sniff (S),
332.60,Body sniff (S),
332.80,Body sniff (S),
333.00,Body sniff (S),
333.20,Body sniff (S),
333.40,Body sniff (S),
333.60,Body sniff (S),
333.80,Body sniff (S),
334.00,Face sniff (D),
334.20,Face sniff (D),
334.40,Face sniff (D),
334.60,Face sniff (D),
334.80,Face sniff (D),
335.00,Face sniff (D),
335.20,Walk away,
335.40,Walk away,
335.60,Walk away,
335.80,Walk away,
336.00,Walk away,
336.20,Walk away,
336.40,Walk away,
336.60,Walk away,
336.80,Walk away,
337.00,Walk away,
337.20,Walk away,
337.40,Walk away,
337.60,Walk away,
337.80,Walk away,
338.00,Walk away,
338.20,Walk away,
338.40,Walk away,
338.60,Walk away,
338.80,Walk away,
339.00,Walk away,
339.20,Walk away,
339.40,Face sniff (D),
339.60,Face sniff (D),
339.80,Face sniff (D),
340.00,Face sniff (D),
340.20,Face sniff (D),
340.40,Body sniff (S),
340.60,Body sniff (S),
340.80,Body sniff (S),
341.00,Body sniff (S),
341.20,Body sniff (S),
341.40,Body sniff (S),
341.60,Thrust (Y),
341.80,Thrust (Y),
342.00,Thrust (Y),
342.20,Thrust (Y),
342.40,Thrust (Y),
342.60,Thrust (Y),
342.80,Thrust (Y),
343.00,Thrust (Y),
343.20,Thrust (Y),
343.40,Thrust (Y),
343.60,Thrust (Y),
343.80,Thrust (Y),
344.00,Thrust (Y),
344.20,Thrust (Y),
344.40,Thrust (Y),
344.60,Thrust (Y),
344.80,Thrust (Y),
345.00,Thrust (Y),
345.20,Body sniff (S),
345.40,Body sniff (S),
345.60,Body sniff (S),
345.80,Body sniff (S),
346.00,Body sniff (S),
346.20,Body sniff (S),
346.40,Body sniff (S),
346.60,Body sniff (S),
346.80,Body sniff (S),
347.00,Body sniff (S),
347.20,Body sniff (S),
347.40,Other (W),
347.60,Body sniff (S),
347.80,Body sniff (S),
348.00,Body sniff (S),
348.20,Body sniff (S),
348.40,Body sniff (S),
348.60,Body sniff (S),
348.80,Body sniff (S),
349.00,Body sniff (S),
349.20,Body sniff (S),
349.40,Body sniff (S),
349.60,Body sniff (S),
349.80,AG sniff (A),
350.00,AG sniff (A),
350.20,AG sniff (A),
350.40,AG sniff (A),
350.60,Walk away,
350.80,Walk away,
351.00,Walk away,
351.20,Walk away,
351.40,Walk away,
351.60,Other (W),
351.80,Other (W),
352.00,Other (W),
352.20,Other (W),
352.40,Other (W),
352.60,Other (W),
352.80,Other (W),
353.00,Other (W),
353.20,Other (W),
353.40,Other (W),
353.60,Other (W),
353.80,Other (W),
354.00,Other (W),
354.20,Other (W),
354.40,Other (W),
354.60,Other (W),
354.80,Other (W),
355.00,Other (W),
355.20,Other (W),
355.40,Other (W),
355.60,Other (W),
355.80,Other (W),
356.00,Other (W),
356.20,Other (W),
356.40,Other (W),
356.60,Other (W),
356.80,Rearing,
357.00,Rearing,
357.20,Rearing,
357.40,Rearing,
357.60,Rearing,
357.80,Rearing,
358.00,Rearing,
358.20,Other (W),
358.40,Other (W),
358.60,Other (W),
358.80,Other (W),
359.00,Other (W),
359.20,Other (W),
359.40,Face sniff (D),
359.60,Face sniff (D),
359.80,Face sniff (D),
360.00,Face sniff (D),
360.20,Face sniff (D),
360.40,Face sniff (D),
360.60,Face sniff (D),
360.80,Face sniff (D),
361.00,Face sniff (D),
361.20,Body sniff (S),
361.40,Body sniff (S),
361.60,Body sniff (S),
361.80,Face sniff (D),
362.00,Face sniff (D),
362.20,Face sniff (D),
362.40,Face sniff (D),
362.60,Other (W),
362.80,Other (W),
363.00,Other (W),
363.20,Face sniff (D),
363.40,Face sniff (D),
363.60,Face sniff (D),
363.80,Face sniff (D),
364.00,Face sniff (D),
364.20,Face sniff (D),
364.40,Face sniff (D),
364.60,Face sniff (D),
364.80,Body sniff (S),
365.00,Body sniff (S),
365.20,Body sniff (S),
365.40,Other (W),
365.60,Other (W),
365.80,Other (W),
366.00,Other (W),
366.20,Other (W),
366.40,Other (W),
366.60,Other (W),
366.80,Other (W),
367.00,Other (W),
367.20,Other (W),
367.40,Other (W),
367.60,Other (W),
367.80,Other (W),
368.00,Other (W),
368.20,Other (W),
368.40,Other (W),
368.60,Other (W),
368.80,Other (W),
369.00,Other (W),
369.20,Other (W),
369.40,Other (W),
369.60,Other (W),
369.80,Other (W),
370.00,Other (W),
370.20,Other (W),
370.40,Other (W),
370.60,Other (W),
370.80,Other (W),
371.00,Other (W),
371.20,Other (W),
371.40,Other (W),
371.60,Other (W),
371.80,Other (W),
372.00,Other (W),
372.20,Face sniff (D),
372.40,Face sniff (D),
372.60,Other (W),
372.80,Other (W),
373.00,Other (W),
373.20,Other (W),
373.40,Allogroom Agg,
373.60,Allogroom Agg,
373.80,Allogroom Agg,
374.00,Allogroom Agg,
374.20,Allogroom Agg,
374.40,Allogroom Agg,
374.60,Allogroom Agg,
374.80,Allogroom Agg,
375.00,Allogroom Agg,
375.20,Allogroom Agg,
375.40,Other (W),
375.60,Other (W),
375.80,Body sniff (S),
376.00,Body sniff (S),
376.20,Body sniff (S),
376.40,Body sniff (S),
376.60,AG sniff (A),
376.80,AG sniff (A),
377.00,AG sniff (A),
377.20,AG sniff (A),
377.40,AG sniff (A),
377.60,AG sniff (A),
377.80,Body sniff (S),
378.00,Body sniff (S),
378.20,Face sniff (D),
378.40,Face sniff (D),
378.60,Face sniff (D),
378.80,Body sniff (S),
379.00,Body sniff (S),
379.20,Body sniff (S),
379.40,Body sniff (S),
379.60,Body sniff (S),
379.80,Allogroom Agg,
380.00,Allogroom Agg,
380.20,Face sniff (D),
380.40,Face sniff (D),
380.60,Face sniff (D),
380.80,Walk away,
381.00,Walk away,
381.20,Walk away,
381.40,Other (W),
381.60,Other (W),
381.80,Other (W),
382.00,Other (W),
382.20,Other (W),
382.40,Face sniff (D),
382.60,Face sniff (D),
382.80,Face sniff (D),
383.00,Face sniff (D),
383.20,Face sniff (D),
383.40,Face sniff (D),
383.60,Face sniff (D),
383.80,Body sniff (S),
384.00,Body sniff (S),
384.20,Body sniff (S),
384.40,Body sniff (S),
384.60,Body sniff (S),
384.80,Body sniff (S),
385.00,Body sniff (S),
385.20,Body sniff (S),
385.40,Body sniff (S),
385.60,Body sniff (S),
385.80,Body sniff (S),
386.00,AG sniff (A),
386.20,AG sniff (A),
386.40,AG sniff (A),
386.60,AG sniff (A),
386.80,AG sniff (A),
387.00,AG sniff (A),
387.20,AG sniff (A),
387.40,AG sniff (A),
387.60,Allogroom Agg,
387.80,Allogroom Agg,
388.00,Allogroom Agg,
388.20,Allogroom Agg,
388.40,Allogroom Agg,
388.60,Allogroom Agg,
388.80,Allogroom Agg,
389.00,Allogroom Agg,
389.20,Allogroom Agg,
389.40,Body sniff (S),
389.60,Allogroom Agg,
389.80,Allogroom Agg,
390.00,Allogroom Agg,
390.20,Allogroom Agg,
390.40,Allogroom Agg,
390.60,Allogroom Agg,
390.80,Allogroom Agg,
391.00,Follow (Q),
391.20,Follow (Q),
391.40,AG sniff (A),
391.60,AG sniff (A),
391.80,AG sniff (A),
392.00,AG sniff (A),
392.20,AG sniff (A),
392.40,AG sniff (A),
392.60,Body sniff (S),
392.80,Body sniff (S),
393.00,Body sniff (S),
393.20,Body sniff (S),
393.40,Body sniff (S),
393.60,Body sniff (S),
393.80,Body sniff (S),
394.00,Body sniff (S),
394.20,Body sniff (S),
394.40,Other (W),
394.60,Other (W),
394.80,Other (W),
395.00,Other (W),
395.20,Other (W),
395.40,Other (W),
395.60,Other (W),
395.80,Body sniff (S),
396.00,Allogroom Agg,
396.20,Allogroom Agg,
396.40,Allogroom Agg,
396.60,Allogroom Agg,
396.80,Allogroom Agg,
397.00,Allogroom Agg,
397.20,Allogroom Agg,
397.40,Allogroom Agg,
397.60,Allogroom Agg,
397.80,Allogroom Agg,
398.00,Thrust (Y),
398.20,Thrust (Y),
398.40,Thrust (Y),
398.60,Thrust (Y),
398.80,Thrust (Y),
399.00,Thrust (Y),
399.20,Face sniff (D),
399.40,Face sniff (D),
399.60,Face sniff (D),
399.80,Face sniff (D),
400.00,Face sniff (D),
400.20,Allogroom Agg,
400.40,Allogroom Agg,
400.60,Allogroom Agg,
400.80,Allogroom Agg,
401.00,Body sniff (S),
401.20,Body sniff (S),
401.40,Body sniff (S),
401.60,Walk away,
401.80,Walk away,
402.00,Walk away,
402.20,Walk away,
402.40,Walk away,
402.60,Walk away,
402.80,Other (W),
403.00,Other (W),
403.20,Other (W),
403.40,Rearing,
403.60,Rearing,
403.80,Rearing,
404.00,Rearing,
404.20,Rearing,
404.40,Rearing,
404.60,Rearing,
404.80,Other (W),
405.00,Other (W),
405.20,Other (W),
405.40,Other (W),
405.60,Other (W),
405.80,Other (W),
406.00,Other (W),
406.20,Other (W),
406.40,Other (W),
406.60,Other (W),
406.80,Other (W),
407.00,Other (W),
407.20,Other (W),
407.40,Other (W),
407.60,Other (W),
407.80,Other (W),
408.00,Other (W),
408.20,Other (W),
408.40,Other (W),
408.60,Other (W),
408.80,Rearing,
409.00,Rearing,
409.20,Rearing,
409.40,Rearing,
409.60,Rearing,
409.80,Rearing,
410.00,Other (W),
410.20,Other (W),
410.40,Other (W),
410.60,Rearing,
410.80,Rearing,
411.00,Rearing,
411.20,Rearing,
411.40,Rearing,
411.60,Other (W),
411.80,Other (W),
412.00,Other (W),
412.20,Other (W),
412.40,Other (W),
412.60,Rearing,
412.80,Rearing,
413.00,Rearing,
413.20,Rearing,
413.40,Rearing,
413.60,Rearing,
413.80,Rearing,
414.00,Rearing,
414.20,Rearing,
414.40,Rearing,
414.60,Rearing,
414.80,Other (W),
415.00,Other (W),
415.20,Other (W),
415.40,Other (W),
415.60,Other (W),
415.80,Other (W),
416.00,Other (W),
416.20,Other (W),
416.40,Other (W),
416.60,Other (W),
416.80,Other (W),
417.00,Other (W),
417.20,Other (W),
417.40,Other (W),
417.60,Other (W),
417.80,Other (W),
418.00,Other (W),
418.20,Face sniff (D),
418.40,Face sniff (D),
418.60,Face sniff (D),
418.80,Face sniff (D),
419.00,Face sniff (D),
419.20,AG sniff (A),
419.40,AG sniff (A),
419.60,AG sniff (A),
419.80,AG sniff (A),
420.00,AG sniff (A),
420.20,AG sniff (A),
420.40,AG sniff (A),
420.60,AG sniff (A),
420.80,Body sniff (S),
421.00,Body sniff (S),
421.20,Body sniff (S),
421.40,Body sniff (S),
421.60,Body sniff (S),
421.80,Body sniff (S),
422.00,Body sniff (S),
422.20,Body sniff (S),
422.40,Body sniff (S),
422.60,Body sniff (S),
422.80,Body sniff (S),
423.00,Allogroom Agg,
423.20,Allogroom Agg,
423.40,Allogroom Agg,
423.60,Allogroom Agg,
423.80,Allogroom Agg,
424.00,Body sniff (S),
424.20,Body sniff (S),
424.40,Face sniff (D),
424.60,Face sniff (D),
424.80,Face sniff (D),
425.00,Face sniff (D),
425.20,Rearing,
425.40,Rearing,
425.60,Rearing,
425.80,Rearing,
426.00,Rearing,
426.20,Rearing,
426.40,Rearing,
426.60,Rearing,
426.80,Rearing,
427.00,Rearing,
427.20,Rearing,
427.40,Rearing,
427.60,Body sniff (S),
427.80,Body sniff (S),
428.00,Body sniff (S),
428.20,Body sniff (S),
428.40,Body sniff (S),
428.60,Body sniff (S),
428.80,Body sniff (S),
429.00,Body sniff (S),
429.20,Face sniff (D),
429.40,Face sniff (D),
429.60,Other (W),
429.80,Other (W),
430.00,Face sniff (D),
430.20,Face sniff (D),
430.40,Face sniff (D),
430.60,Face sniff (D),
430.80,Face sniff (D),
431.00,Face sniff (D),
431.20,Body sniff (S),
431.40,Walk away,
431.60,Walk away,
431.80,Walk away,
432.00,Walk away,
432.20,Walk away,
432.40,Other (W),
432.60,Other (W),
432.80,Other (W),
433.00,Other (W),
433.20,Other (W),
433.40,Other (W),
433.60,Other (W),
433.80,Rearing,
434.00,Rearing,
434.20,Rearing,
434.40,Rearing,
434.60,Rearing,
434.80,Rearing,
435.00,Rearing,
435.20,Rearing,
435.40,Rearing,
435.60,Rearing,
435.80,Other (W),
436.00,Other (W),
436.20,Other (W),
436.40,Other (W),
436.60,Other (W),
436.80,Rearing,
437.00,Rearing,
437.20,Rearing,
437.40,Rearing,
437.60,Rearing,
437.80,Rearing,
438.00,Rearing,
438.20,Other (W),
438.40,Other (W),
438.60,Other (W),
438.80,Rearing,
439.00,Rearing,
439.20,Rearing,
439.40,Rearing,
439.60,Rearing,
439.80,Rearing,
440.00,Rearing,
440.20,Other (W),
440.40,Other (W),
440.60,Other (W),
440.80,Other (W),
441.00,Other (W),
441.20,Other (W),
441.40,Other (W),
441.60,Other (W),
441.80,Other (W),
442.00,Other (W),
442.20,Other (W),
442.40,Rearing,
442.60,Rearing,
442.80,Rearing,
443.00,Rearing,
443.20,Rearing,
443.40,Face sniff (D),
443.60,Face sniff (D),
443.80,Face sniff (D),
444.00,Walk away,
444.20,Walk away,
444.40,Walk away,
444.60,Walk away,
444.80,Other (W),
445.00,Other (W),
445.20,Other (W),
445.40,Other (W),
445.60,Other (W),
445.80,Other (W),
446.00,Other (W),
446.20,Other (W),
446.40,Other (W),
446.60,Other (W),
446.80,Other (W),
447.00,Rearing,
447.20,Rearing,
447.40,Rearing,
447.60,Rearing,
447.80,Rearing,
448.00,Rearing,
448.20,Rearing,
448.40,Rearing,
448.60,Rearing,
448.80,Rearing,
449.00,Rearing,
449.20,Rearing,
449.40,Rearing,
449.60,Other (W),
449.80,Other (W),
450.00,Other (W),
450.20,Other (W),
450.40,Other (W),
450.60,Other (W),
450.80,Other (W),
451.00,Other (W),
451.20,Other (W),
451.40,Other (W),
451.60,Rearing,
451.80,Rearing,
452.00,Rearing,
452.20,Rearing,
452.40,Rearing,
452.60,Rearing,
452.80,Rearing,
453.00,Rearing,
453.20,Rearing,
453.40,Other (W),
453.60,Other (W),
453.80,Face sniff (D),
454.00,Face sniff (D),
454.20,Walk away,
454.40,Walk away,
454.60,Walk away,
454.80,Walk away,
455.00,Walk away,
455.20,Walk away,
455.40,Rearing,
455.60,Rearing,
455.80,Rearing,
456.00,Rearing,
456.20,Rearing,
456.40,Rearing,
456.60,Face sniff (D),
456.80,Face sniff (D),
457.00,Face sniff (D),
457.20,Face sniff (D),
457.40,Body sniff (S),
457.60,Body sniff (S),
457.80,Body sniff (S),
458.00,Body sniff (S),
458.20,Body sniff (S),
458.40,Body sniff (S),
458.60,Rearing,
458.80,Rearing,
459.00,Rearing,
459.20,Rearing,
459.40,Other (W),
459.60,Other (W),
459.80,Body sniff (S),
460.00,Body sniff (S),
460.20,Body sniff (S),
460.40,Body sniff (S),
460.60,Body sniff (S),
460.80,Face sniff (D),
461.00,Face sniff (D),
461.20,Face sniff (D),
461.40,Face sniff (D),
461.60,Face sniff (D),
461.80,Face sniff (D),
462.00,Face sniff (D),
462.20,Face sniff (D),
462.40,Body sniff (S),
462.60,Body sniff (S),
462.80,Body sniff (S),
463.00,Body sniff (S),
463.20,Body sniff (S),
463.40,Body sniff (S),
463.60,Body sniff (S),
463.80,Body sniff (S),
464.00,Body sniff (S),
464.20,Body sniff (S),
464.40,Body sniff (S),
464.60,Body sniff (S),
464.80,Body sniff (S),
465.00,Body sniff (S),
465.20,Body sniff (S),
465.40,Body sniff (S),
465.60,Body sniff (S),
465.80,Allogroom Agg,
466.00,Allogroom Agg,
466.20,Allogroom Agg,
466.40,Allogroom Agg,
466.60,Allogroom Agg,
466.80,Allogroom Agg,
467.00,Body sniff (S),
467.20,Body sniff (S),
467.40,Allogroom Agg,
467.60,Allogroom Agg,
467.80,Allogroom Agg,
468.00,Other (W),
468.20,Other (W),
468.40,Face sniff (D),
468.60,Face sniff (D),
468.80,Face sniff (D),
469.00,Face sniff (D),
469.20,Face sniff (D),
469.40,Face sniff (D),
469.60,Face sniff (D),
469.80,Face sniff (D),
470.00,Face sniff (D),
470.20,Face sniff (D),
470.40,Face sniff (D),
470.60,Face sniff (D),
470.80,Face sniff (D),
471.00,Face sniff (D),
471.20,Face sniff (D),
471.40,AG sniff (A),
471.60,AG sniff (A),
471.80,AG sniff (A),
472.00,AG sniff (A),
472.20,AG sniff (A),
472.40,AG sniff (A),
472.60,AG sniff (A),
472.80,AG sniff (A),
473.00,AG sniff (A),
473.20,AG sniff (A),
473.40,AG sniff (A),
473.60,AG sniff (A),
473.80,AG sniff (A),
474.00,AG sniff (A),
474.20,AG sniff (A),
474.40,AG sniff (A),
474.60,AG sniff (A),
474.80,AG sniff (A),
475.00,AG sniff (A),
475.20,AG sniff (A),
475.40,AG sniff (A),
475.60,AG sniff (A),
475.80,AG sniff (A),
476.00,AG sniff (A),
476.20,AG sniff (A),
476.40,AG sniff (A),
476.60,AG sniff (A),
476.80,AG sniff (A),
477.00,AG sniff (A),
477.20,AG sniff (A),
477.40,AG sniff (A),
477.60,AG sniff (A),
477.80,AG sniff (A),
478.00,AG sniff (A),
478.20,AG sniff (A),
478.40,AG sniff (A),
478.60,AG sniff (A),
478.80,AG sniff (A),
479.00,AG sniff (A),
479.20,AG sniff (A),
479.40,AG sniff (A),
479.60,AG sniff (A),
479.80,AG sniff (A),
480.00,AG sniff (A),
480.20,AG sniff (A),
480.40,AG sniff (A),
480.60,AG sniff (A),
480.80,AG sniff (A),
481.00,AG sniff (A),
481.20,AG sniff (A),
481.40,AG sniff (A),
481.60,Body sniff (S),
481.80,Body sniff (S),
482.00,Body sniff (S),
482.20,Body sniff (S),
482.40,Body sniff (S),
482.60,Body sniff (S),
482.80,Body sniff (S),
483.00,Body sniff (S),
483.20,Face sniff (D),
483.40,Face sniff (D),
483.60,Face sniff (D),
483.80,Face sniff (D),
484.00,Face sniff (D),
484.20,Face sniff (D),
484.40,Face sniff (D),
484.60,Allogroom Agg,
484.80,Allogroom Agg,
485.00,Allogroom Agg,
485.20,Allogroom Agg,
485.40,Allogroom Agg,
485.60,Allogroom Agg,
485.80,Allogroom Agg,
486.00,Allogroom Agg,
486.20,Allogroom Agg,
486.40,Allogroom Agg,
486.60,Allogroom Agg,
486.80,Face sniff (D),
487.00,Face sniff (D),
487.20,Face sniff (D),
487.40,Face sniff (D),
487.60,Face sniff (D),
487.80,Face sniff (D),
488.00,Face sniff (D),
488.20,Face sniff (D),
488.40,Face sniff (D),
488.60,Face sniff (D),
488.80,Face sniff (D),
489.00,Body sniff (S),
489.20,Body sniff (S),
489.40,Body sniff (S),
489.60,Body sniff (S),
489.80,Body sniff (S),
490.00,Thrust (Y),
490.20,Thrust (Y),
490.40,Thrust (Y),
490.60,Thrust (Y),
490.80,Thrust (Y),
491.00,Thrust (Y),
491.20,Thrust (Y),
491.40,Thrust (Y),
491.60,Thrust (Y),
491.80,Thrust (Y),
492.00,Thrust (Y),
492.20,Thrust (Y),
492.40,Thrust (Y),
492.60,Mounting,
492.80,Mounting,
493.00,Mounting,
493.20,Mounting,
493.40,Mounting,
493.60,Mounting,
493.80,Mounting,
494.00,Mounting,
494.20,Mounting,
494.40,Body sniff (S),
494.60,Body sniff (S),
494.80,Face sniff (D),
495.00,Face sniff (D),
495.20,Face sniff (D),
495.40,Face sniff (D),
495.60,Face sniff (D),
495.80,Face sniff (D),
496.00,Face sniff (D),
496.20,Face sniff (D),
496.40,Face sniff (D),
496.60,Face sniff (D),
496.80,Face sniff (D),
497.00,Face sniff (D),
497.20,Body sniff (S),
497.40,Body sniff (S),
497.60,Body sniff (S),
497.80,AG sniff (A),
498.00,AG sniff (A),
498.20,AG sniff (A),
498.40,AG sniff (A),
498.60,AG sniff (A),
498.80,AG sniff (A),
499.00,Body sniff (S),
499.20,Body sniff (S),
499.40,Body sniff (S),
499.60,Body sniff (S),
499.80,Body sniff (S),
500.00,AG sniff (A),
500.20,AG sniff (A),
500.40,AG sniff (A),
500.60,AG sniff (A),
500.80,AG sniff (A),
501.00,AG sniff (A),
501.20,AG sniff (A),
501.40,AG sniff (A),
501.60,Body sniff (S),
501.80,Body sniff (S),
502.00,Body sniff (S),
502.20,Body sniff (S),
502.40,Body sniff (S),
502.60,Allogroom Agg,
502.80,Allogroom Agg,
503.00,Allogroom Agg,
503.20,Allogroom Agg,
503.40,Allogroom Agg,
503.60,Face sniff (D),
503.80,Allogroom Agg,
504.00,Allogroom Agg,
504.20,Allogroom Agg,
504.40,Allogroom Agg,
504.60,Allogroom Agg,
504.80,Allogroom Agg,
505.00,Allogroom Agg,
505.20,Allogroom Agg,
505.40,Allogroom Agg,
505.60,Allogroom Agg,
505.80,Allogroom Agg,
506.00,Allogroom Agg,
506.20,Allogroom Agg,
506.40,Face sniff (D),
506.60,Face sniff (D),
506.80,Face sniff (D),
507.00,Face sniff (D),
507.20,Face sniff (D),
507.40,Face sniff (D),
507.60,Face sniff (D),
507.80,Face sniff (D),
508.00,Face sniff (D),
508.20,Face sniff (D),
508.40,Face sniff (D),
508.60,Face sniff (D),
508.80,Face sniff (D),
509.00,Face sniff (D),
509.20,Face sniff (D),
509.40,Face sniff (D),
509.60,Other (W),
509.80,Other (W),
510.00,Other (W),
510.20,Other (W),
510.40,Other (W),
510.60,Other (W),
510.80,Other (W),
511.00,Other (W),
511.20,Body sniff (S),
511.40,Body sniff (S),
511.60,Body sniff (S),
511.80,Body sniff (S),
512.00,Body sniff (S),
512.20,Body sniff (S),
512.40,Other (W),
512.60,Other (W),
512.80,Other (W),
513.00,Other (W),
513.20,Other (W),
513.40,Other (W),
513.60,Other (W),
513.80,Other (W),
514.00,Other (W),
514.20,Other (W),
514.40,Other (W),
514.60,Face sniff (D),
514.80,Face sniff (D),
515.00,Face sniff (D),
515.20,Face sniff (D),
515.40,Face sniff (D),
515.60,Face sniff (D),
515.80,Face sniff (D),
516.00,Face sniff (D),
516.20,Walk away,
516.40,Walk away,
516.60,Walk away,
516.80,Walk away,
517.00,Walk away,
517.20,Other (W),
517.40,Other (W),
517.60,Other (W),
517.80,Other (W),
518.00,Other (W),
518.20,Face sniff (D),
518.40,Face sniff (D),
518.60,Face sniff (D),
518.80,Face sniff (D),
519.00,Face sniff (D),
519.20,Body sniff (S),
519.40,Body sniff (S),
519.60,Body sniff (S),
519.80,Body sniff (S),
520.00,Body sniff (S),
520.20,Body sniff (S),
520.40,Body sniff (S),
520.60,AG sniff (A),
520.80,AG sniff (A),
521.00,AG sniff (A),
521.20,AG sniff (A),
521.40,AG sniff (A),
521.60,AG sniff (A),
521.80,AG sniff (A),
522.00,AG sniff (A),
522.20,AG sniff (A),
522.40,AG sniff (A),
522.60,AG sniff (A),
522.80,AG sniff (A),
523.00,Body sniff (S),
523.20,Body sniff (S),
523.40,Body sniff (S),
523.60,Body sniff (S),
523.80,Body sniff (S),
524.00,Body sniff (S),
524.20,Body sniff (S),
524.40,Face sniff (D),
524.60,Face sniff (D),
524.80,Walk away,
525.00,Walk away,
525.20,Walk away,
525.40,Other (W),
525.60,Other (W),
525.80,Other (W),
526.00,Other (W),
526.20,Body sniff (S),
526.40,Body sniff (S),
526.60,Body sniff (S),
526.80,Body sniff (S),
527.00,AG sniff (A),
527.20,AG sniff (A),
527.40,AG sniff (A),
527.60,AG sniff (A),
527.80,AG sniff (A),
528.00,AG sniff (A),
528.20,AG sniff (A),
528.40,AG sniff (A),
528.60,AG sniff (A),
528.80,AG sniff (A),
529.00,AG sniff (A),
529.20,AG sniff (A),
529.40,AG sniff (A),
529.60,AG sniff (A),
529.80,AG sniff (A),
530.00,AG sniff (A),
530.20,AG sniff (A),
530.40,AG sniff (A),
530.60,AG sniff (A),
530.80,AG sniff (A),
531.00,AG sniff (A),
531.20,AG sniff (A),
531.40,AG sniff (A),
531.60,AG sniff (A),
531.80,AG sniff (A),
532.00,AG sniff (A),
532.20,AG sniff (A),
532.40,AG sniff (A),
532.60,AG sniff (A),
532.80,AG sniff (A),
533.00,AG sniff (A),
533.20,AG sniff (A),
533.40,AG sniff (A),
533.60,AG sniff (A),
533.80,AG sniff (A),
534.00,AG sniff (A),
534.20,Walk away,
534.40,Walk away,
534.60,Walk away,
534.80,Walk away,
535.00,Walk away,
535.20,Other (W),
535.40,Other (W),
535.60,Other (W),
535.80,Other (W),
536.00,Other (W),
536.20,Other (W),
536.40,Other (W),
536.60,Other (W),
536.80,Other (W),
537.00,Other (W),
537.20,Other (W),
537.40,Other (W),
537.60,Other (W),
537.80,Rearing,
538.00,Rearing,
538.20,Rearing,
538.40,Rearing,
538.60,Rearing,
538.80,Rearing,
539.00,Rearing,
539.20,Rearing,
539.40,Rearing,
539.60,Rearing,
539.80,Rearing,
540.00,Rearing,
540.20,Rearing,
540.40,Rearing,
540.60,Other (W),
540.80,Other (W),
541.00,Other (W),
541.20,Other (W),
541.40,Other (W),
541.60,Other (W),
541.80,Body sniff (S),
542.00,Body sniff (S),
542.20,Body sniff (S),
542.40,AG sniff (A),
542.60,AG sniff (A),
542.80,AG sniff (A),
543.00,AG sniff (A),
543.20,AG sniff (A),
543.40,AG sniff (A),
543.60,AG sniff (A),
543.80,AG sniff (A),
544.00,AG sniff (A),
544.20,AG sniff (A),
544.40,AG sniff (A),
544.60,AG sniff (A),
544.80,AG sniff (A),
545.00,AG sniff (A),
545.20,AG sniff (A),
545.40,AG sniff (A),
545.60,AG sniff (A),
545.80,AG sniff (A),
546.00,AG sniff (A),
546.20,AG sniff (A),
546.40,AG sniff (A),
546.60,AG sniff (A),
546.80,AG sniff (A),
547.00,AG sniff (A),
547.20,Body sniff (S),
547.40,Body sniff (S),
547.60,Body sniff (S),
547.80,Face sniff (D),
548.00,Face sniff (D),
548.20,Face sniff (D),
548.40,Face sniff (D),
548.60,Face sniff (D),
548.80,Face sniff (D),
549.00,Face sniff (D),
549.20,Face sniff (D),
549.40,Face sniff (D),
549.60,Face sniff (D),
549.80,Face sniff (D),
550.00,Face sniff (D),
550.20,Face sniff (D),
550.40,Face sniff (D),
550.60,Body sniff (S),
550.80,Body sniff (S),
551.00,Walk away,
551.20,Walk away,
551.40,Walk away,
551.60,Other (W),
551.80,Other (W),
552.00,Other (W),
552.20,Other (W),
552.40,Other (W),
552.60,Other (W),
552.80,Other (W),
553.00,Other (W),
553.20,Other (W),
553.40,Other (W),
553.60,Other (W),
553.80,Other (W),
554.00,Other (W),
554.20,Rearing,
554.40,Rearing,
554.60,Rearing,
554.80,Rearing,
555.00,Rearing,
555.20,Rearing,
555.40,Rearing,
555.60,Rearing,
555.80,Rearing,
556.00,Other (W),
556.20,Other (W),
556.40,Face sniff (D),
556.60,Body sniff (S),
556.80,Other (W),
557.00,Other (W),
557.20,Other (W),
557.40,Other (W),
557.60,Other (W),
557.80,Other (W),
558.00,Other (W),
558.20,Other (W),
558.40,Other (W),
558.60,Other (W),
558.80,Other (W),
559.00,Other (W),
559.20,Other (W),
559.40,Other (W),
559.60,Other (W),
559.80,Other (W),
560.00,Other (W),
560.20,Other (W),
560.40,Other (W),
560.60,Other (W),
560.80,Other (W),
561.00,Other (W),
561.20,Other (W),
561.40,Other (W),
561.60,Other (W),
561.80,Other (W),
562.00,Other (W),
562.20,Other (W),
562.40,Other (W),
562.60,Other (W),
562.80,Other (W),
563.00,Other (W),
563.20,Other (W),
563.40,Rearing,
563.60,Rearing,
563.80,Rearing,
564.00,Rearing,
564.20,Rearing,
564.40,Rearing,
564.60,Rearing,
564.80,Rearing,
565.00,Other (W),
565.20,Other (W),
565.40,Other (W),
565.60,Other (W),
565.80,Other (W),
566.00,Other (W),
566.20,Other (W),
566.40,Other (W),
566.60,Other (W),
566.80,Other (W),
567.00,Other (W),
567.20,Other (W),
567.40,Face sniff (D),
567.60,Face sniff (D),
567.80,Face sniff (D),
568.00,Face sniff (D),
568.20,Body sniff (S),
568.40,Body sniff (S),
568.60,AG sniff (A),
568.80,AG sniff (A),
569.00,AG sniff (A),
569.20,AG sniff (A),
569.40,AG sniff (A),
569.60,AG sniff (A),
569.80,AG sniff (A),
570.00,AG sniff (A),
570.20,AG sniff (A),
570.40,AG sniff (A),
570.60,AG sniff (A),
570.80,AG sniff (A),
571.00,AG sniff (A),
571.20,AG sniff (A),
571.40,Body sniff (S),
571.60,Body sniff (S),
571.80,Walk away,
572.00,Walk away,
572.20,Walk away,
572.40,Walk away,
572.60,Other (W),
572.80,Rearing,
573.00,Rearing,
573.20,Rearing,
573.40,Rearing,
573.60,Rearing,
573.80,Other (W),
574.00,Other (W),
574.20,Other (W),
574.40,Other (W),
574.60,Other (W),
574.80,Other (W),
575.00,Other (W),
575.20,Other (W),
575.40,Other (W),
575.60,Other (W),
575.80,Body sniff (S),
576.00,Body sniff (S),
576.20,Body sniff (S),
576.40,Other (W),
576.60,Other (W),
576.80,Other (W),
577.00,Other (W),
577.20,Other (W),
577.40,Other (W),
577.60,Other (W),
577.80,Other (W),
578.00,Other (W),
578.20,Other (W),
578.40,Other (W),
578.60,Other (W),
578.80,Other (W),
579.00,Other (W),
579.20,Other (W),
579.40,Other (W),
579.60,Other (W),
579.80,Other (W),
580.00,Other (W),
580.20,Other (W),
580.40,Other (W),
580.60,Body sniff (S),
580.80,Body sniff (S),
581.00,Body sniff (S),
581.20,Face sniff (D),
581.40,Face sniff (D),
581.60,Face sniff (D),
581.80,Face sniff (D),
582.00,Face sniff (D),
582.20,Face sniff (D),
582.40,Face sniff (D),
582.60,Face sniff (D),
582.80,Face sniff (D),
583.00,Face sniff (D),
583.20,Face sniff (D),
583.40,Face sniff (D),
583.60,Face sniff (D),
583.80,Body sniff (S),
584.00,Body sniff (S),
584.20,Body sniff (S),
584.40,Body sniff (S),
584.60,Body sniff (S),
584.80,Body sniff (S),
585.00,Body sniff (S),
585.20,Body sniff (S),
585.40,Face sniff (D),
585.60,Face sniff (D),
585.80,Face sniff (D),
586.00,Face sniff (D),
586.20,Face sniff (D),
586.40,Face sniff (D),
586.60,Face sniff (D),
586.80,Face sniff (D),
587.00,Face sniff (D),
587.20,Body sniff (S),
587.40,Body sniff (S),
587.60,Body sniff (S),
587.80,Body sniff (S),
588.00,Body sniff (S),
588.20,Body sniff (S),
588.40,Body sniff (S),
588.60,Body sniff (S),
588.80,Body sniff (S),
589.00,Body sniff (S),
589.20,Face sniff (D),
589.40,Face sniff (D),
589.60,Body sniff (S),
589.80,Body sniff (S),
590.00,Body sniff (S),
590.20,Body sniff (S),
590.40,Body sniff (S),
590.60,Face sniff (D),
590.80,Face sniff (D),
591.00,Face sniff (D),
591.20,Face sniff (D),
591.40,Face sniff (D),
591.60,Face sniff (D),
591.80,Face sniff (D),
592.00,Face sniff (D),
592.20,Face sniff (D),
592.40,Body sniff (S),
592.60,Body sniff (S),
592.80,Body sniff (S),
593.00,Body sniff (S),
593.20,Body sniff (S),
593.40,Body sniff (S),
593.60,Body sniff (S),
593.80,Face sniff (D),
594.00,Face sniff (D),
594.20,Face sniff (D),
594.40,Face sniff (D),
594.60,Face sniff (D),
594.80,Face sniff (D),
595.00,Face sniff (D),
595.20,Face sniff (D),
595.40,Body sniff (S),
595.60,Body sniff (S),
595.80,Body sniff (S),
596.00,Body sniff (S),
596.20,Body sniff (S),
596.40,Body sniff (S),
596.60,Body sniff (S),
596.80,Body sniff (S),
597.00,Body sniff (S),
597.20,Body sniff (S),
597.40,Body sniff (S),
597.60,Body sniff (S),
597.80,Body sniff (S),
598.00,Face sniff (D),
598.20,Face sniff (D),
598.40,Face sniff (D),
598.60,Body sniff (S),
598.80,Body sniff (S),
599.00,Body sniff (S),
599.20,Body sniff (S),
599.40,Body sniff (S),
599.60,Body sniff (S),
599.80,Body sniff (S),
600.00,Body sniff (S),
600.20,Body sniff (S),
600.40,Body sniff (S),
600.60,Other (W),
600.80,Other (W),
601.00,AG sniff (A),
601.20,AG sniff (A),
601.40,AG sniff (A),
601.60,AG sniff (A),
601.80,Walk away,
602.00,Walk away,
602.20,Walk away,
602.40,Body sniff (S),
602.60,Body sniff (S),
602.80,Body sniff (S),
603.00,Body sniff (S),
603.20,Body sniff (S),
603.40,Face sniff (D),
603.60,Face sniff (D),
603.80,Face sniff (D),
604.00,Face sniff (D),
604.20,Face sniff (D),
604.40,Face sniff (D),
604.60,Face sniff (D),
604.80,Face sniff (D),
605.00,Face sniff (D),
605.20,Face sniff (D),
605.40,Face sniff (D),
605.60,Face sniff (D),
605.80,Face sniff (D),
606.00,Body sniff (S),
606.20,Body sniff (S),
606.40,Body sniff (S),
606.60,Body sniff (S),
606.80,Body sniff (S),
607.00,Body sniff (S),
607.20,Body sniff (S),
607.40,Face sniff (D),
607.60,Face sniff (D),
607.80,Face sniff (D),
608.00,Face sniff (D),
608.20,Body sniff (S),
608.40,Body sniff (S),
608.60,Walk away,
608.80,Walk away,
609.00,Walk away,
609.20,Walk away,
609.40,Walk away,
609.60,Walk away,
609.80,Other (W),
610.00,Other (W),
610.20,Other (W),
610.40,Other (W),
610.60,Other (W),
610.80,Other (W),
611.00,Other (W),
611.20,Other (W),
611.40,Other (W),
611.60,Face sniff (D),
611.80,Face sniff (D),
612.00,Face sniff (D),
612.20,Face sniff (D),
612.40,Face sniff (D),
612.60,Body sniff (S),
612.80,Body sniff (S),
613.00,AG sniff (A),
613.20,AG sniff (A),
613.40,AG sniff (A),
613.60,AG sniff (A),
613.80,Walk away,
614.00,Walk away,
614.20,Walk away,
614.40,Walk away,
614.60,Other (W),
614.80,Other (W),
615.00,Other (W),
615.20,Other (W),
615.40,Other (W),
615.60,Body sniff (S),
615.80,Body sniff (S),
616.00,Other (W),
616.20,Walk away,
616.40,Walk away,
616.60,Walk away,
616.80,Walk away,
617.00,Walk away,
617.20,Other (W),
617.40,Other (W),
617.60,Other (W),
617.80,Other (W),
618.00,Other (W),
618.20,Other (W),
618.40,Other (W),
618.60,Other (W),
618.80,Other (W),
619.00,Other (W),
619.20,Other (W),
619.40,Other (W),
619.60,Other (W),
619.80,Other (W),
620.00,Rearing,
620.20,Rearing,
620.40,Rearing,
620.60,Rearing,
620.80,Rearing,
621.00,Rearing,
621.20,Rearing,
621.40,Rearing,
621.60,Rearing,
621.80,Rearing,
622.00,Rearing,
622.20,Rearing,
622.40,Rearing,
622.60,Rearing,
622.80,Other (W),
623.00,Other (W),
623.20,Other (W),
623.40,Rearing,
623.60,Rearing,
623.80,Rearing,
624.00,Rearing,
624.20,Rearing,
624.40,Rearing,
624.60,Rearing,
624.80,Rearing,
625.00,Rearing,
625.20,Rearing,
625.40,Rearing,
625.60,Rearing,
625.80,Rearing,
626.00,Rearing,
626.20,Rearing,
626.40,Other (W),
626.60,Other (W),
626.80,Other (W),
627.00,Other (W),
627.20,Other (W),
627.40,Other (W),
627.60,AG sniff (A),
627.80,Walk away,
628.00,Walk away,
628.20,Other (W),
628.40,Other (W),
628.60,Other (W),
628.80,Other (W),
629.00,Other (W),
629.20,Other (W),
629.40,Other (W),
629.60,Rearing,
629.80,Rearing,
630.00,Rearing,