Time,Behaviors,Start
0.00,,
0.20,,
0.40,,
0.60,,
0.80,,
1.00,,
1.20,,
1.40,,
1.60,,
1.80,,
2.00,,
2.20,,
2.40,,
2.60,,
2.80,,
3.00,,
3.20,,
3.40,,
3.60,,
3.80,,
4.00,,
4.20,,
4.40,,
4.60,,
4.80,,
5.00,,
5.20,,
5.40,,
5.60,,
5.80,,
6.00,,
6.20,Rearing,Juvenile in
6.40,Other (W),
6.60,Other (W),
6.80,Other (W),
7.00,Other (W),
7.20,Other (W),
7.40,Other (W),
7.60,Other (W),
7.80,Other (W),
8.00,Other (W),
8.20,Other (W),
8.40,Other (W),
8.60,Other (W),
8.80,Other (W),
9.00,Other (W),
9.20,Other (W),
9.40,Other (W),
9.60,Other (W),
9.80,Other (W),
10.00,Other (W),
10.20,Other (W),
10.40,Rearing,
10.60,Rearing,
10.80,Rearing,
11.00,Rearing,
11.20,Rearing,
11.40,Rearing,
11.60,Rearing,
11.80,Other (W),
12.00,Other (W),
12.20,Other (W),
12.40,Other (W),
12.60,Other (W),
12.80,Other (W),
13.00,Other (W),
13.20,Rearing,
13.40,Rearing,
13.60,Rearing,
13.80,Rearing,
14.00,Rearing,
14.20,Other (W),
14.40,Other (W),
14.60,Other (W),
14.80,Other (W),
15.00,Other (W),
15.20,Other (W),
15.40,Other (W),
15.60,Other (W),
15.80,Other (W),
16.00,Body sniff (S),
16.20,Body sniff (S),
16.40,Body sniff (S),
16.60,Body sniff (S),
16.80,Body sniff (S),
17.00,Body sniff (S),
17.20,Body sniff (S),
17.40,Body sniff (S),
17.60,Body sniff (S),
17.80,Body sniff (S),
18.00,Follow (Q),
18.20,Follow (Q),
18.40,Follow (Q),
18.60,Follow (Q),
18.80,Body sniff (S),
19.00,Body sniff (S),
19.20,Follow (Q),
19.40,Follow (Q),
19.60,Follow (Q),
19.80,Follow (Q),
20.00,Follow (Q),
20.20,Follow (Q),
20.40,Follow (Q),
20.60,Body sniff (S),
20.80,Body sniff (S),
21.00,Body sniff (S),
21.20,Follow (Q),
21.40,Follow (Q),
21.60,Follow (Q),
21.80,Follow (Q),
22.00,Body sniff (S),
22.20,Body sniff (S),
22.40,Body sniff (S),
22.60,Body sniff (S),
22.80,Body sniff (S),
23.00,Body sniff (S),
23.20,Body sniff (S),
23.40,Follow (Q),
23.60,Follow (Q),
23.80,Follow (Q),
24.00,Follow (Q),
24.20,Follow (Q),
24.40,Follow (Q),
24.60,Body sniff (S),
24.80,Body sniff (S),
25.00,Body sniff (S),
25.20,Body sniff (S),
25.40,Body sniff (S),
25.60,Body sniff (S),
25.80,Body sniff (S),
26.00,Body sniff (S),
26.20,Body sniff (S),
26.40,Body sniff (S),
26.60,AG sniff (A),
26.80,AG sniff (A),
27.00,AG sniff (A),
27.20,AG sniff (A),
27.40,AG sniff (A),
27.60,Follow (Q),
27.80,Follow (Q),
28.00,Follow (Q),
28.20,Body sniff (S),
28.40,Body sniff (S),
28.60,Body sniff (S),
28.80,Body sniff (S),
29.00,Body sniff (S),
29.20,Body sniff (S),
29.40,Body sniff (S),
29.60,Body sniff (S),
29.80,Body sniff (S),
30.00,Body sniff (S),
30.20,Body sniff (S),
30.40,Other (W),
30.60,Other (W),
30.80,Other (W),
31.00,Other (W),
31.20,Body sniff (S),
31.40,Body sniff (S),
31.60,Body sniff (S),
31.80,Body sniff (S),
32.00,Body sniff (S),
32.20,Body sniff (S),
32.40,Body sniff (S),
32.60,Body sniff (S),
32.80,Body sniff (S),
33.00,Body sniff (S),
33.20,Body sniff (S),
33.40,Body sniff (S),
33.60,Body sniff (S),
33.80,Body sniff (S),
34.00,Body sniff (S),
34.20,Body sniff (S),
34.40,Body sniff (S),
34.60,Body sniff (S),
34.80,Body sniff (S),
35.00,Body sniff (S),
35.20,Body sniff (S),
35.40,Body sniff (S),
35.60,Body sniff (S),
35.80,Body sniff (S),
36.00,Body sniff (S),
36.20,Body sniff (S),
36.40,Body sniff (S),
36.60,Body sniff (S),
36.80,Body sniff (S),
37.00,Body sniff (S),
37.20,Other (W),
37.40,Other (W),
37.60,Other (W),
37.80,Other (W),
38.00,Other (W),
38.20,Other (W),
38.40,Other (W),
38.60,Other (W),
38.80,Other (W),
39.00,Other (W),
39.20,Other (W),
39.40,Other (W),
39.60,Other (W),
39.80,Other (W),
40.00,Other (W),
40.20,Body sniff (S),
40.40,Body sniff (S),
40.60,Body sniff (S),
40.80,Face sniff (D),
41.00,Face sniff (D),
41.20,Face sniff (D),
41.40,Body sniff (S),
41.60,Body sniff (S),
41.80,Body sniff (S),
42.00,Body sniff (S),
42.20,Body sniff (S),
42.40,Body sniff (S),
42.60,Body sniff (S),
42.80,Body sniff (S),
43.00,AG sniff (A),
43.20,AG sniff (A),
43.40,AG sniff (A),
43.60,Body sniff (S),
43.80,Body sniff (S),
44.00,AG sniff (A),
44.20,AG sniff (A),
44.40,AG sniff (A),
44.60,AG sniff (A),
44.80,AG sniff (A),
45.00,Walk away,
45.20,Walk away,
45.40,Walk away,
45.60,Other (W),
45.80,Other (W),
46.00,Other (W),
46.20,Other (W),
46.40,Other (W),
46.60,Other (W),
46.80,Face sniff (D),
47.00,Face sniff (D),
47.20,Face sniff (D),
47.40,Face sniff (D),
47.60,Face sniff (D),
47.80,Face sniff (D),
48.00,Face sniff (D),
48.20,Face sniff (D),
48.40,Face sniff (D),
48.60,Face sniff (D),
48.80,Face sniff (D),
49.00,Body sniff (S),
49.20,Body sniff (S),
49.40,Follow (Q),
49.60,Follow (Q),
49.80,Follow (Q),
50.00,Body sniff (S),
50.20,Body sniff (S),
50.40,Body sniff (S),
50.60,Body sniff (S),
50.80,Body sniff (S),
51.00,Body sniff (S),
51.20,Body sniff (S),
51.40,Body sniff (S),
51.60,Body sniff (S),
51.80,Walk away,
52.00,Walk away,
52.20,Other (W),
52.40,Other (W),
52.60,Other (W),
52.80,Other (W),
53.00,Other (W),
53.20,Other (W),
53.40,Other (W),
53.60,Other (W),
53.80,Other (W),
54.00,Other (W),
54.20,Rearing,
54.40,Rearing,
54.60,Rearing,
54.80,Rearing,
55.00,Rearing,
55.20,Rearing,
55.40,Rearing,
55.60,Other (W),
55.80,Other (W),
56.00,Face sniff (D),
56.20,Face sniff (D),
56.40,Face sniff (D),
56.60,Body sniff (S),
56.80,Body sniff (S),
57.00,AG sniff (A),
57.20,AG sniff (A),
57.40,AG sniff (A),
57.60,AG sniff (A),
57.80,AG sniff (A),
58.00,AG sniff (A),
58.20,Body sniff (S),
58.40,Body sniff (S),
58.60,Body sniff (S),
58.80,AG sniff (A),
59.00,AG sniff (A),
59.20,Walk away,
59.40,Walk away,
59.60,Other (W),
59.80,Other (W),
60.00,Other (W),
60.20,Other (W),
60.40,Other (W),
60.60,Other (W),
60.80,Other (W),
61.00,Other (W),
61.20,Other (W),
61.40,Other (W),
61.60,Other (W),
61.80,Body sniff (S),
62.00,Body sniff (S),
62.20,Body sniff (S),
62.40,Body sniff (S),
62.60,Body sniff (S),
62.80,Body sniff (S),
63.00,Body sniff (S),
63.20,Body sniff (S),
63.40,Body sniff (S),
63.60,Body sniff (S),
63.80,Body sniff (S),
64.00,Body sniff (S),
64.20,Body sniff (S),
64.40,Body sniff (S),
64.60,Body sniff (S),
64.80,Body sniff (S),
65.00,Body sniff (S),
65.20,Body sniff (S),
65.40,Body sniff (S),
65.60,Body sniff (S),
65.80,Body sniff (S),
66.00,Body sniff (S),
66.20,Body sniff (S),
66.40,Body sniff (S),
66.60,Body sniff (S),
66.80,Body sniff (S),
67.00,Body sniff (S),
67.20,Body sniff (S),
67.40,Body sniff (S),
67.60,Body sniff (S),
67.80,Body sniff (S),
68.00,Body sniff (S),
68.20,Body sniff (S),
68.40,Body sniff (S),
68.60,Body sniff (S),
68.80,Body sniff (S),
69.00,Body sniff (S),
69.20,Body sniff (S),
69.40,Body sniff (S),
69.60,Body sniff (S),
69.80,Body sniff (S),
70.00,Body sniff (S),
70.20,Body sniff (S),
70.40,Body sniff (S),
70.60,Body sniff (S),
70.80,Body sniff (S),
71.00,Body sniff (S),
71.20,Body sniff (S),
71.40,Body sniff (S),
71.60,Body sniff (S),
71.80,Body sniff (S),
72.00,Body sniff (S),
72.20,Body sniff (S),
72.40,Body sniff (S),
72.60,Other (W),
72.80,Other (W),
73.00,Other (W),
73.20,Other (W),
73.40,Body sniff (S),
73.60,Body sniff (S),
73.80,Body sniff (S),
74.00,Face sniff (D),
74.20,Other (W),
74.40,Other (W),
74.60,Other (W),
74.80,Other (W),
75.00,Rearing,
75.20,Rearing,
75.40,Rearing,
75.60,Other (W),
75.80,Other (W),
76.00,Body sniff (S),
76.20,Body sniff (S),
76.40,Walk away,
76.60,Walk away,
76.80,Walk away,
77.00,Other (W),
77.20,Other (W),
77.40,Other (W),
77.60,Other (W),
77.80,Rearing,
78.00,Rearing,
78.20,Rearing,
78.40,Rearing,
78.60,Rearing,
78.80,Other (W),
79.00,Other (W),
79.20,Other (W),
79.40,Other (W),
79.60,Face sniff (D),
79.80,Face sniff (D),
80.00,Face sniff (D),
80.20,Face sniff (D),
80.40,Face sniff (D),
80.60,Face sniff (D),
80.80,Body sniff (S),
81.00,Body sniff (S),
81.20,Body sniff (S),
81.40,Body sniff (S),
81.60,Body sniff (S),
81.80,Other (W),
82.00,Other (W),
82.20,Other (W),
82.40,Other (W),
82.60,Body sniff (S),
82.80,Body sniff (S),
83.00,Body sniff (S),
83.20,Body sniff (S),
83.40,Body sniff (S),
83.60,Body sniff (S),
83.80,AG sniff (A),
84.00,AG sniff (A),
84.20,AG sniff (A),
84.40,Body sniff (S),
84.60,Body sniff (S),
84.80,Body sniff (S),
85.00,Body sniff (S),
85.20,Body sniff (S),
85.40,Body sniff (S),
85.60,Body sniff (S),
85.80,Follow (Q),
86.00,Follow (Q),
86.20,Follow (Q),
86.40,Body sniff (S),
86.60,Body sniff (S),
86.80,Body sniff (S),
87.00,Body sniff (S),
87.20,Body sniff (S),
87.40,Body sniff (S),
87.60,AG sniff (A),
87.80,AG sniff (A),
88.00,AG sniff (A),
88.20,Walk away,
88.40,Walk away,
88.60,Body sniff (S),
88.80,Body sniff (S),
89.00,Body sniff (S),
89.20,Body sniff (S),
89.40,Body sniff (S),
89.60,Body sniff (S),
89.80,Follow (Q),
90.00,Follow (Q),
90.20,Follow (Q),
90.40,Follow (Q),
90.60,Follow (Q),
90.80,Follow (Q),
91.00,Walk away,
91.20,Walk away,
91.40,Walk away,
91.60,Walk away,
91.80,Other (W),
92.00,Other (W),
92.20,Rearing,
92.40,Rearing,
92.60,Rearing,
92.80,Other (W),
93.00,Other (W),
93.20,Other (W),
93.40,Rearing,
93.60,Rearing,
93.80,Rearing,
94.00,Body sniff (S),
94.20,Body sniff (S),
94.40,Body sniff (S),
94.60,AG sniff (A),
94.80,AG sniff (A),
95.00,AG sniff (A),
95.20,AG sniff (A),
95.40,AG sniff (A),
95.60,AG sniff (A),
95.80,Body sniff (S),
96.00,Body sniff (S),
96.20,AG sniff (A),
96.40,AG sniff (A),
96.60,AG sniff (A),
96.80,AG sniff (A),
97.00,AG sniff (A),
97.20,AG sniff (A),
97.40,AG sniff (A),
97.60,Other (W),
97.80,Other (W),
98.00,Other (W),
98.20,Other (W),
98.40,Other (W),
98.60,Rearing,
98.80,Rearing,
99.00,Rearing,
99.20,Rearing,
99.40,Rearing,
99.60,Rearing,
99.80,Other (W),
100.00,Other (W),
100.20,Other (W),
100.40,Other (W),
100.60,Other (W),
100.80,Other (W),
101.00,Body sniff (S),
101.20,Body sniff (S),
101.40,Body sniff (S),
101.60,Body sniff (S),
101.80,Body sniff (S),
102.00,Walk away,
102.20,Walk away,
102.40,Walk away,
102.60,Rearing,
102.80,Rearing,
103.00,Rearing,
103.20,Other (W),
103.40,Other (W),
103.60,Other (W),
103.80,Other (W),
104.00,Other (W),
104.20,Body sniff (S),
104.40,Body sniff (S),
104.60,Body sniff (S),
104.80,Body sniff (S),
105.00,Body sniff (S),
105.20,Face sniff (D),
105.40,Face sniff (D),
105.60,Face sniff (D),
105.80,Body sniff (S),
106.00,Body sniff (S),
106.20,AG sniff (A),
106.40,AG sniff (A),
106.60,AG sniff (A),
106.80,Body sniff (S),
107.00,Body sniff (S),
107.20,Body sniff (S),
107.40,Body sniff (S),
107.60,Body sniff (S),
107.80,Body sniff (S),
108.00,Body sniff (S),
108.20,Body sniff (S),
108.40,Body sniff (S),
108.60,Body sniff (S),
108.80,Body sniff (S),
109.00,Body sniff (S),
109.20,Body sniff (S),
109.40,Body sniff (S),
109.60,Body sniff (S),
109.80,Body sniff (S),
110.00,Body sniff (S),
110.20,Body sniff (S),
110.40,Body sniff (S),
110.60,Body sniff (S),
110.80,Body sniff (S),
111.00,Body sniff (S),
111.20,Body sniff (S),
111.40,Body sniff (S),
111.60,Body sniff (S),
111.80,Body sniff (S),
112.00,Body sniff (S),
112.20,Body sniff (S),
112.40,Body sniff (S),
112.60,Body sniff (S),
112.80,Body sniff (S),
113.00,Body sniff (S),
113.20,Body sniff (S),
113.40,Body sniff (S),
113.60,Body sniff (S),
113.80,Body sniff (S),
114.00,Body sniff (S),
114.20,Body sniff (S),
114.40,Body sniff (S),
114.60,Walk away,
114.80,Walk away,
115.00,Walk away,
115.20,Walk away,
115.40,Other (W),
115.60,Other (W),
115.80,Rearing,
116.00,Rearing,
116.20,Rearing,
116.40,Rearing,
116.60,Other (W),
116.80,Other (W),
117.00,Other (W),
117.20,Other (W),
117.40,Other (W),
117.60,Other (W),
117.80,Other (W),
118.00,Other (W),
118.20,Other (W),
118.40,Other (W),
118.60,Other (W),
118.80,Other (W),
119.00,Other (W),
119.20,Rearing,
119.40,Rearing,
119.60,Rearing,
119.80,Other (W),
120.00,Other (W),
120.20,Other (W),
120.40,Other (W),
120.60,Other (W),
120.80,Other (W),
121.00,Other (W),
121.20,Other (W),
121.40,Rearing,
121.60,Rearing,
121.80,Other (W),
122.00,Other (W),
122.20,Other (W),
122.40,Other (W),
122.60,Other (W),
122.80,Other (W),
123.00,Other (W),
123.20,Other (W),
123.40,Other (W),
123.60,Other (W),
123.80,Other (W),
124.00,Other (W),
124.20,Other (W),
124.40,Other (W),
124.60,Other (W),
124.80,Other (W),
125.00,Other (W),
125.20,Other (W),
125.40,Other (W),
125.60,Other (W),
125.80,Other (W),
126.00,Other (W),
126.20,Other (W),
126.40,Other (W),
126.60,Other (W),
126.80,Other (W),
127.00,Other (W),
127.20,Other (W),
127.40,Other (W),
127.60,Other (W),
127.80,Rearing,
128.00,Rearing,
128.20,Rearing,
128.40,Rearing,
128.60,Rearing,
128.80,Rearing,
129.00,Other (W),
129.20,Other (W),
129.40,Body sniff (S),
129.60,Face sniff (D),
129.80,Face sniff (D),
130.00,Face sniff (D),
130.20,Face sniff (D),
130.40,Face sniff (D),
130.60,Face sniff (D),
130.80,Face sniff (D),
131.00,Body sniff (S),
131.20,Body sniff (S),
131.40,Body sniff (S),
131.60,Body sniff (S),
131.80,Face sniff (D),
132.00,Face sniff (D),
132.20,Face sniff (D),
132.40,Face sniff (D),
132.60,Body sniff (S),
132.80,Body sniff (S),
133.00,AG sniff (A),
133.20,AG sniff (A),
133.40,AG sniff (A),
133.60,AG sniff (A),
133.80,AG sniff (A),
134.00,AG sniff (A),
134.20,AG sniff (A),
134.40,AG sniff (A),
134.60,AG sniff (A),
134.80,AG sniff (A),
135.00,Body sniff (S),
135.20,Body sniff (S),
135.40,Face sniff (D),
135.60,Face sniff (D),
135.80,Face sniff (D),
136.00,Face sniff (D),
136.20,Body sniff (S),
136.40,Body sniff (S),
136.60,Body sniff (S),
136.80,Body sniff (S),
137.00,Walk away,
137.20,Walk away,
137.40,Walk away,
137.60,Walk away,
137.80,Other (W),
138.00,Other (W),
138.20,Other (W),
138.40,Other (W),
138.60,Other (W),
138.80,Other (W),
139.00,Other (W),
139.20,Body sniff (S),
139.40,Body sniff (S),
139.60,Body sniff (S),
139.80,Body sniff (S),
140.00,Body sniff (S),
140.20,Body sniff (S),
140.40,Other (W),
140.60,Other (W),
140.80,Other (W),
141.00,Other (W),
141.20,Rearing,
141.40,Rearing,
141.60,Rearing,
141.80,Rearing,
142.00,Rearing,
142.20,Rearing,
142.40,Other (W),
142.60,Body sniff (S),
142.80,Body sniff (S),
143.00,Body sniff (S),
143.20,Walk away,
143.40,Walk away,
143.60,Walk away,
143.80,Walk away,
144.00,Walk away,
144.20,Walk away,
144.40,Other (W),
144.60,Other (W),
144.80,Rearing,
145.00,Rearing,
145.20,Other (W),
145.40,Other (W),
145.60,Other (W),
145.80,Other (W),
146.00,Other (W),
146.20,Other (W),
146.40,Other (W),
146.60,Rearing,
146.80,Rearing,
147.00,Rearing,
147.20,Other (W),
147.40,Other (W),
147.60,Other (W),
147.80,Other (W),
148.00,Rearing,
148.20,Rearing,
148.40,Rearing,
148.60,Rearing,
148.80,Other (W),
149.00,Other (W),
149.20,Other (W),
149.40,Other (W),
149.60,Other (W),
149.80,Other (W),
150.00,Other (W),
150.20,Other (W),
150.40,Other (W),
150.60,Other (W),
150.80,Other (W),
151.00,Rearing,
151.20,Rearing,
151.40,Rearing,
151.60,Rearing,
151.80,Rearing,
152.00,Other (W),
152.20,Other (W),
152.40,Other (W),
152.60,Other (W),
152.80,Other (W),
153.00,Other (W),
153.20,Other (W),
153.40,Other (W),
153.60,Other (W),
153.80,Other (W),
154.00,Other (W),
154.20,Other (W),
154.40,Body sniff (S),
154.60,Body sniff (S),
154.80,Body sniff (S),
155.00,Body sniff (S),
155.20,Walk away,
155.40,Walk away,
155.60,Rearing,
155.80,Rearing,
156.00,Rearing,
156.20,Other (W),
156.40,Other (W),
156.60,Other (W),
156.80,Other (W),
157.00,Other (W),
157.20,Other (W),
157.40,Other (W),
157.60,Other (W),
157.80,Other (W),
158.00,Rearing,
158.20,Rearing,
158.40,Rearing,
158.60,Rearing,
158.80,Other (W),
159.00,Other (W),
159.20,Other (W),
159.40,Other (W),
159.60,Other (W),
159.80,Other (W),
160.00,Other (W),
160.20,Other (W),
160.40,Other (W),
160.60,Other (W),
160.80,Other (W),
161.00,Rearing,
161.20,Rearing,
161.40,Rearing,
161.60,Other (W),
161.80,Other (W),
162.00,Other (W),
162.20,Other (W),
162.40,Other (W),
162.60,Other (W),
162.80,Other (W),
163.00,Other (W),
163.20,Other (W),
163.40,Other (W),
163.60,Other (W),
163.80,Rearing,
164.00,Rearing,
164.20,Rearing,
164.40,Rearing,
164.60,Rearing,
164.80,Other (W),
165.00,Other (W),
165.20,Other (W),
165.40,Body sniff (S),
165.60,Face sniff (D),
165.80,Face sniff (D),
166.00,Face sniff (D),
166.20,Face sniff (D),
166.40,AG sniff (A),
166.60,AG sniff (A),
166.80,AG sniff (A),
167.00,Walk away,
167.20,Walk away,
167.40,Walk away,
167.60,Walk away,
167.80,Walk away,
168.00,Walk away,
168.20,Walk away,
168.40,Other (W),
168.60,Other (W),
168.80,Other (W),
169.00,Other (W),
169.20,Other (W),
169.40,Other (W),
169.60,Other (W),
169.80,Other (W),
170.00,Other (W),
170.20,Other (W),
170.40,Other (W),
170.60,Other (W),
170.80,Other (W),
171.00,Face sniff (D),
171.20,Face sniff (D),
171.40,Body sniff (S),
171.60,Body sniff (S),
171.80,Body sniff (S),
172.00,AG sniff (A),
172.20,AG sniff (A),
172.40,AG sniff (A),
172.60,AG sniff (A),
172.80,AG sniff (A),
173.00,AG sniff (A),
173.20,AG sniff (A),
173.40,AG sniff (A),
173.60,AG sniff (A),
173.80,AG sniff (A),
174.00,AG sniff (A),
174.20,Body sniff (S),
174.40,Body sniff (S),
174.60,Body sniff (S),
174.80,Body sniff (S),
175.00,Body sniff (S),
175.20,Body sniff (S),
175.40,Body sniff (S),
175.60,Body sniff (S),
175.80,Body sniff (S),
176.00,Body sniff (S),
176.20,Body sniff (S),
176.40,Body sniff (S),
176.60,Body sniff (S),
176.80,Body sniff (S),
177.00,Body sniff (S),
177.20,Body sniff (S),
177.40,Body sniff (S),
177.60,Body sniff (S),
177.80,Body sniff (S),
178.00,Body sniff (S),
178.20,Body sniff (S),
178.40,Body sniff (S),
178.60,Body sniff (S),
178.80,Body sniff (S),
179.00,Body sniff (S),
179.20,Body sniff (S),
179.40,Body sniff (S),
179.60,Body sniff (S),
179.80,Body sniff (S),
180.00,Body sniff (S),
180.20,Body sniff (S),
180.40,Body sniff (S),
180.60,Body sniff (S),
180.80,Body sniff (S),
181.00,Body sniff (S),
181.20,Body sniff (S),
181.40,Body sniff (S),
181.60,Walk away,
181.80,Walk away,
182.00,Walk away,
182.20,Rearing,
182.40,Rearing,
182.60,Rearing,
182.80,Rearing,
183.00,Other (W),
183.20,Other (W),
183.40,Body sniff (S),
183.60,Body sniff (S),
183.80,AG sniff (A),
184.00,AG sniff (A),
184.20,AG sniff (A),
184.40,AG sniff (A),
184.60,Body sniff (S),
184.80,Body sniff (S),
185.00,Face sniff (D),
185.20,Face sniff (D),
185.40,Face sniff (D),
185.60,Face sniff (D),
185.80,Face sniff (D),
186.00,Face sniff (D),
186.20,Body sniff (S),
186.40,Body sniff (S),
186.60,AG sniff (A),
186.80,AG sniff (A),
187.00,AG sniff (A),
187.20,AG sniff (A),
187.40,AG sniff (A),
187.60,Body sniff (S),
187.80,Body sniff (S),
188.00,Body sniff (S),
188.20,Body sniff (S),
188.40,Body sniff (S),
188.60,Body sniff (S),
188.80,Body sniff (S),
189.00,Body sniff (S),
189.20,Body sniff (S),
189.40,Body sniff (S),
189.60,Body sniff (S),
189.80,Body sniff (S),
190.00,Body sniff (S),
190.20,Body sniff (S),
190.40,Body sniff (S),
190.60,Body sniff (S),
190.80,Body sniff (S),
191.00,Body sniff (S),
191.20,Body sniff (S),
191.40,Body sniff (S),
191.60,Body sniff (S),
191.80,Body sniff (S),
192.00,Body sniff (S),
192.20,Body sniff (S),
192.40,Body sniff (S),
192.60,Body sniff (S),
192.80,Body sniff (S),
193.00,Body sniff (S),
193.20,Body sniff (S),
193.40,Body sniff (S),
193.60,Body sniff (S),
193.80,Body sniff (S),
194.00,Body sniff (S),
194.20,Body sniff (S),
194.40,Body sniff (S),
194.60,Body sniff (S),
194.80,Body sniff (S),
195.00,Body sniff (S),
195.20,Body sniff (S),
195.40,Body sniff (S),
195.60,Body sniff (S),
195.80,Body sniff (S),
196.00,Body sniff (S),
196.20,Body sniff (S),
196.40,Body sniff (S),
196.60,Body sniff (S),
196.80,Other (W),
197.00,Other (W),
197.20,Other (W),
197.40,Other (W),
197.60,Other (W),
197.80,Other (W),
198.00,Other (W),
198.20,Other (W),
198.40,Body sniff (S),
198.60,Body sniff (S),
198.80,Body sniff (S),
199.00,Body sniff (S),
199.20,Follow (Q),
199.40,Body sniff (S),
199.60,Body sniff (S),
199.80,Body sniff (S),
200.00,Body sniff (S),
200.20,Body sniff (S),
200.40,Face sniff (D),
200.60,Walk away,
200.80,Walk away,
201.00,Other (W),
201.20,Other (W),
201.40,Other (W),
201.60,Other (W),
201.80,Other (W),
202.00,Other (W),
202.20,Other (W),
202.40,Other (W),
202.60,Rearing,
202.80,Rearing,
203.00,Rearing,
203.20,Other (W),
203.40,Other (W),
203.60,Other (W),
203.80,Other (W),
204.00,Other (W),
204.20,Other (W),
204.40,Other (W),
204.60,Other (W),
204.80,Other (W),
205.00,Rearing,
205.20,Rearing,
205.40,Rearing,
205.60,Rearing,
205.80,Rearing,
206.00,Rearing,
206.20,Other (W),
206.40,Other (W),
206.60,Other (W),
206.80,Other (W),
207.00,Other (W),
207.20,Other (W),
207.40,Other (W),
207.60,Face sniff (D),
207.80,Face sniff (D),
208.00,Face sniff (D),
208.20,Face sniff (D),
208.40,Face sniff (D),
208.60,Face sniff (D),
208.80,Face sniff (D),
209.00,Face sniff (D),
209.20,Face sniff (D),
209.40,Body sniff (S),
209.60,Body sniff (S),
209.80,Body sniff (S),
210.00,Body sniff (S),
210.20,Body sniff (S),
210.40,Body sniff (S),
210.60,Body sniff (S),
210.80,Body sniff (S),
211.00,Body sniff (S),
211.20,Body sniff (S),
211.40,Follow (Q),
211.60,Follow (Q),
211.80,Follow (Q),
212.00,Follow (Q),
212.20,Body sniff (S),
212.40,Walk away,
212.60,Walk away,
212.80,Walk away,
213.00,Other (W),
213.20,Other (W),
213.40,Other (W),
213.60,Other (W),
213.80,Other (W),
214.00,Rearing,
214.20,Rearing,
214.40,Other (W),
214.60,Other (W),
214.80,Body sniff (S),
215.00,Body sniff (S),
215.20,Body sniff (S),
215.40,Body sniff (S),
215.60,Body sniff (S),
215.80,Body sniff (S),
216.00,Body sniff (S),
216.20,Body sniff (S),
216.40,Body sniff (S),
216.60,AG sniff (A),
216.80,Body sniff (S),
217.00,Walk away,
217.20,Walk away,
217.40,Walk away,
217.60,Walk away,
217.80,Other (W),
218.00,Other (W),
218.20,Other (W),
218.40,Other (W),
218.60,Other (W),
218.80,Other (W),
219.00,Other (W),
219.20,Other (W),
219.40,Other (W),
219.60,Other (W),
219.80,Other (W),
220.00,Other (W),
220.20,Rearing,
220.40,Rearing,
220.60,Rearing,
220.80,Rearing,
221.00,Rearing,
221.20,Rearing,
221.40,Rearing,
221.60,Other (W),
221.80,Other (W),
222.00,Rearing,
222.20,Rearing,
222.40,Rearing,
222.60,Rearing,
222.80,Rearing,
223.00,Rearing,
223.20,Other (W),
223.40,Other (W),
223.60,Other (W),
223.80,Other (W),
224.00,Other (W),
224.20,Other (W),
224.40,Other (W),
224.60,Face sniff (D),
224.80,Face sniff (D),
225.00,Face sniff (D),
225.20,Face sniff (D),
225.40,Face sniff (D),
225.60,Face sniff (D),
225.80,AG sniff (A),
226.00,AG sniff (A),
226.20,AG sniff (A),
226.40,AG sniff (A),
226.60,AG sniff (A),
226.80,AG sniff (A),
227.00,AG sniff (A),
227.20,AG sniff (A),
227.40,AG sniff (A),
227.60,AG sniff (A),
227.80,AG sniff (A),
228.00,AG sniff (A),
228.20,AG sniff (A),
228.40,AG sniff (A),
228.60,AG sniff (A),
228.80,AG sniff (A),
229.00,AG sniff (A),
229.20,AG sniff (A),
229.40,Body sniff (S),
229.60,Body sniff (S),
229.80,Face sniff (D),
230.00,Face sniff (D),
230.20,Face sniff (D),
230.40,Face sniff (D),
230.60,Face sniff (D),
230.80,Face sniff (D),
231.00,Face sniff (D),
231.20,Face sniff (D),
231.40,Face sniff (D),
231.60,Face sniff (D),
231.80,Body sniff (S),
232.00,AG sniff (A),
232.20,AG sniff (A),
232.40,AG sniff (A),
232.60,AG sniff (A),
232.80,AG sniff (A),
233.00,AG sniff (A),
233.20,AG sniff (A),
233.40,AG sniff (A),
233.60,Body sniff (S),
233.80,Body sniff (S),
234.00,Body sniff (S),
234.20,Body sniff (S),
234.40,Body sniff (S),
234.60,Body sniff (S),
234.80,Other (W),
235.00,Other (W),
235.20,Other (W),
235.40,Other (W),
235.60,Other (W),
235.80,Other (W),
236.00,Other (W),
236.20,Other (W),
236.40,Other (W),
236.60,Other (W),
236.80,Other (W),
237.00,Other (W),
237.20,Other (W),
237.40,Other (W),
237.60,Body sniff (S),
237.80,Body sniff (S),
238.00,Body sniff (S),
238.20,Body sniff (S),
238.40,Body sniff (S),
238.60,Body sniff (S),
238.80,Body sniff (S),
239.00,Body sniff (S),
239.20,Walk away,
239.40,Walk away,
239.60,Walk away,
239.80,Other (W),
240.00,Other (W),
240.20,Other (W),
240.40,Other (W),
240.60,Other (W),
240.80,Other (W),
241.00,Other (W),
241.20,Other (W),
241.40,Face sniff (D),
241.60,Face sniff (D),
241.80,Face sniff (D),
242.00,Body sniff (S),
242.20,Body sniff (S),
242.40,Body sniff (S),
242.60,Body sniff (S),
242.80,Body sniff (S),
243.00,Body sniff (S),
243.20,Body sniff (S),
243.40,Body sniff (S),
243.60,Body sniff (S),
243.80,Body sniff (S),
244.00,Body sniff (S),
244.20,Body sniff (S),
244.40,Body sniff (S),
244.60,Body sniff (S),
244.80,Body sniff (S),
245.00,Body sniff (S),
245.20,Body sniff (S),
245.40,Body sniff (S),
245.60,Other (W),
245.80,Other (W),
246.00,Other (W),
246.20,AG sniff (A),
246.40,AG sniff (A),
246.60,AG sniff (A),
246.80,AG sniff (A),
247.00,Body sniff (S),
247.20,Body sniff (S),
247.40,Body sniff (S),
247.60,Body sniff (S),
247.80,Body sniff (S),
248.00,AG sniff (A),
248.20,AG sniff (A),
248.40,AG sniff (A),
248.60,AG sniff (A),
248.80,AG sniff (A),
249.00,AG sniff (A),
249.20,AG sniff (A),
249.40,AG sniff (A),
249.60,AG sniff (A),
249.80,Body sniff (S),
250.00,Body sniff (S),
250.20,Body sniff (S),
250.40,Body sniff (S),
250.60,Body sniff (S),
250.80,Face sniff (D),
251.00,Face sniff (D),
251.20,Face sniff (D),
251.40,Face sniff (D),
251.60,Body sniff (S),
251.80,Body sniff (S),
252.00,Body sniff (S),
252.20,Body sniff (S),
252.40,Body sniff (S),
252.60,Body sniff (S),
252.80,Body sniff (S),
253.00,Body sniff (S),
253.20,Other (W),
253.40,Other (W),
253.60,Other (W),
253.80,Other (W),
254.00,Other (W),
254.20,Other (W),
254.40,Body sniff (S),
254.60,Body sniff (S),
254.80,Walk away,
255.00,Walk away,
255.20,Walk away,
255.40,Walk away,
255.60,Walk away,
255.80,Walk away,
256.00,Walk away,
256.20,Walk away,
256.40,Walk away,
256.60,Walk away,
256.80,Rearing,
257.00,Rearing,
257.20,Rearing,
257.40,Rearing,
257.60,Rearing,
257.80,Other (W),
258.00,Other (W),
258.20,Other (W),
258.40,Other (W),
258.60,Other (W),
258.80,Other (W),
259.00,Other (W),
259.20,Body sniff (S),
259.40,Body sniff (S),
259.60,Body sniff (S),
259.80,Body sniff (S),
260.00,Body sniff (S),
260.20,Body sniff (S),
260.40,Body sniff (S),
260.60,Body sniff (S),
260.80,Body sniff (S),
261.00,Body sniff (S),
261.20,Body sniff (S),
261.40,AG sniff (A),
261.60,AG sniff (A),
261.80,AG sniff (A),
262.00,Body sniff (S),
262.20,Body sniff (S),
262.40,Body sniff (S),
262.60,Body sniff (S),
262.80,Body sniff (S),
263.00,Other (W),
263.20,Other (W),
263.40,Other (W),
263.60,Rearing,
263.80,Rearing,
264.00,Rearing,
264.20,Rearing,
264.40,Rearing,
264.60,Rearing,
264.80,Rearing,
265.00,Rearing,
265.20,Rearing,
265.40,Rearing,
265.60,Rearing,
265.80,Rearing,
266.00,Rearing,
266.20,Rearing,
266.40,Rearing,
266.60,Rearing,
266.80,Rearing,
267.00,Other (W),
267.20,Other (W),
267.40,Other (W),
267.60,Other (W),
267.80,Other (W),
268.00,Other (W),
268.20,Other (W),
268.40,Other (W),
268.60,Other (W),
268.80,Rearing,
269.00,Rearing,
269.20,Rearing,
269.40,Rearing,
269.60,Rearing,
269.80,Rearing,
270.00,Rearing,
270.20,Rearing,
270.40,Rearing,
270.60,Rearing,
270.80,Rearing,
271.00,Rearing,
271.20,Rearing,
271.40,Other (W),
271.60,Other (W),
271.80,Other (W),
272.00,Other (W),
272.20,Rearing,
272.40,Rearing,
272.60,Rearing,
272.80,Rearing,
273.00,Rearing,
273.20,Rearing,
273.40,Rearing,
273.60,Rearing,
273.80,Rearing,
274.00,Rearing,
274.20,Rearing,
274.40,Body sniff (S),
274.60,Body sniff (S),
274.80,Body sniff (S),
275.00,Body sniff (S),
275.20,Body sniff (S),
275.40,Body sniff (S),
275.60,Face sniff (D),
275.80,Face sniff (D),
276.00,Face sniff (D),
276.20,Face sniff (D),
276.40,Face sniff (D),
276.60,Face sniff (D),
276.80,Face sniff (D),
277.00,Face sniff (D),
277.20,Face sniff (D),
277.40,Walk away,
277.60,Walk away,
277.80,Walk away,
278.00,Walk away,
278.20,Walk away,
278.40,Other (W),
278.60,Other (W),
278.80,Other (W),
279.00,Other (W),
279.20,Other (W),
279.40,Other (W),
279.60,Other (W),
279.80,Other (W),
280.00,Other (W),
280.20,Other (W),
280.40,Other (W),
280.60,Other (W),
280.80,Other (W),
281.00,Other (W),
281.20,Body sniff (S),
281.40,Body sniff (S),
281.60,Body sniff (S),
281.80,Body sniff (S),
282.00,Other (W),
282.20,Other (W),
282.40,Other (W),
282.60,Body sniff (S),
282.80,Body sniff (S),
283.00,Body sniff (S),
283.20,Face sniff (D),
283.40,Face sniff (D),
283.60,Body sniff (S),
283.80,Body sniff (S),
284.00,Body sniff (S),
284.20,Body sniff (S),
284.40,Body sniff (S),
284.60,Other (W),
284.80,Other (W),
285.00,Body sniff (S),
285.20,Body sniff (S),
285.40,Body sniff (S),
285.60,Body sniff (S),
285.80,Body sniff (S),
286.00,Walk away,
286.20,Walk away,
286.40,Walk away,
286.60,Walk away,
286.80,Walk away,
287.00,Other (W),
287.20,Other (W),
287.40,Rearing,
287.60,Rearing,
287.80,Rearing,
288.00,Other (W),
288.20,Other (W),
288.40,Other (W),
288.60,Other (W),
288.80,Other (W),
289.00,Rearing,
289.20,Rearing,
289.40,Rearing,
289.60,Rearing,
289.80,Rearing,
290.00,Rearing,
290.20,Rearing,
290.40,Rearing,
290.60,Rearing,
290.80,Other (W),
291.00,Other (W),
291.20,Face sniff (D),
291.40,Face sniff (D),
291.60,Face sniff (D),
291.80,Face sniff (D),
292.00,Face sniff (D),
292.20,Body sniff (S),
292.40,Body sniff (S),
292.60,Body sniff (S),
292.80,Body sniff (S),
293.00,Body sniff (S),
293.20,Face sniff (D),
293.40,Face sniff (D),
293.60,Face sniff (D),
293.80,Face sniff (D),
294.00,Face sniff (D),
294.20,Face sniff (D),
294.40,Face sniff (D),
294.60,Face sniff (D),
294.80,Face sniff (D),
295.00,Face sniff (D),
295.20,Face sniff (D),
295.40,Face sniff (D),
295.60,Face sniff (D),
295.80,Face sniff (D),
296.00,Face sniff (D),
296.20,Body sniff (S),
296.40,Body sniff (S),
296.60,Body sniff (S),
296.80,AG sniff (A),
297.00,AG sniff (A),
297.20,AG sniff (A),
297.40,AG sniff (A),
297.60,Body sniff (S),
297.80,Body sniff (S),
298.00,Body sniff (S),
298.20,Body sniff (S),
298.40,AG sniff (A),
298.60,Walk away,
298.80,Walk away,
299.00,Walk away,
299.20,Body sniff (S),
299.40,Body sniff (S),
299.60,Body sniff (S),
299.80,Body sniff (S),
300.00,Body sniff (S),
300.20,Body sniff (S),
300.40,Body sniff (S),
300.60,AG sniff (A),
300.80,AG sniff (A),
301.00,AG sniff (A),
301.20,AG sniff (A),
301.40,AG sniff (A),
301.60,AG sniff (A),
301.80,AG sniff (A),
302.00,AG sniff (A),
302.20,Body sniff (S),
302.40,Body sniff (S),
302.60,Body sniff (S),
302.80,AG sniff (A),
303.00,AG sniff (A),
303.20,Body sniff (S),
303.40,Body sniff (S),
303.60,Body sniff (S),
303.80,Body sniff (S),
304.00,Body sniff (S),
304.20,AG sniff (A),
304.40,AG sniff (A),
304.60,AG sniff (A),
304.80,AG sniff (A),
305.00,AG sniff (A),
305.20,AG sniff (A),
305.40,AG sniff (A),
305.60,AG sniff (A),
305.80,AG sniff (A),
306.00,AG sniff (A),
306.20,AG sniff (A),
306.40,Body sniff (S),
306.60,Body sniff (S),
306.80,Body sniff (S),
307.00,Body sniff (S),
307.20,Body sniff (S),
307.40,Body sniff (S),
307.60,Other (W),
307.80,Other (W),
308.00,Other (W),
308.20,Other (W),
308.40,Other (W),
308.60,Other (W),
308.80,Other (W),
309.00,Other (W),
309.20,Other (W),
309.40,Other (W),
309.60,Other (W),
309.80,Rearing,
310.00,Rearing,
310.20,Rearing,
310.40,Rearing,
310.60,Other (W),
310.80,Other (W),
311.00,Other (W),
311.20,Other (W),
311.40,Other (W),
311.60,Other (W),
311.80,Other (W),
312.00,Body sniff (S),
312.20,Body sniff (S),
312.40,Body sniff (S),
312.60,Body sniff (S),
312.80,Body sniff (S),
313.00,AG sniff (A),
313.20,AG sniff (A),
313.40,AG sniff (A),
313.60,AG sniff (A),
313.80,AG sniff (A),
314.00,AG sniff (A),
314.20,AG sniff (A),
314.40,AG sniff (A),
314.60,Body sniff (S),
314.80,Body sniff (S),
315.00,Walk away,
315.20,Walk away,
315.40,Walk away,
315.60,Walk away,
315.80,Walk away,
316.00,Other (W),
316.20,Other (W),
316.40,Other (W),
316.60,Other (W),
316.80,Other (W),
317.00,Other (W),
317.20,Other (W),
317.40,Other (W),
317.60,Other (W),
317.80,Other (W),
318.00,Other (W),
318.20,Other (W),
318.40,Other (W),
318.60,Other (W),
318.80,Other (W),
319.00,Other (W),
319.20,Other (W),
319.40,Other (W),
319.60,Other (W),
319.80,Other (W),
320.00,Other (W),
320.20,Other (W),
320.40,Other (W),
320.60,Other (W),
320.80,Other (W),
321.00,Face sniff (D),
321.20,Face sniff (D),
321.40,Face sniff (D),
321.60,Face sniff (D),
321.80,Face sniff (D),
322.00,Face sniff (D),
322.20,Face sniff (D),
322.40,Face sniff (D),
322.60,Face sniff (D),
322.80,Face sniff (D),
323.00,Face sniff (D),
323.20,Face sniff (D),
323.40,Face sniff (D),
323.60,Face sniff (D),
323.80,Face sniff (D),
324.00,Face sniff (D),
324.20,Body sniff (S),
324.40,Body sniff (S),
324.60,Body sniff (S),
324.80,Body sniff (S),
325.00,Face sniff (D),
325.20,Face sniff (D),
325.40,Face sniff (D),
325.60,Face sniff (D),
325.80,Face sniff (D),
326.00,Face sniff (D),
326.20,Face sniff (D),
326.40,Face sniff (D),
326.60,Face sniff (D),
326.80,Other (W),
327.00,Other (W),
327.20,Other (W),
327.40,Other (W),
327.60,Other (W),
327.80,Other (W),
328.00,Other (W),
328.20,Other (W),
328.40,Other (W),
328.60,Other (W),
328.80,Other (W),
329.00,Other (W),
329.20,Other (W),
329.40,Other (W),
329.60,Other (W),
329.80,Other (W),
330.00,Other (W),
330.20,Other (W),
330.40,Other (W),
330.60,Other (W),
330.80,Other (W),
331.00,Other (W),
331.20,Other (W),
331.40,Other (W),
331.60,Other (W),
331.80,Other (W),
332.00,Other (W),
332.20,Other (W),
332.40,Other (W),
332.60,Other (W),
332.80,Other (W),
333.00,Other (W),
333.20,Other (W),
333.40,Other (W),
333.60,Other (W),
333.80,Other (W),
334.00,Other (W),
334.20,Other (W),
334.40,Other (W),
334.60,Other (W),
334.80,Other (W),
335.00,Other (W),
335.20,Other (W),
335.40,Other (W),
335.60,Other (W),
335.80,Other (W),
336.00,Other (W),
336.20,Other (W),
336.40,Other (W),
336.60,Other (W),
336.80,Other (W),
337.00,Other (W),
337.20,Other (W),
337.40,Other (W),
337.60,Other (W),
337.80,Other (W),
338.00,Other (W),
338.20,Other (W),
338.40,Other (W),
338.60,Other (W),
338.80,Other (W),
339.00,Other (W),
339.20,Other (W),
339.40,Other (W),
339.60,Other (W),
339.80,Other (W),
340.00,Other (W),
340.20,Other (W),
340.40,Other (W),
340.60,Other (W),
340.80,Other (W),
341.00,Other (W),
341.20,Other (W),
341.40,Other (W),
341.60,Other (W),
341.80,Other (W),
342.00,Other (W),
342.20,Other (W),
342.40,Other (W),
342.60,Other (W),
342.80,Other (W),
343.00,Other (W),
343.20,Other (W),
343.40,Other (W),
343.60,Other (W),
343.80,Other (W),
344.00,Other (W),
344.20,Other (W),
344.40,Other (W),
344.60,Other (W),
344.80,Other (W),
345.00,Other (W),
345.20,Other (W),
345.40,Other (W),
345.60,Other (W),
345.80,Other (W),
346.00,Other (W),
346.20,Other (W),
346.40,Other (W),
346.60,Other (W),
346.80,Other (W),
347.00,Other (W),
347.20,Other (W),
347.40,Other (W),
347.60,Other (W),
347.80,Other (W),
348.00,Body sniff (S),
348.20,Body sniff (S),
348.40,Body sniff (S),
348.60,Body sniff (S),
348.80,Body sniff (S),
349.00,Body sniff (S),
349.20,Body sniff (S),
349.40,Body sniff (S),
349.60,Body sniff (S),
349.80,Other (W),
350.00,Other (W),
350.20,Other (W),
350.40,Other (W),
350.60,Other (W),
350.80,Other (W),
351.00,Other (W),
351.20,Other (W),
351.40,Body sniff (S),
351.60,Body sniff (S),
351.80,Body sniff (S),
352.00,Body sniff (S),
352.20,Body sniff (S),
352.40,Body sniff (S),
352.60,Body sniff (S),
352.80,Body sniff (S),
353.00,Body sniff (S),
353.20,Other (W),
353.40,Other (W),
353.60,Other (W),
353.80,Other (W),
354.00,Other (W),
354.20,Other (W),
354.40,Other (W),
354.60,Other (W),
354.80,Other (W),
355.00,Body sniff (S),
355.20,Body sniff (S),
355.40,Body sniff (S),
355.60,Body sniff (S),
355.80,Body sniff (S),
356.00,Body sniff (S),
356.20,Body sniff (S),
356.40,Body sniff (S),
356.60,Body sniff (S),
356.80,Body sniff (S),
357.00,Body sniff (S),
357.20,Walk away,
357.40,Walk away,
357.60,Walk away,
357.80,Other (W),
358.00,Other (W),
358.20,Other (W),
358.40,Other (W),
358.60,Other (W),
358.80,Other (W),
359.00,Other (W),
359.20,Other (W),
359.40,Rearing,
359.60,Rearing,
359.80,Rearing,
360.00,Rearing,
360.20,Rearing,
360.40,Other (W),
360.60,Face sniff (D),
360.80,Face sniff (D),
361.00,Face sniff (D),
361.20,Face sniff (D),
361.40,Walk away,
361.60,Walk away,
361.80,Walk away,
362.00,Walk away,
362.20,Walk away,
362.40,Walk away,
362.60,Other (W),
362.80,Other (W),
363.00,Rearing,
363.20,Rearing,
363.40,Rearing,
363.60,Rearing,
363.80,Other (W),
364.00,Face sniff (D),
364.20,Face sniff (D),
364.40,Face sniff (D),
364.60,Face sniff (D),
364.80,Face sniff (D),
365.00,Face sniff (D),
365.20,Face sniff (D),
365.40,Face sniff (D),
365.60,Face sniff (D),
365.80,Face sniff (D),
366.00,Other (W),
366.20,Other (W),
366.40,Other (W),
366.60,Other (W),
366.80,Other (W),
367.00,Other (W),
367.20,Other (W),
367.40,Other (W),
367.60,Other (W),
367.80,Other (W),
368.00,Other (W),
368.20,Other (W),
368.40,Other (W),
368.60,Other (W),
368.80,Other (W),
369.00,Other (W),
369.20,Other (W),
369.40,Other (W),
369.60,Other (W),
369.80,Other (W),
370.00,Other (W),
370.20,Body sniff (S),
370.40,Body sniff (S),
370.60,Body sniff (S),
370.80,Body sniff (S),
371.00,Body sniff (S),
371.20,AG sniff (A),
371.40,AG sniff (A),
371.60,Walk away,
371.80,Walk away,
372.00,Walk away,
372.20,Other (W),
372.40,Other (W),
372.60,Other (W),
372.80,Other (W),
373.00,Other (W),
373.20,Other (W),
373.40,Other (W),
373.60,Other (W),
373.80,Other (W),
374.00,Face sniff (D),
374.20,Face sniff (D),
374.40,Face sniff (D),
374.60,Face sniff (D),
374.80,Face sniff (D),
375.00,Face sniff (D),
375.20,Face sniff (D),
375.40,Face sniff (D),
375.60,Face sniff (D),
375.80,Face sniff (D),
376.00,Other (W),
376.20,Other (W),
376.40,Other (W),
376.60,Other (W),
376.80,Other (W),
377.00,Other (W),
377.20,Other (W),
377.40,Rearing,
377.60,Rearing,
377.80,Rearing,
378.00,Rearing,
378.20,Rearing,
378.40,Rearing,
378.60,Other (W),
378.80,Other (W),
379.00,Other (W),
379.20,Other (W),
379.40,Body sniff (S),
379.60,Body sniff (S),
379.80,Body sniff (S),
380.00,Walk away,
380.20,Walk away,
380.40,Walk away,
380.60,Other (W),
380.80,Other (W),
381.00,Other (W),
381.20,Other (W),
381.40,Other (W),
381.60,Body sniff (S),
381.80,Body sniff (S),
382.00,Body sniff (S),
382.20,Body sniff (S),
382.40,Other (W),
382.60,Other (W),
382.80,Other (W),
383.00,Other (W),
383.20,Other (W),
383.40,Other (W),
383.60,Other (W),
383.80,Other (W),
384.00,Other (W),
384.20,Other (W),
384.40,Other (W),
384.60,Other (W),
384.80,Other (W),
385.00,Other (W),
385.20,Other (W),
385.40,Other (W),
385.60,Other (W),
385.80,Other (W),
386.00,Other (W),
386.20,Other (W),
386.40,Other (W),
386.60,Other (W),
386.80,Other (W),
387.00,Other (W),
387.20,Other (W),
387.40,Other (W),
387.60,Other (W),
387.80,Other (W),
388.00,Other (W),
388.20,Other (W),
388.40,Other (W),
388.60,Other (W),
388.80,Other (W),
389.00,Other (W),
389.20,Other (W),
389.40,Other (W),
389.60,Other (W),
389.80,Rearing,
390.00,Rearing,
390.20,Rearing,
390.40,Other (W),
390.60,Other (W),
390.80,Other (W),
391.00,Other (W),
391.20,Body sniff (S),
391.40,Body sniff (S),
391.60,Body sniff (S),
391.80,Face sniff (D),
392.00,Face sniff (D),
392.20,Face sniff (D),
392.40,Body sniff (S),
392.60,Body sniff (S),
392.80,Body sniff (S),
393.00,Body sniff (S),
393.20,Body sniff (S),
393.40,Body sniff (S),
393.60,Body sniff (S),
393.80,Rearing,
394.00,Rearing,
394.20,Rearing,
394.40,Rearing,
394.60,Rearing,
394.80,Body sniff (S),
395.00,Body sniff (S),
395.20,Body sniff (S),
395.40,Body sniff (S),
395.60,Body sniff (S),
395.80,Other (W),
396.00,Other (W),
396.20,Other (W),
396.40,Other (W),
396.60,Other (W),
396.80,Other (W),
397.00,Other (W),
397.20,Other (W),
397.40,Body sniff (S),
397.60,Body sniff (S),
397.80,Body sniff (S),
398.00,Body sniff (S),
398.20,Body sniff (S),
398.40,Body sniff (S),
398.60,Body sniff (S),
398.80,Other (W),
399.00,Other (W),
399.20,Other (W),
399.40,Other (W),
399.60,Other (W),
399.80,Other (W),
400.00,Other (W),
400.20,Body sniff (S),
400.40,Body sniff (S),
400.60,Body sniff (S),
400.80,Walk away,
401.00,Walk away,
401.20,Walk away,
401.40,Other (W),
401.60,Other (W),
401.80,Other (W),
402.00,Other (W),
402.20,Other (W),
402.40,Other (W),
402.60,Other (W),
402.80,Other (W),
403.00,Other (W),
403.20,Other (W),
403.40,Other (W),
403.60,Other (W),
403.80,Other (W),
404.00,Other (W),
404.20,Other (W),
404.40,Other (W),
404.60,Other (W),
404.80,Other (W),
405.00,Other (W),
405.20,Face sniff (D),
405.40,Face sniff (D),
405.60,Face sniff (D),
405.80,Face sniff (D),
406.00,Face sniff (D),
406.20,Face sniff (D),
406.40,Face sniff (D),
406.60,Face sniff (D),
406.80,Face sniff (D),
407.00,Face sniff (D),
407.20,Face sniff (D),
407.40,Face sniff (D),
407.60,Face sniff (D),
407.80,Face sniff (D),
408.00,Face sniff (D),
408.20,Face sniff (D),
408.40,Face sniff (D),
408.60,Face sniff (D),
408.80,Face sniff (D),
409.00,Face sniff (D),
409.20,Face sniff (D),
409.40,Face sniff (D),
409.60,Face sniff (D),
409.80,Body sniff (S),
410.00,Follow (Q),
410.20,Follow (Q),
410.40,Follow (Q),
410.60,Follow (Q),
410.80,Follow (Q),
411.00,Follow (Q),
411.20,AG sniff (A),
411.40,AG sniff (A),
411.60,Body sniff (S),
411.80,Body sniff (S),
412.00,Body sniff (S),
412.20,Body sniff (S),
412.40,Body sniff (S),
412.60,Body sniff (S),
412.80,Body sniff (S),
413.00,Body sniff (S),
413.20,Body sniff (S),
413.40,Body sniff (S),
413.60,Body sniff (S),
413.80,Body sniff (S),
414.00,Body sniff (S),
414.20,Face sniff (D),
414.40,Face sniff (D),
414.60,Other (W),
414.80,Other (W),
415.00,Other (W),
415.20,Other (W),
415.40,Other (W),
415.60,Other (W),
415.80,Other (W),
416.00,Other (W),
416.20,Other (W),
416.40,Other (W),
416.60,Other (W),
416.80,Other (W),
417.00,Other (W),
417.20,Other (W),
417.40,Other (W),
417.60,Rearing,
417.80,Rearing,
418.00,Rearing,
418.20,Rearing,
418.40,Other (W),
418.60,Other (W),
418.80,Other (W),
419.00,Other (W),
419.20,Other (W),
419.40,Other (W),
419.60,Other (W),
419.80,Face sniff (D),
420.00,Face sniff (D),
420.20,Face sniff (D),
420.40,Face sniff (D),
420.60,Face sniff (D),
420.80,Face sniff (D),
421.00,Rearing,
421.20,Rearing,
421.40,Rearing,
421.60,Rearing,
421.80,Rearing,
422.00,Face sniff (D),
422.20,Face sniff (D),
422.40,Face sniff (D),
422.60,Body sniff (S),
422.80,Body sniff (S),
423.00,Other (W),
423.20,Other (W),
423.40,Other (W),
423.60,Other (W),
423.80,Other (W),
424.00,Other (W),
424.20,Other (W),
424.40,Other (W),
424.60,Other (W),
424.80,Other (W),
425.00,Other (W),
425.20,Other (W),
425.40,Other (W),
425.60,Other (W),
425.80,Other (W),
426.00,Other (W),
426.20,Other (W),
426.40,Rearing,
426.60,Rearing,
426.80,Rearing,
427.00,Rearing,
427.20,Rearing,
427.40,Rearing,
427.60,Rearing,
427.80,Rearing,
428.00,Other (W),
428.20,Other (W),
428.40,Other (W),
428.60,Other (W),
428.80,Other (W),
429.00,Other (W),
429.20,Other (W),
429.40,Other (W),
429.60,Rearing,
429.80,Rearing,
430.00,Rearing,
430.20,Other (W),
430.40,Other (W),
430.60,Other (W),
430.80,Other (W),
431.00,Other (W),
431.20,Other (W),
431.40,Other (W),
431.60,Other (W),
431.80,Self-groom,
432.00,Self-groom,
432.20,Self-groom,
432.40,Self-groom,
432.60,Self-groom,
432.80,Self-groom,
433.00,Self-groom,
433.20,Self-groom,
433.40,Self-groom,
433.60,Self-groom,
433.80,Self-groom,
434.00,Self-groom,
434.20,Self-groom,
434.40,Self-groom,
434.60,Self-groom,
434.80,Self-groom,
435.00,Self-groom,
435.20,Self-groom,
435.40,Self-groom,
435.60,Self-groom,
435.80,Self-groom,
436.00,Self-groom,
436.20,Other (W),
436.40,Other (W),
436.60,Other (W),
436.80,Other (W),
437.00,Other (W),
437.20,Other (W),
437.40,Other (W),
437.60,Other (W),
437.80,Other (W),
438.00,Rearing,
438.20,Rearing,
438.40,Rearing,
438.60,Rearing,
438.80,Rearing,
439.00,Rearing,
439.20,Rearing,
439.40,Rearing,
439.60,Rearing,
439.80,Rearing,
440.00,Other (W),
440.20,Other (W),
440.40,Other (W),
440.60,Other (W),
440.80,Other (W),
441.00,Other (W),
441.20,Other (W),
441.40,Other (W),
441.60,Other (W),
441.80,Other (W),
442.00,Other (W),
442.20,Other (W),
442.40,Rearing,
442.60,Rearing,
442.80,Other (W),
443.00,Other (W),
443.20,Other (W),
443.40,Face sniff (D),
443.60,Face sniff (D),
443.80,Face sniff (D),
444.00,Face sniff (D),
444.20,Face sniff (D),
444.40,Face sniff (D),
444.60,Face sniff (D),
444.80,Face sniff (D),
445.00,Face sniff (D),
445.20,Face sniff (D),
445.40,Face sniff (D),
445.60,Face sniff (D),
445.80,Body sniff (S),
446.00,Body sniff (S),
446.20,Body sniff (S),
446.40,Body sniff (S),
446.60,Body sniff (S),
446.80,Body sniff (S),
447.00,Body sniff (S),
447.20,Other (W),
447.40,Other (W),
447.60,AG sniff (A),
447.80,Walk away,
448.00,Walk away,
448.20,Walk away,
448.40,Walk away,
448.60,Walk away,
448.80,Walk away,
449.00,Other (W),
449.20,Other (W),
449.40,Other (W),
449.60,Rearing,
449.80,Rearing,
450.00,Other (W),
450.20,Other (W),
450.40,Other (W),
450.60,Other (W),
450.80,Other (W),
451.00,Other (W),
451.20,Other (W),
451.40,Other (W),
451.60,Other (W),
451.80,Other (W),
452.00,Other (W),
452.20,Other (W),
452.40,Body sniff (S),
452.60,Body sniff (S),
452.80,Body sniff (S),
453.00,Body sniff (S),
453.20,Body sniff (S),
453.40,Body sniff (S),
453.60,Body sniff (S),
453.80,Body sniff (S),
454.00,AG sniff (A),
454.20,AG sniff (A),
454.40,AG sniff (A),
454.60,AG sniff (A),
454.80,AG sniff (A),
455.00,AG sniff (A),
455.20,AG sniff (A),
455.40,AG sniff (A),
455.60,AG sniff (A),
455.80,AG sniff (A),
456.00,AG sniff (A),
456.20,AG sniff (A),
456.40,Body sniff (S),
456.60,Body sniff (S),
456.80,Body sniff (S),
457.00,Body sniff (S),
457.20,Body sniff (S),
457.40,Rearing,
457.60,Rearing,
457.80,Rearing,
458.00,Body sniff (S),
458.20,Body sniff (S),
458.40,Body sniff (S),
458.60,Body sniff (S),
458.80,Body sniff (S),
459.00,Body sniff (S),
459.20,Body sniff (S),
459.40,Body sniff (S),
459.60,Body sniff (S),
459.80,Body sniff (S),
460.00,Body sniff (S),
460.20,Body sniff (S),
460.40,Body sniff (S),
460.60,Body sniff (S),
460.80,Walk away,
461.00,Walk away,
461.20,Walk away,
461.40,Walk away,
461.60,Other (W),
461.80,Other (W),
462.00,Other (W),
462.20,Other (W),
462.40,Other (W),
462.60,Other (W),
462.80,Rearing,
463.00,Rearing,
463.20,Rearing,
463.40,Rearing,
463.60,Rearing,
463.80,Rearing,
464.00,Other (W),
464.20,Other (W),
464.40,Other (W),
464.60,Other (W),
464.80,Face sniff (D),
465.00,Face sniff (D),
465.20,Face sniff (D),
465.40,Face sniff (D),
465.60,Face sniff (D),
465.80,Face sniff (D),
466.00,Face sniff (D),
466.20,Face sniff (D),
466.40,Face sniff (D),
466.60,Face sniff (D),
466.80,Body sniff (S),
467.00,Body sniff (S),
467.20,Body sniff (S),
467.40,Face sniff (D),
467.60,Face sniff (D),
467.80,Face sniff (D),
468.00,Face sniff (D),
468.20,Face sniff (D),
468.40,Walk away,
468.60,Walk away,
468.80,Walk away,
469.00,Other (W),
469.20,Other (W),
469.40,Rearing,
469.60,Rearing,
469.80,Rearing,
470.00,Rearing,
470.20,Rearing,
470.40,Rearing,
470.60,Rearing,
470.80,Other (W),
471.00,Other (W),
471.20,Body sniff (S),
471.40,Body sniff (S),
471.60,Walk away,
471.80,Walk away,
472.00,Walk away,
472.20,Other (W),
472.40,Other (W),
472.60,Other (W),
472.80,Other (W),
473.00,Other (W),
473.20,Other (W),
473.40,Other (W),
473.60,Rearing,
473.80,Rearing,
474.00,Rearing,
474.20,Rearing,
474.40,Rearing,
474.60,Rearing,
474.80,Rearing,
475.00,Rearing,
475.20,Other (W),
475.40,Other (W),
475.60,Other (W),
475.80,Other (W),
476.00,Other (W),
476.20,Other (W),
476.40,Other (W),
476.60,Other (W),
476.80,Other (W),
477.00,Other (W),
477.20,Other (W),
477.40,Body sniff (S),
477.60,Face sniff (D),
477.80,Face sniff (D),
478.00,Face sniff (D),
478.20,Face sniff (D),
478.40,Face sniff (D),
478.60,Face sniff (D),
478.80,Face sniff (D),
479.00,Face sniff (D),
479.20,Body sniff (S),
479.40,Body sniff (S),
479.60,Body sniff (S),
479.80,Body sniff (S),
480.00,AG sniff (A),
480.20,AG sniff (A),
480.40,AG sniff (A),
480.60,AG sniff (A),
480.80,AG sniff (A),
481.00,Body sniff (S),
481.20,Body sniff (S),
481.40,Body sniff (S),
481.60,Body sniff (S),
481.80,Body sniff (S),
482.00,Body sniff (S),
482.20,Body sniff (S),
482.40,Face sniff (D),
482.60,Face sniff (D),
482.80,Face sniff (D),
483.00,Body sniff (S),
483.20,Body sniff (S),
483.40,Body sniff (S),
483.60,Body sniff (S),
483.80,Body sniff (S),
484.00,Body sniff (S),
484.20,Body sniff (S),
484.40,Body sniff (S),
484.60,Body sniff (S),
484.80,Body sniff (S),
485.00,Body sniff (S),
485.20,Body sniff (S),
485.40,Body sniff (S),
485.60,Body sniff (S),
485.80,Body sniff (S),
486.00,Body sniff (S),
486.20,Face sniff (D),
486.40,Face sniff (D),
486.60,Other (W),
486.80,Other (W),
487.00,Body sniff (S),
487.20,Body sniff (S),
487.40,Face sniff (D),
487.60,Face sniff (D),
487.80,Face sniff (D),
488.00,Face sniff (D),
488.20,Face sniff (D),
488.40,Face sniff (D),
488.60,Face sniff (D),
488.80,Face sniff (D),
489.00,Face sniff (D),
489.20,Face sniff (D),
489.40,Face sniff (D),
489.60,Face sniff (D),
489.80,Face sniff (D),
490.00,Face sniff (D),
490.20,Face sniff (D),
490.40,Face sniff (D),
490.60,Face sniff (D),
490.80,Face sniff (D),
491.00,Body sniff (S),
491.20,Body sniff (S),
491.40,Body sniff (S),
491.60,Body sniff (S),
491.80,Body sniff (S),
492.00,Body sniff (S),
492.20,Body sniff (S),
492.40,Body sniff (S),
492.60,Face sniff (D),
492.80,Face sniff (D),
493.00,Face sniff (D),
493.20,Face sniff (D),
493.40,Face sniff (D),
493.60,Face sniff (D),
493.80,Other (W),
494.00,Other (W),
494.20,Other (W),
494.40,Other (W),
494.60,Other (W),
494.80,Other (W),
495.00,Other (W),
495.20,Other (W),
495.40,Other (W),
495.60,Other (W),
495.80,Other (W),
496.00,Other (W),
496.20,Other (W),
496.40,Other (W),
496.60,Other (W),
496.80,Other (W),
497.00,Other (W),
497.20,Other (W),
497.40,Other (W),
497.60,Other (W),
497.80,Other (W),
498.00,Other (W),
498.20,Other (W),
498.40,Other (W),
498.60,Other (W),
498.80,Other (W),
499.00,Other (W),
499.20,Other (W),
499.40,Other (W),
499.60,Other (W),
499.80,Other (W),
500.00,Other (W),
500.20,Other (W),
500.40,Other (W),
500.60,Other (W),
500.80,Other (W),
501.00,Other (W),
501.20,Other (W),
501.40,Other (W),
501.60,Other (W),
501.80,Other (W),
502.00,Other (W),
502.20,Other (W),
502.40,Other (W),
502.60,Other (W),
502.80,Other (W),
503.00,Other (W),
503.20,Other (W),
503.40,Other (W),
503.60,Other (W),
503.80,Other (W),
504.00,Other (W),
504.20,Other (W),
504.40,Other (W),
504.60,Other (W),
504.80,Other (W),
505.00,Other (W),
505.20,Other (W),
505.40,Other (W),
505.60,Other (W),
505.80,Other (W),
506.00,Other (W),
506.20,Other (W),
506.40,Other (W),
506.60,Rearing,
506.80,Rearing,
507.00,Rearing,
507.20,Other (W),
507.40,Other (W),
507.60,Other (W),
507.80,Other (W),
508.00,Other (W),
508.20,Other (W),
508.40,Other (W),
508.60,Rearing,
508.80,Rearing,
509.00,Rearing,
509.20,Rearing,
509.40,Other (W),
509.60,Other (W),
509.80,Other (W),
510.00,Other (W),
510.20,Other (W),
510.40,Other (W),
510.60,Other (W),
510.80,Body sniff (S),
511.00,Body sniff (S),
511.20,Body sniff (S),
511.40,Face sniff (D),
511.60,Face sniff (D),
511.80,Face sniff (D),
512.00,Face sniff (D),
512.20,Face sniff (D),
512.40,Face sniff (D),
512.60,Face sniff (D),
512.80,Body sniff (S),
513.00,Body sniff (S),
513.20,Body sniff (S),
513.40,Body sniff (S),
513.60,AG sniff (A),
513.80,AG sniff (A),
514.00,AG sniff (A),
514.20,AG sniff (A),
514.40,AG sniff (A),
514.60,AG sniff (A),
514.80,Follow (Q),
515.00,Follow (Q),
515.20,Body sniff (S),
515.40,Body sniff (S),
515.60,Body sniff (S),
515.80,AG sniff (A),
516.00,AG sniff (A),
516.20,Follow (Q),
516.40,Follow (Q),
516.60,Follow (Q),
516.80,Body sniff (S),
517.00,Body sniff (S),
517.20,Body sniff (S),
517.40,AG sniff (A),
517.60,Follow (Q),
517.80,Follow (Q),
518.00,Follow (Q),
518.20,Body sniff (S),
518.40,Body sniff (S),
518.60,Body sniff (S),
518.80,Body sniff (S),
519.00,Body sniff (S),
519.20,AG sniff (A),
519.40,AG sniff (A),
519.60,AG sniff (A),
519.80,AG sniff (A),
520.00,AG sniff (A),
520.20,AG sniff (A),
520.40,AG sniff (A),
520.60,Body sniff (S),
520.80,Body sniff (S),
521.00,Body sniff (S),
521.20,Body sniff (S),
521.40,Body sniff (S),
521.60,Face sniff (D),
521.80,Face sniff (D),
522.00,Face sniff (D),
522.20,Body sniff (S),
522.40,Body sniff (S),
522.60,Body sniff (S),
522.80,AG sniff (A),
523.00,AG sniff (A),
523.20,Body sniff (S),
523.40,Body sniff (S),
523.60,Body sniff (S),
523.80,Body sniff (S),
524.00,Body sniff (S),
524.20,Body sniff (S),
524.40,Body sniff (S),
524.60,Body sniff (S),
524.80,Body sniff (S),
525.00,Body sniff (S),
525.20,Body sniff (S),
525.40,Body sniff (S),
525.60,Body sniff (S),
525.80,Other (W),
526.00,Other (W),
526.20,Body sniff (S),
526.40,Body sniff (S),
526.60,Body sniff (S),
526.80,Body sniff (S),
527.00,Body sniff (S),
527.20,Body sniff (S),
527.40,Body sniff (S),
527.60,Body sniff (S),
527.80,Body sniff (S),
528.00,Body sniff (S),
528.20,Body sniff (S),
528.40,Body sniff (S),
528.60,Face sniff (D),
528.80,Face sniff (D),
529.00,Face sniff (D),
529.20,Face sniff (D),
529.40,Face sniff (D),
529.60,Face sniff (D),
529.80,Face sniff (D),
530.00,Face sniff (D),
530.20,Face sniff (D),
530.40,Face sniff (D),
530.60,Face sniff (D),
530.80,Body sniff (S),
531.00,Body sniff (S),
531.20,Body sniff (S),
531.40,Body sniff (S),
531.60,AG sniff (A),
531.80,AG sniff (A),
532.00,AG sniff (A),
532.20,AG sniff (A),
532.40,Other (W),
532.60,Other (W),
532.80,Other (W),
533.00,Other (W),
533.20,Other (W),
533.40,Other (W),
533.60,Other (W),
533.80,Other (W),
534.00,Other (W),
534.20,Other (W),
534.40,Other (W),
534.60,Other (W),
534.80,Other (W),
535.00,Other (W),
535.20,Other (W),
535.40,Other (W),
535.60,Other (W),
535.80,Other (W),
536.00,Other (W),
536.20,Other (W),
536.40,Other (W),
536.60,Other (W),
536.80,Other (W),
537.00,Other (W),
537.20,Other (W),
537.40,Other (W),
537.60,Other (W),
537.80,Other (W),
538.00,Other (W),
538.20,Other (W),
538.40,Other (W),
538.60,Other (W),
538.80,Other (W),
539.00,Other (W),
539.20,Other (W),
539.40,Other (W),
539.60,Other (W),
539.80,Other (W),
540.00,Other (W),
540.20,Other (W),
540.40,Other (W),
540.60,Other (W),
540.80,Other (W),
541.00,Other (W),
541.20,Other (W),
541.40,Body sniff (S),
541.60,Body sniff (S),
541.80,Body sniff (S),
542.00,Body sniff (S),
542.20,Body sniff (S),
542.40,Body sniff (S),
542.60,Body sniff (S),
542.80,Body sniff (S),
543.00,Body sniff (S),
543.20,Body sniff (S),
543.40,Body sniff (S),
543.60,Face sniff (D),
543.80,Face sniff (D),
544.00,Face sniff (D),
544.20,Face sniff (D),
544.40,Face sniff (D),
544.60,Face sniff (D),
544.80,Body sniff (S),
545.00,Body sniff (S),
545.20,Body sniff (S),
545.40,Body sniff (S),
545.60,Body sniff (S),
545.80,Body sniff (S),
546.00,AG sniff (A),
546.20,AG sniff (A),
546.40,AG sniff (A),
546.60,Body sniff (S),
546.80,Body sniff (S),
547.00,Other (W),
547.20,Other (W),
547.40,Other (W),
547.60,Other (W),
547.80,Other (W),
548.00,Body sniff (S),
548.20,Body sniff (S),
548.40,Body sniff (S),
548.60,AG sniff (A),
548.80,AG sniff (A),
549.00,AG sniff (A),
549.20,Body sniff (S),
549.40,Body sniff (S),
549.60,Body sniff (S),
549.80,Body sniff (S),
550.00,Body sniff (S),
550.20,Body sniff (S),
550.40,Body sniff (S),
550.60,Body sniff (S),
550.80,Body sniff (S),
551.00,Body sniff (S),
551.20,Body sniff (S),
551.40,Body sniff (S),
551.60,Body sniff (S),
551.80,Body sniff (S),
552.00,Body sniff (S),
552.20,Body sniff (S),
552.40,Body sniff (S),
552.60,Body sniff (S),
552.80,Body sniff (S),
553.00,Body sniff (S),
553.20,Body sniff (S),
553.40,Body sniff (S),
553.60,Body sniff (S),
553.80,Body sniff (S),
554.00,Body sniff (S),
554.20,Body sniff (S),
554.40,Body sniff (S),
554.60,Body sniff (S),
554.80,Body sniff (S),
555.00,Body sniff (S),
555.20,Body sniff (S),
555.40,Body sniff (S),
555.60,Body sniff (S),
555.80,Face sniff (D),
556.00,Face sniff (D),
556.20,Face sniff (D),
556.40,Face sniff (D),
556.60,Body sniff (S),
556.80,Other (W),
557.00,Other (W),
557.20,Other (W),
557.40,Other (W),
557.60,Other (W),
557.80,Other (W),
558.00,Other (W),
558.20,Other (W),
558.40,Other (W),
558.60,Other (W),
558.80,Other (W),
559.00,Other (W),
559.20,Other (W),
559.40,Other (W),
559.60,Other (W),
559.80,Other (W),
560.00,Other (W),
560.20,Other (W),
560.40,Other (W),
560.60,Other (W),
560.80,Other (W),
561.00,Other (W),
561.20,Other (W),
561.40,Other (W),
561.60,Face sniff (D),
561.80,Face sniff (D),
562.00,Face sniff (D),
562.20,Face sniff (D),
562.40,Face sniff (D),
562.60,Face sniff (D),
562.80,Body sniff (S),
563.00,Other (W),
563.20,Other (W),
563.40,Other (W),
563.60,Other (W),
563.80,Other (W),
564.00,Other (W),
564.20,Other (W),
564.40,Other (W),
564.60,Other (W),
564.80,Other (W),
565.00,Rearing,
565.20,Rearing,
565.40,Rearing,
565.60,Rearing,
565.80,Other (W),
566.00,Other (W),
566.20,Other (W),
566.40,Face sniff (D),
566.60,Face sniff (D),
566.80,Face sniff (D),
567.00,Other (W),
567.20,Other (W),
567.40,Other (W),
567.60,Other (W),
567.80,Other (W),
568.00,Other (W),
568.20,Other (W),
568.40,Other (W),
568.60,Other (W),
568.80,Other (W),
569.00,Other (W),
569.20,Other (W),
569.40,Other (W),
569.60,Other (W),
569.80,Other (W),
570.00,Other (W),
570.20,Other (W),
570.40,Other (W),
570.60,Other (W),
570.80,Face sniff (D),
571.00,Face sniff (D),
571.20,Face sniff (D),
571.40,Face sniff (D),
571.60,Face sniff (D),
571.80,Other (W),
572.00,Other (W),
572.20,Other (W),
572.40,Other (W),
572.60,Other (W),
572.80,Other (W),
573.00,Face sniff (D),
573.20,Face sniff (D),
573.40,AG sniff (A),
573.60,AG sniff (A),
573.80,AG sniff (A),
574.00,Body sniff (S),
574.20,Body sniff (S),
574.40,Body sniff (S),
574.60,Body sniff (S),
574.80,Body sniff (S),
575.00,AG sniff (A),
575.20,AG sniff (A),
575.40,AG sniff (A),
575.60,AG sniff (A),
575.80,AG sniff (A),
576.00,AG sniff (A),
576.20,AG sniff (A),
576.40,AG sniff (A),
576.60,Body sniff (S),
576.80,Body sniff (S),
577.00,Body sniff (S),
577.20,Body sniff (S),
577.40,Body sniff (S),
577.60,AG sniff (A),
577.80,AG sniff (A),
578.00,AG sniff (A),
578.20,Other (W),
578.40,Other (W),
578.60,Other (W),
578.80,Other (W),
579.00,Rearing,
579.20,Rearing,
579.40,Rearing,
579.60,Rearing,
579.80,Other (W),
580.00,Other (W),
580.20,Other (W),
580.40,Other (W),
580.60,Other (W),
580.80,Other (W),
581.00,Other (W),
581.20,Other (W),
581.40,Other (W),
581.60,Other (W),
581.80,Other (W),
582.00,Other (W),
582.20,Other (W),
582.40,Other (W),
582.60,Body sniff (S),
582.80,Body sniff (S),
583.00,Body sniff (S),
583.20,Body sniff (S),
583.40,Body sniff (S),
583.60,Body sniff (S),
583.80,Body sniff (S),
584.00,AG sniff (A),
584.20,AG sniff (A),
584.40,AG sniff (A),
584.60,AG sniff (A),
584.80,AG sniff (A),
585.00,Other (W),
585.20,Other (W),
585.40,Other (W),
585.60,Other (W),
585.80,Other (W),
586.00,Other (W),
586.20,Other (W),
586.40,Other (W),
586.60,Other (W),
586.80,Other (W),
587.00,Other (W),
587.20,Other (W),
587.40,Other (W),
587.60,Body sniff (S),
587.80,Body sniff (S),
588.00,Other (W),
588.20,Other (W),
588.40,Other (W),
588.60,Other (W),
588.80,Other (W),
589.00,Other (W),
589.20,Body sniff (S),
589.40,Body sniff (S),
589.60,Face sniff (D),
589.80,Face sniff (D),
590.00,Body sniff (S),
590.20,Body sniff (S),
590.40,Body sniff (S),
590.60,Body sniff (S),
590.80,Body sniff (S),
591.00,Body sniff (S),
591.20,Body sniff (S),
591.40,Body sniff (S),
591.60,Body sniff (S),
591.80,Body sniff (S),
592.00,Body sniff (S),
592.20,Body sniff (S),
592.40,Body sniff (S),
592.60,Body sniff (S),
592.80,Body sniff (S),
593.00,Body sniff (S),
593.20,Face sniff (D),
593.40,Face sniff (D),
593.60,Face sniff (D),
593.80,Body sniff (S),
594.00,Body sniff (S),
594.20,Body sniff (S),
594.40,Body sniff (S),
594.60,Body sniff (S),
594.80,AG sniff (A),
595.00,AG sniff (A),
595.20,AG sniff (A),
595.40,AG sniff (A),
595.60,AG sniff (A),
595.80,AG sniff (A),
596.00,AG sniff (A),
596.20,AG sniff (A),
596.40,AG sniff (A),
596.60,AG sniff (A),
596.80,Follow (Q),
597.00,Follow (Q),
597.20,Body sniff (S),
597.40,Body sniff (S),
597.60,Body sniff (S),
597.80,Body sniff (S),
598.00,Body sniff (S),
598.20,Body sniff (S),
598.40,Body sniff (S),
598.60,Body sniff (S),
598.80,Body sniff (S),
599.00,Body sniff (S),
599.20,Body sniff (S),
599.40,Body sniff (S),
599.60,Body sniff (S),
599.80,Body sniff (S),
600.00,Body sniff (S),
600.20,Body sniff (S),
600.40,Body sniff (S),
600.60,Body sniff (S),
600.80,Body sniff (S),
601.00,Body sniff (S),
601.20,Body sniff (S),
601.40,Body sniff (S),
601.60,Body sniff (S),
601.80,Body sniff (S),
602.00,Body sniff (S),
602.20,Body sniff (S),
602.40,Body sniff (S),
602.60,Body sniff (S),
602.80,Body sniff (S),
603.00,Body sniff (S),
603.20,Body sniff (S),
603.40,AG sniff (A),
603.60,Body sniff (S),
603.80,Body sniff (S),
604.00,Body sniff (S),
604.20,Body sniff (S),
604.40,Body sniff (S),
604.60,Body sniff (S),
604.80,Body sniff (S),
605.00,Body sniff (S),
605.20,Body sniff (S),
605.40,Body sniff (S),
605.60,Body sniff (S),
605.80,Body sniff (S),
606.00,Body sniff (S),
606.20,Body sniff (S),
606.40,Body sniff (S),
606.60,Body sniff (S),
606.80,Body sniff (S),
607.00,Body sniff (S),
607.20,Body sniff (S),
607.40,Body sniff (S),
607.60,Body sniff (S),
607.80,Body sniff (S),
608.00,Body sniff (S),
608.20,Body sniff (S),
608.40,Body sniff (S),
608.60,Other (W),
608.80,Other (W),
609.00,Other (W),
609.20,Other (W),
609.40,Other (W),
609.60,Other (W),
609.80,Other (W),
610.00,Other (W),
610.20,Other (W),
610.40,Body sniff (S),
610.60,Body sniff (S),
610.80,Body sniff (S),
611.00,Body sniff (S),
611.20,Follow (Q),
611.40,Follow (Q),
611.60,Follow (Q),
611.80,Follow (Q),
612.00,Follow (Q),
612.20,Follow (Q),
612.40,Body sniff (S),
612.60,Body sniff (S),
612.80,Body sniff (S),
613.00,Face sniff (D),
613.20,Face sniff (D),
613.40,Face sniff (D),
613.60,Face sniff (D),
613.80,Face sniff (D),
614.00,Face sniff (D),
614.20,Body sniff (S),
614.40,Body sniff (S),
614.60,Body sniff (S),
614.80,Body sniff (S),
615.00,Body sniff (S),
615.20,AG sniff (A),
615.40,AG sniff (A),
615.60,AG sniff (A),
615.80,AG sniff (A),
616.00,AG sniff (A),
616.20,AG sniff (A),
616.40,AG sniff (A),
616.60,AG sniff (A),
616.80,AG sniff (A),
617.00,Body sniff (S),
617.20,Body sniff (S),
617.40,Body sniff (S),
617.60,Other (W),
617.80,Other (W),
618.00,Other (W),
618.20,Body sniff (S),
618.40,Body sniff (S),
618.60,Body sniff (S),
618.80,Body sniff (S),
619.00,AG sniff (A),
619.20,AG sniff (A),
619.40,AG sniff (A),
619.60,AG sniff (A),
619.80,AG sniff (A),
620.00,AG sniff (A),
620.20,AG sniff (A),
620.40,AG sniff (A),
620.60,AG sniff (A),
620.80,AG sniff (A),
621.00,AG sniff (A),
621.20,AG sniff (A),
621.40,AG sniff (A),
621.60,Body sniff (S),
621.80,Body sniff (S),
622.00,Body sniff (S),
622.20,Body sniff (S),
622.40,Body sniff (S),
622.60,Body sniff (S),
622.80,Body sniff (S),
623.00,Body sniff (S),
623.20,Body sniff (S),
623.40,Other (W),
623.60,Other (W),
623.80,Other (W),
624.00,Other (W),
624.20,Other (W),
624.40,Other (W),
624.60,Body sniff (S),
624.80,Body sniff (S),
625.00,Body sniff (S),
625.20,Body sniff (S),
625.40,Body sniff (S),
625.60,Body sniff (S),
625.80,Body sniff (S),
626.00,Body sniff (S),
626.20,Body sniff (S),
626.40,Body sniff (S),
626.60,AG sniff (A),
626.80,AG sniff (A),
627.00,AG sniff (A),
627.20,AG sniff (A),
627.40,AG sniff (A),
627.60,AG sniff (A),
627.80,AG sniff (A),
628.00,AG sniff (A),
628.20,AG sniff (A),
628.40,AG sniff (A),
628.60,AG sniff (A),
628.80,AG sniff (A),
629.00,AG sniff (A),
629.20,AG sniff (A),
629.40,AG sniff (A),
629.60,AG sniff (A),
629.80,AG sniff (A),
630.00,AG sniff (A),