^D:\OREN\PROJECTS\SOCIALMICE\SOCIETY\SOURCE\GMFBRIDGE\GMFBRIDGE\STDAFX.CPP
/c /I/include /I"C:\Program Files\Microsoft SDKs\Windows\v7.1\Samples\multimedia\directshow\baseclasses\." /ZI /nologo /W3 /WX- /Od /Oy- /D WIN32 /D _DEBUG /D _WINDOWS /D _USRDLL /D GMFBRIDGE_EXPORTS /D _VC80_UPGRADE=0x0710 /D _WINDLL /D _MBCS /Gm /EHsc /RTC1 /MDd /GS /fp:precise /Zc:wchar_t- /Zc:forScope /Yc"StdAfx.h" /Fp"Debug\GMFBridge.pch" /Fo"Debug\\" /Fd"Debug\vc100.pdb" /Gz /TP /analyze- D:\OREN\PROJECTS\SOCIALMICE\SOCIETY\SOURCE\GMFBRIDGE\GMFBRIDGE\STDAFX.CPP
^D:\OREN\PROJECTS\SOCIALMICE\SOCIETY\SOURCE\GMFBRIDGE\GMFBRIDGE\BRIDGE.CPP
/c /I/include /I"C:\Program Files\Microsoft SDKs\Windows\v7.1\Samples\multimedia\directshow\baseclasses\." /ZI /nologo /W3 /WX- /Od /Oy- /D WIN32 /D _DEBUG /D _WINDOWS /D _USRDLL /D GMFBRIDGE_EXPORTS /D _VC80_UPGRADE=0x0710 /D _WINDLL /D _MBCS /Gm /EHsc /RTC1 /MDd /GS /fp:precise /Zc:wchar_t- /Zc:forScope /Yu"StdAfx.h" /Fp"Debug\GMFBridge.pch" /Fo"Debug\\" /Fd"Debug\vc100.pdb" /Gz /TP /analyze- D:\OREN\PROJECTS\SOCIALMICE\SOCIETY\SOURCE\GMFBRIDGE\GMFBRIDGE\BRIDGE.CPP
^D:\OREN\PROJECTS\SOCIALMICE\SOCIETY\SOURCE\GMFBRIDGE\GMFBRIDGE\CP.CPP
/c /I/include /I"C:\Program Files\Microsoft SDKs\Windows\v7.1\Samples\multimedia\directshow\baseclasses\." /ZI /nologo /W3 /WX- /Od /Oy- /D WIN32 /D _DEBUG /D _WINDOWS /D _USRDLL /D GMFBRIDGE_EXPORTS /D _VC80_UPGRADE=0x0710 /D _WINDLL /D _MBCS /Gm /EHsc /RTC1 /MDd /GS /fp:precise /Zc:wchar_t- /Zc:forScope /Yu"StdAfx.h" /Fp"Debug\GMFBridge.pch" /Fo"Debug\\" /Fd"Debug\vc100.pdb" /Gz /TP /analyze- D:\OREN\PROJECTS\SOCIALMICE\SOCIETY\SOURCE\GMFBRIDGE\GMFBRIDGE\CP.CPP
^D:\OREN\PROJECTS\SOCIALMICE\SOCIETY\SOURCE\GMFBRIDGE\GMFBRIDGE\GMFBRIDGE.CPP
/c /I/include /I"C:\Program Files\Microsoft SDKs\Windows\v7.1\Samples\multimedia\directshow\baseclasses\." /ZI /nologo /W3 /WX- /Od /Oy- /D WIN32 /D _DEBUG /D _WINDOWS /D _USRDLL /D GMFBRIDGE_EXPORTS /D _VC80_UPGRADE=0x0710 /D _WINDLL /D _MBCS /Gm /EHsc /RTC1 /MDd /GS /fp:precise /Zc:wchar_t- /Zc:forScope /Yu"StdAfx.h" /Fp"Debug\GMFBridge.pch" /Fo"Debug\\" /Fd"Debug\vc100.pdb" /Gz /TP /analyze- D:\OREN\PROJECTS\SOCIALMICE\SOCIETY\SOURCE\GMFBRIDGE\GMFBRIDGE\GMFBRIDGE.CPP
^D:\OREN\PROJECTS\SOCIALMICE\SOCIETY\SOURCE\GMFBRIDGE\GMFBRIDGE\SINK.CPP
/c /I/include /I"C:\Program Files\Microsoft SDKs\Windows\v7.1\Samples\multimedia\directshow\baseclasses\." /ZI /nologo /W3 /WX- /Od /Oy- /D WIN32 /D _DEBUG /D _WINDOWS /D _USRDLL /D GMFBRIDGE_EXPORTS /D _VC80_UPGRADE=0x0710 /D _WINDLL /D _MBCS /Gm /EHsc /RTC1 /MDd /GS /fp:precise /Zc:wchar_t- /Zc:forScope /Yu"StdAfx.h" /Fp"Debug\GMFBridge.pch" /Fo"Debug\\" /Fd"Debug\vc100.pdb" /Gz /TP /analyze- D:\OREN\PROJECTS\SOCIALMICE\SOCIETY\SOURCE\GMFBRIDGE\GMFBRIDGE\SINK.CPP
^D:\OREN\PROJECTS\SOCIALMICE\SOCIETY\SOURCE\GMFBRIDGE\GMFBRIDGE\SOURCE.CPP
/c /I/include /I"C:\Program Files\Microsoft SDKs\Windows\v7.1\Samples\multimedia\directshow\baseclasses\." /ZI /nologo /W3 /WX- /Od /Oy- /D WIN32 /D _DEBUG /D _WINDOWS /D _USRDLL /D GMFBRIDGE_EXPORTS /D _VC80_UPGRADE=0x0710 /D _WINDLL /D _MBCS /Gm /EHsc /RTC1 /MDd /GS /fp:precise /Zc:wchar_t- /Zc:forScope /Yu"StdAfx.h" /Fp"Debug\GMFBridge.pch" /Fo"Debug\\" /Fd"Debug\vc100.pdb" /Gz /TP /analyze- D:\OREN\PROJECTS\SOCIALMICE\SOCIETY\SOURCE\GMFBRIDGE\GMFBRIDGE\SOURCE.CPP
^D:\PROJECTS\GOOGLE DRIVE\SCIENCE\PROJECTS\SOCIAL MICE\TOOLS\SOFTWARE\NEW CAMERA\SOCIALCAMERA\SOURCES\GMFBRIDGE\GMFBRIDGE\STDAFX.CPP
/c /I/include /I"C:\Program Files\Microsoft SDKs\Windows\v7.1\Samples\multimedia\directshow\baseclasses\." /ZI /nologo /W3 /WX- /Od /Oy- /D WIN32 /D _DEBUG /D _WINDOWS /D _USRDLL /D GMFBRIDGE_EXPORTS /D _VC80_UPGRADE=0x0710 /D _WINDLL /D _MBCS /Gm /EHsc /RTC1 /MDd /GS /fp:precise /Zc:wchar_t- /Zc:forScope /Yc"stdafx.h" /Fp"DEBUG\GMFBRIDGE.PCH" /Fo"DEBUG\\" /Fd"DEBUG\VC110.PDB" /Gz /TP /analyze- D:\PROJECTS\GOOGLE DRIVE\SCIENCE\PROJECTS\SOCIAL MICE\TOOLS\SOFTWARE\NEW CAMERA\SOCIALCAMERA\SOURCES\GMFBRIDGE\GMFBRIDGE\STDAFX.CPP
^D:\PROJECTS\GOOGLE DRIVE\SCIENCE\PROJECTS\SOCIAL MICE\TOOLS\SOFTWARE\NEW CAMERA\SOCIALCAMERA\SOURCES\GMFBRIDGE\GMFBRIDGE\BRIDGE.CPP
/c /I/include /I"C:\Program Files\Microsoft SDKs\Windows\v7.1\Samples\multimedia\directshow\baseclasses\." /ZI /nologo /W3 /WX- /Od /Oy- /D WIN32 /D _DEBUG /D _WINDOWS /D _USRDLL /D GMFBRIDGE_EXPORTS /D _VC80_UPGRADE=0x0710 /D _WINDLL /D _MBCS /Gm /EHsc /RTC1 /MDd /GS /fp:precise /Zc:wchar_t- /Zc:forScope /Yu"stdafx.h" /Fp"DEBUG\GMFBRIDGE.PCH" /Fo"DEBUG\\" /Fd"DEBUG\VC110.PDB" /Gz /TP /analyze- D:\PROJECTS\GOOGLE DRIVE\SCIENCE\PROJECTS\SOCIAL MICE\TOOLS\SOFTWARE\NEW CAMERA\SOCIALCAMERA\SOURCES\GMFBRIDGE\GMFBRIDGE\BRIDGE.CPP
^D:\PROJECTS\GOOGLE DRIVE\SCIENCE\PROJECTS\SOCIAL MICE\TOOLS\SOFTWARE\NEW CAMERA\SOCIALCAMERA\SOURCES\GMFBRIDGE\GMFBRIDGE\CP.CPP
/c /I/include /I"C:\Program Files\Microsoft SDKs\Windows\v7.1\Samples\multimedia\directshow\baseclasses\." /ZI /nologo /W3 /WX- /Od /Oy- /D WIN32 /D _DEBUG /D _WINDOWS /D _USRDLL /D GMFBRIDGE_EXPORTS /D _VC80_UPGRADE=0x0710 /D _WINDLL /D _MBCS /Gm /EHsc /RTC1 /MDd /GS /fp:precise /Zc:wchar_t- /Zc:forScope /Yu"stdafx.h" /Fp"DEBUG\GMFBRIDGE.PCH" /Fo"DEBUG\\" /Fd"DEBUG\VC110.PDB" /Gz /TP /analyze- D:\PROJECTS\GOOGLE DRIVE\SCIENCE\PROJECTS\SOCIAL MICE\TOOLS\SOFTWARE\NEW CAMERA\SOCIALCAMERA\SOURCES\GMFBRIDGE\GMFBRIDGE\CP.CPP
^D:\PROJECTS\GOOGLE DRIVE\SCIENCE\PROJECTS\SOCIAL MICE\TOOLS\SOFTWARE\NEW CAMERA\SOCIALCAMERA\SOURCES\GMFBRIDGE\GMFBRIDGE\GMFBRIDGE.CPP
/c /I/include /I"C:\Program Files\Microsoft SDKs\Windows\v7.1\Samples\multimedia\directshow\baseclasses\." /ZI /nologo /W3 /WX- /Od /Oy- /D WIN32 /D _DEBUG /D _WINDOWS /D _USRDLL /D GMFBRIDGE_EXPORTS /D _VC80_UPGRADE=0x0710 /D _WINDLL /D _MBCS /Gm /EHsc /RTC1 /MDd /GS /fp:precise /Zc:wchar_t- /Zc:forScope /Yu"stdafx.h" /Fp"DEBUG\GMFBRIDGE.PCH" /Fo"DEBUG\\" /Fd"DEBUG\VC110.PDB" /Gz /TP /analyze- D:\PROJECTS\GOOGLE DRIVE\SCIENCE\PROJECTS\SOCIAL MICE\TOOLS\SOFTWARE\NEW CAMERA\SOCIALCAMERA\SOURCES\GMFBRIDGE\GMFBRIDGE\GMFBRIDGE.CPP
^D:\PROJECTS\GOOGLE DRIVE\SCIENCE\PROJECTS\SOCIAL MICE\TOOLS\SOFTWARE\NEW CAMERA\SOCIALCAMERA\SOURCES\GMFBRIDGE\GMFBRIDGE\SINK.CPP
/c /I/include /I"C:\Program Files\Microsoft SDKs\Windows\v7.1\Samples\multimedia\directshow\baseclasses\." /ZI /nologo /W3 /WX- /Od /Oy- /D WIN32 /D _DEBUG /D _WINDOWS /D _USRDLL /D GMFBRIDGE_EXPORTS /D _VC80_UPGRADE=0x0710 /D _WINDLL /D _MBCS /Gm /EHsc /RTC1 /MDd /GS /fp:precise /Zc:wchar_t- /Zc:forScope /Yu"stdafx.h" /Fp"DEBUG\GMFBRIDGE.PCH" /Fo"DEBUG\\" /Fd"DEBUG\VC110.PDB" /Gz /TP /analyze- D:\PROJECTS\GOOGLE DRIVE\SCIENCE\PROJECTS\SOCIAL MICE\TOOLS\SOFTWARE\NEW CAMERA\SOCIALCAMERA\SOURCES\GMFBRIDGE\GMFBRIDGE\SINK.CPP
^D:\PROJECTS\GOOGLE DRIVE\SCIENCE\PROJECTS\SOCIAL MICE\TOOLS\SOFTWARE\NEW CAMERA\SOCIALCAMERA\SOURCES\GMFBRIDGE\GMFBRIDGE\SOURCE.CPP
/c /I/include /I"C:\Program Files\Microsoft SDKs\Windows\v7.1\Samples\multimedia\directshow\baseclasses\." /ZI /nologo /W3 /WX- /Od /Oy- /D WIN32 /D _DEBUG /D _WINDOWS /D _USRDLL /D GMFBRIDGE_EXPORTS /D _VC80_UPGRADE=0x0710 /D _WINDLL /D _MBCS /Gm /EHsc /RTC1 /MDd /GS /fp:precise /Zc:wchar_t- /Zc:forScope /Yu"stdafx.h" /Fp"DEBUG\GMFBRIDGE.PCH" /Fo"DEBUG\\" /Fd"DEBUG\VC110.PDB" /Gz /TP /analyze- D:\PROJECTS\GOOGLE DRIVE\SCIENCE\PROJECTS\SOCIAL MICE\TOOLS\SOFTWARE\NEW CAMERA\SOCIALCAMERA\SOURCES\GMFBRIDGE\GMFBRIDGE\SOURCE.CPP
