^D:\OREN\PROJECTS\SOCIALMICE\SOCIETY\SOURCE\GMFBRIDGE\GMFBRIDGE\STDAFX.CPP
D:\OREN\PROJECTS\SOCIALMICE\SOCIETY\SOURCE\GMFBRIDGE\GMFBRIDGE\DEBUG\GMFBRIDGE.PCH
D:\OREN\PROJECTS\SOCIALMICE\SOCIETY\SOURCE\GMFBRIDGE\GMFBRIDGE\DEBUG\STDAFX.OBJ
D:\OREN\PROJECTS\SOCIALMICE\SOCIETY\SOURCE\GMFBRIDGE\GMFBRIDGE\DEBUG\VC100.PDB
^D:\OREN\PROJECTS\SOCIALMICE\SOCIETY\SOURCE\GMFBRIDGE\GMFBRIDGE\BRIDGE.CPP|D:\OREN\PROJECTS\SOCIALMICE\SOCIETY\SOURCE\GMFBRIDGE\GMFBRIDGE\CP.CPP|D:\OREN\PROJECTS\SOCIALMICE\SOCIETY\SOURCE\GMFBRIDGE\GMFBRIDGE\GMFBRIDGE.CPP|D:\OREN\PROJECTS\SOCIALMICE\SOCIETY\SOURCE\GMFBRIDGE\GMFBRIDGE\SINK.CPP|D:\OREN\PROJECTS\SOCIALMICE\SOCIETY\SOURCE\GMFBRIDGE\GMFBRIDGE\SOURCE.CPP
D:\OREN\PROJECTS\SOCIALMICE\SOCIETY\SOURCE\GMFBRIDGE\GMFBRIDGE\DEBUG\BRIDGE.OBJ
D:\OREN\PROJECTS\SOCIALMICE\SOCIETY\SOURCE\GMFBRIDGE\GMFBRIDGE\DEBUG\CP.OBJ
D:\OREN\PROJECTS\SOCIALMICE\SOCIETY\SOURCE\GMFBRIDGE\GMFBRIDGE\DEBUG\GMFBRIDGE.OBJ
D:\OREN\PROJECTS\SOCIALMICE\SOCIETY\SOURCE\GMFBRIDGE\GMFBRIDGE\DEBUG\SINK.OBJ
D:\OREN\PROJECTS\SOCIALMICE\SOCIETY\SOURCE\GMFBRIDGE\GMFBRIDGE\DEBUG\SOURCE.OBJ
^D:\OREN\PROJECTS\SOCIALMICE\SOCIETY\SOURCE\GMFBRIDGE\GMFBRIDGE\BRIDGE.CPP
D:\OREN\PROJECTS\SOCIALMICE\SOCIETY\SOURCE\GMFBRIDGE\GMFBRIDGE\DEBUG\VC100.PDB
^D:\OREN\PROJECTS\SOCIALMICE\SOCIETY\SOURCE\GMFBRIDGE\GMFBRIDGE\CP.CPP
D:\OREN\PROJECTS\SOCIALMICE\SOCIETY\SOURCE\GMFBRIDGE\GMFBRIDGE\DEBUG\VC100.PDB
^D:\OREN\PROJECTS\SOCIALMICE\SOCIETY\SOURCE\GMFBRIDGE\GMFBRIDGE\GMFBRIDGE.CPP
D:\OREN\PROJECTS\SOCIALMICE\SOCIETY\SOURCE\GMFBRIDGE\GMFBRIDGE\DEBUG\VC100.PDB
^D:\OREN\PROJECTS\SOCIALMICE\SOCIETY\SOURCE\GMFBRIDGE\GMFBRIDGE\SINK.CPP
D:\OREN\PROJECTS\SOCIALMICE\SOCIETY\SOURCE\GMFBRIDGE\GMFBRIDGE\DEBUG\VC100.PDB
^D:\OREN\PROJECTS\SOCIALMICE\SOCIETY\SOURCE\GMFBRIDGE\GMFBRIDGE\SOURCE.CPP
D:\OREN\PROJECTS\SOCIALMICE\SOCIETY\SOURCE\GMFBRIDGE\GMFBRIDGE\DEBUG\VC100.PDB
^D:\PROJECTS\GOOGLE DRIVE\SCIENCE\PROJECTS\SOCIAL MICE\TOOLS\SOFTWARE\NEW CAMERA\SOCIALCAMERA\SOURCES\GMFBRIDGE\GMFBRIDGE\STDAFX.CPP
D:\PROJECTS\GOOGLE DRIVE\SCIENCE\PROJECTS\SOCIAL MICE\TOOLS\SOFTWARE\NEW CAMERA\SOCIALCAMERA\SOURCES\GMFBRIDGE\GMFBRIDGE\DEBUG\GMFBRIDGE.PCH
D:\PROJECTS\GOOGLE DRIVE\SCIENCE\PROJECTS\SOCIAL MICE\TOOLS\SOFTWARE\NEW CAMERA\SOCIALCAMERA\SOURCES\GMFBRIDGE\GMFBRIDGE\DEBUG\STDAFX.OBJ
D:\PROJECTS\GOOGLE DRIVE\SCIENCE\PROJECTS\SOCIAL MICE\TOOLS\SOFTWARE\NEW CAMERA\SOCIALCAMERA\SOURCES\GMFBRIDGE\GMFBRIDGE\DEBUG\VC110.PDB
^D:\PROJECTS\GOOGLE DRIVE\SCIENCE\PROJECTS\SOCIAL MICE\TOOLS\SOFTWARE\NEW CAMERA\SOCIALCAMERA\SOURCES\GMFBRIDGE\GMFBRIDGE\BRIDGE.CPP|D:\PROJECTS\GOOGLE DRIVE\SCIENCE\PROJECTS\SOCIAL MICE\TOOLS\SOFTWARE\NEW CAMERA\SOCIALCAMERA\SOURCES\GMFBRIDGE\GMFBRIDGE\CP.CPP|D:\PROJECTS\GOOGLE DRIVE\SCIENCE\PROJECTS\SOCIAL MICE\TOOLS\SOFTWARE\NEW CAMERA\SOCIALCAMERA\SOURCES\GMFBRIDGE\GMFBRIDGE\GMFBRIDGE.CPP|D:\PROJECTS\GOOGLE DRIVE\SCIENCE\PROJECTS\SOCIAL MICE\TOOLS\SOFTWARE\NEW CAMERA\SOCIALCAMERA\SOURCES\GMFBRIDGE\GMFBRIDGE\SINK.CPP|D:\PROJECTS\GOOGLE DRIVE\SCIENCE\PROJECTS\SOCIAL MICE\TOOLS\SOFTWARE\NEW CAMERA\SOCIALCAMERA\SOURCES\GMFBRIDGE\GMFBRIDGE\SOURCE.CPP
D:\PROJECTS\GOOGLE DRIVE\SCIENCE\PROJECTS\SOCIAL MICE\TOOLS\SOFTWARE\NEW CAMERA\SOCIALCAMERA\SOURCES\GMFBRIDGE\GMFBRIDGE\DEBUG\BRIDGE.OBJ
D:\PROJECTS\GOOGLE DRIVE\SCIENCE\PROJECTS\SOCIAL MICE\TOOLS\SOFTWARE\NEW CAMERA\SOCIALCAMERA\SOURCES\GMFBRIDGE\GMFBRIDGE\DEBUG\CP.OBJ
D:\PROJECTS\GOOGLE DRIVE\SCIENCE\PROJECTS\SOCIAL MICE\TOOLS\SOFTWARE\NEW CAMERA\SOCIALCAMERA\SOURCES\GMFBRIDGE\GMFBRIDGE\DEBUG\GMFBRIDGE.OBJ
D:\PROJECTS\GOOGLE DRIVE\SCIENCE\PROJECTS\SOCIAL MICE\TOOLS\SOFTWARE\NEW CAMERA\SOCIALCAMERA\SOURCES\GMFBRIDGE\GMFBRIDGE\DEBUG\SINK.OBJ
D:\PROJECTS\GOOGLE DRIVE\SCIENCE\PROJECTS\SOCIAL MICE\TOOLS\SOFTWARE\NEW CAMERA\SOCIALCAMERA\SOURCES\GMFBRIDGE\GMFBRIDGE\DEBUG\SOURCE.OBJ
^D:\PROJECTS\GOOGLE DRIVE\SCIENCE\PROJECTS\SOCIAL MICE\TOOLS\SOFTWARE\NEW CAMERA\SOCIALCAMERA\SOURCES\GMFBRIDGE\GMFBRIDGE\BRIDGE.CPP
D:\PROJECTS\GOOGLE DRIVE\SCIENCE\PROJECTS\SOCIAL MICE\TOOLS\SOFTWARE\NEW CAMERA\SOCIALCAMERA\SOURCES\GMFBRIDGE\GMFBRIDGE\DEBUG\VC110.PDB
^D:\PROJECTS\GOOGLE DRIVE\SCIENCE\PROJECTS\SOCIAL MICE\TOOLS\SOFTWARE\NEW CAMERA\SOCIALCAMERA\SOURCES\GMFBRIDGE\GMFBRIDGE\CP.CPP
D:\PROJECTS\GOOGLE DRIVE\SCIENCE\PROJECTS\SOCIAL MICE\TOOLS\SOFTWARE\NEW CAMERA\SOCIALCAMERA\SOURCES\GMFBRIDGE\GMFBRIDGE\DEBUG\VC110.PDB
^D:\PROJECTS\GOOGLE DRIVE\SCIENCE\PROJECTS\SOCIAL MICE\TOOLS\SOFTWARE\NEW CAMERA\SOCIALCAMERA\SOURCES\GMFBRIDGE\GMFBRIDGE\GMFBRIDGE.CPP
D:\PROJECTS\GOOGLE DRIVE\SCIENCE\PROJECTS\SOCIAL MICE\TOOLS\SOFTWARE\NEW CAMERA\SOCIALCAMERA\SOURCES\GMFBRIDGE\GMFBRIDGE\DEBUG\VC110.PDB
^D:\PROJECTS\GOOGLE DRIVE\SCIENCE\PROJECTS\SOCIAL MICE\TOOLS\SOFTWARE\NEW CAMERA\SOCIALCAMERA\SOURCES\GMFBRIDGE\GMFBRIDGE\SINK.CPP
D:\PROJECTS\GOOGLE DRIVE\SCIENCE\PROJECTS\SOCIAL MICE\TOOLS\SOFTWARE\NEW CAMERA\SOCIALCAMERA\SOURCES\GMFBRIDGE\GMFBRIDGE\DEBUG\VC110.PDB
^D:\PROJECTS\GOOGLE DRIVE\SCIENCE\PROJECTS\SOCIAL MICE\TOOLS\SOFTWARE\NEW CAMERA\SOCIALCAMERA\SOURCES\GMFBRIDGE\GMFBRIDGE\SOURCE.CPP
D:\PROJECTS\GOOGLE DRIVE\SCIENCE\PROJECTS\SOCIAL MICE\TOOLS\SOFTWARE\NEW CAMERA\SOCIALCAMERA\SOURCES\GMFBRIDGE\GMFBRIDGE\DEBUG\VC110.PDB
